<?xml version="1.0" encoding="UTF-8"?>
<svg width="56px" height="56px" viewBox="0 0 56 56" version="1.1" xmlns="http://www.w3.org/2000/svg" xmlns:xlink="http://www.w3.org/1999/xlink">
    <!-- Generator: Sketch 51.2 (57519) - http://www.bohemiancoding.com/sketch -->
    <title>Icon</title>
    <desc>Created with Sketch.</desc>
    <defs>
        <linearGradient x1="50%" y1="0%" x2="50%" y2="99.0335983%" id="linearGradient-1">
            <stop stop-color="#034181" offset="0%"></stop>
            <stop stop-color="#0776B7" offset="100%"></stop>
        </linearGradient>
    </defs>
    <g id="MF-Branding---Homepage-(High-Res)" stroke="none" stroke-width="1" fill="none" fill-rule="evenodd">
        <g id="Desktop-HD" transform="translate(-834.000000, -4984.000000)" fill="url(#linearGradient-1)">
            <g id="Footer" transform="translate(278.000000, 4640.000000)">
                <g id="Feature" transform="translate(556.000000, 344.000000)">
                    <g id="Icon">
                        <rect id="Base" x="0" y="0" width="56" height="56" rx="28"></rect>
                    </g>
                </g>
            </g>
        </g>
    </g>
</svg>