<?xml version="1.0" encoding="UTF-8"?>
<svg width="249px" height="124px" viewBox="0 0 249 124" version="1.1" xmlns="http://www.w3.org/2000/svg" xmlns:xlink="http://www.w3.org/1999/xlink">
    <!-- Generator: Sketch 51.2 (57519) - http://www.bohemiancoding.com/sketch -->
    <title>mf-logo-footer</title>
    <desc>Created with Sketch.</desc>
    <defs>
        <linearGradient x1="0%" y1="10%" x2="0%" y2="10%" id="linearGradient-1">
            <stop stop-color="#99A9C1" offset="0%"></stop>
            <stop stop-color="#99A9C1" offset="16%"></stop>
            <stop stop-color="#5C6B7C" offset="76%"></stop>
            <stop stop-color="#5C6B7C" offset="100%"></stop>
        </linearGradient>
        <linearGradient x1="0%" y1="5%" x2="40%" y2="5%" id="linearGradient-2">
            <stop stop-color="#7A899F" offset="0%"></stop>
            <stop stop-color="#79899F" offset="100%"></stop>
        </linearGradient>
        <linearGradient x1="-1%" y1="6.9%" x2="11%" y2="3.1%" id="linearGradient-3">
            <stop stop-color="#99A9C1" offset="0%"></stop>
            <stop stop-color="#99A9C1" offset="100%"></stop>
        </linearGradient>
        <linearGradient x1="-4.79%" y1="76.8461538%" x2="104.8%" y2="23.1538462%" id="linearGradient-4">
            <stop stop-color="#99A9C1" offset="0%"></stop>
            <stop stop-color="#99A9C1" offset="100%"></stop>
        </linearGradient>
        <linearGradient x1="0%" y1="10%" x2="40%" y2="10%" id="linearGradient-5">
            <stop stop-color="#99A9C1" offset="0%"></stop>
            <stop stop-color="#99A9C1" offset="100%"></stop>
        </linearGradient>
    </defs>
    <g id="MF-Branding---Homepage-(High-Res)" stroke="none" stroke-width="1" fill="none" fill-rule="evenodd">
        <g id="Desktop-HD" transform="translate(-589.000000, -4640.000000)">
            <g id="Footer" transform="translate(278.000000, 4640.000000)">
                <g id="mf-logo-footer" transform="translate(311.000000, 0.000000)">
                    <g id="copyright-logo" transform="translate(96.000000, 113.000000)" fill="#034181">
                        <path d="M3.42097206,7.61677778 C1.58374405,7.61677778 0.0943764706,6.00920643 0.0943764706,4.02616667 C0.0943764706,2.04312691 1.58374405,0.435555556 3.42097206,0.435555556 C5.25820007,0.435555556 6.74756765,2.04312691 6.74756765,4.02616667 C6.74756765,6.00920643 5.25820007,7.61677778 3.42097206,7.61677778 Z M3.42097206,6.884 C4.88325558,6.884 6.06867059,5.60450443 6.06867059,4.02616667 C6.06867059,2.4478289 4.88325558,1.16833333 3.42097206,1.16833333 C1.95868854,1.16833333 0.773273529,2.4478289 0.773273529,4.02616667 C0.773273529,5.60450443 1.95868854,6.884 3.42097206,6.884 Z" id="Combined-Shape"></path>
                        <path d="M5.23548214,3.54986111 L4.33899976,3.54986111 C4.1745788,3.18133189 3.82529271,2.927 3.42097206,2.927 C2.85855532,2.927 2.40262647,3.41911368 2.40262647,4.02616667 C2.40262647,4.63321965 2.85855532,5.12533333 3.42097206,5.12533333 C3.83855873,5.12533333 4.19744014,4.85403807 4.3545824,4.46583333 L5.24337142,4.46583333 C5.05751012,5.36732366 4.31216215,6.04130556 3.42097206,6.04130556 C2.38987471,6.04130556 1.55400515,5.13909714 1.55400515,4.02616667 C1.55400515,2.91323619 2.38987471,2.01102778 3.42097206,2.01102778 C4.3000468,2.01102778 5.03721778,2.66680923 5.23548214,3.54986111 Z" id="Combined-Shape"></path>
                    </g>
                    <g id="logo">
                        <path d="M208.312031,4.2251049 C208.748873,2.96776224 209.010979,2.14398601 209.010979,1.79713287 C208.967295,1.66706294 208.879926,1.58034965 208.661505,1.49363636 C208.574137,1.45027972 208.443084,1.36356643 208.3994,1.27685315 C207.613084,0.583146853 204.860979,0.192937063 200.230452,0.192937063 C192.192558,0.192937063 182.6694,1.88384615 171.617295,5.17895105 L171.617295,5.13559441 C161.482558,8.21391608 153.881505,11.4223077 148.814137,14.6306993 C143.746768,17.7957343 139.640452,22.088042 136.582558,27.3775524 C134.179926,31.4964336 130.07361,33.750979 124.350979,33.9677622 C123.957821,34.0111189 123.608347,34.0111189 123.258873,34.0111189 L119.764137,34.0978322 C119.676768,34.0978322 119.152558,34.0978322 118.235189,34.1411888 L117.9294,40.3411888 L132.301505,40.2544755 L130.335716,46.5845455 L126.185716,49.1859441 L124.656768,53.4782517 C124.482031,53.4782517 124.350979,53.5216084 124.219926,53.564965 C122.516242,53.9551748 120.768873,54.3887413 118.977821,54.8223077 C120.4194,61.3258042 120.200979,68.0460839 118.191505,74.9397902 C118.235189,74.9831469 118.322558,75.0265035 118.366242,75.1132168 C119.065189,76.1537762 119.5894,77.2376923 119.982558,78.2782517 C120.11361,77.281049 120.332031,76.3705594 120.637821,75.4600699 C121.162031,73.8992308 122.254137,71.2978322 123.914137,67.6992308 C126.054663,63.0600699 127.146768,60.371958 127.190452,59.5915385 C127.146768,59.2446853 127.015716,59.0279021 126.75361,58.9411888 C126.709926,58.9845455 126.666242,58.9845455 126.622558,58.9845455 C126.491505,59.0279021 126.404137,59.0712587 126.273084,59.1146154 L125.006242,59.5481818 C124.918873,59.5915385 124.744137,59.6348951 124.482031,59.764965 L124.350979,59.4614685 L124.132558,59.5481818 C124.045189,59.5915385 123.870452,59.6348951 123.608347,59.764965 L123.258873,58.8111189 L123.346242,58.7677622 L123.258873,58.5943357 L123.914137,58.3775524 C124.700452,58.0740559 125.443084,57.8139161 126.2294,57.5104196 C127.670979,56.9467832 129.156242,56.3397902 130.597821,55.6894406 L131.471505,55.2558741 L131.471505,55.6894406 L132.345189,55.2558741 L132.345189,55.7761538 C132.345189,57.6404895 131.122031,61.3258042 128.7194,66.7453846 L126.535189,71.688042 C125.355716,74.2894406 124.787821,75.8936364 124.700452,76.5006294 L124.700452,76.543986 C124.744137,76.8474825 124.918873,77.0209091 125.180979,77.150979 C125.574137,77.0209091 126.098347,76.8474825 126.797295,76.543986 L126.928347,76.8474825 C127.146768,76.7607692 127.408873,76.6740559 127.670979,76.543986 L128.064137,77.4111189 C128.020452,77.4544755 128.020452,77.4978322 128.064137,77.6279021 C124.918873,79.102028 122.472558,80.1859441 120.637821,80.7929371 C120.637821,80.7062238 120.637821,80.6195105 120.637821,80.5761538 C120.637821,80.5327972 120.637821,80.4894406 120.637821,80.4894406 C120.594137,80.4894406 120.550452,80.4894406 120.550452,80.4894406 C120.637821,81.0964336 120.725189,81.7034266 120.725189,82.3537762 L120.725189,82.3971329 L120.506768,84.5216084 C120.463084,84.7383916 120.4194,84.9551748 120.332031,85.2153147 L120.332031,85.3887413 C120.288347,85.4320979 120.288347,85.4754545 120.288347,85.5188112 L120.244663,85.6055245 C119.938873,86.6027273 119.502031,87.5999301 118.977821,88.5537762 L118.977821,88.5971329 L117.317821,93.0195105 L117.274137,93.1062238 C118.104137,91.1551748 118.7594,89.7677622 119.239926,88.9873427 C120.506768,86.9062238 121.729926,85.6055245 123.040452,85.2153147 L123.040452,85.171958 C123.914137,84.7817483 125.661505,84.564965 128.195189,84.5216084 L130.554137,79.3621678 C130.160979,78.6684615 129.942558,77.7146154 129.942558,76.5873427 C129.942558,76.5006294 129.942558,76.4139161 129.942558,76.3705594 C129.942558,73.8125175 130.772558,71.081049 132.519926,68.1761538 C133.961505,65.6614685 135.88361,63.3635664 138.198873,61.3258042 L142.742031,50.5733566 L146.105716,41.3383916 C146.1494,41.0348951 146.280452,40.7747552 146.498873,40.557972 C146.717295,40.2978322 147.023084,40.1677622 147.372558,40.2111189 L164.802558,40.2111189 L164.977295,40.081049 C164.977295,40.1244056 164.977295,40.1677622 164.977295,40.2111189 L165.676242,40.2111189 L165.850979,40.081049 C165.850979,40.1244056 165.850979,40.1677622 165.850979,40.2111189 L166.156768,40.2111189 C166.156768,39.950979 166.156768,39.6908392 166.156768,39.4306993 L166.156768,39.3873427 C166.156768,39.0838462 166.156768,38.9104196 166.156768,38.7803497 L166.156768,37.9132168 C166.156768,37.0027273 166.156768,36.0055245 166.156768,35.0516783 L151.347821,35.0516783 C150.998347,35.095035 150.692558,35.0083217 150.343084,34.8782517 C149.818873,34.6181119 149.513084,34.2279021 149.338347,33.750979 C149.16361,33.2306993 149.16361,32.7104196 149.425716,32.2768531 C153.750452,23.4320979 158.730452,17.1453846 164.322031,13.4600699 L164.4094,13.3733566 L164.453084,13.3733566 C164.540452,13.2866434 164.671505,13.2432867 164.758873,13.1565734 C170.481505,9.38454545 178.169926,7.52020979 187.780452,7.52020979 C192.6294,7.52020979 195.905716,7.99713287 197.653084,9.03769231 C197.958873,9.25447552 198.220979,9.47125874 198.4394,9.68804196 C198.526768,9.81811189 198.614137,9.90482517 198.657821,10.0782517 C198.745189,10.2516783 198.745189,10.5985315 198.657821,10.9887413 L198.657821,11.0320979 C198.745189,11.4223077 198.701505,11.8125175 198.526768,12.2460839 C198.395716,12.6362937 198.13361,13.33 197.871505,14.2404895 C197.827821,14.2404895 197.827821,14.2838462 197.827821,14.2838462 L197.740452,14.543986 L197.740452,14.5873427 L197.696768,14.6740559 C197.696768,14.7174126 197.696768,14.7174126 197.653084,14.7174126 L197.653084,14.8474825 L204.293084,14.8908392 L207.787821,5.48244755 C207.831505,5.39573427 207.875189,5.30902098 207.918873,5.26566434 L208.312031,4.2251049 Z M135.490452,49.0558741 L135.490452,49.2726573 C135.490452,49.8362937 135.272031,50.2698601 134.835189,50.7034266 C134.442031,51.0936364 133.961505,51.3104196 133.480979,51.3104196 C133.306242,51.3104196 133.175189,51.3104196 133.000452,51.2670629 C132.8694,51.3104196 132.782031,51.3104196 132.607295,51.3104196 C131.689926,51.3104196 131.2094,50.8768531 131.2094,49.923007 C131.2094,49.923007 131.2094,49.8796503 131.2094,49.8362937 C131.2094,49.8362937 131.2094,49.7929371 131.2094,49.7495804 L131.2094,49.7062238 C131.2094,49.2293007 131.427821,48.7523776 131.820979,48.3188112 C132.214137,47.9286014 132.650979,47.7118182 133.218873,47.7118182 C133.39361,47.7118182 133.524663,47.7551748 133.655716,47.7551748 C133.830452,47.7551748 133.961505,47.7118182 134.092558,47.7118182 C135.009926,47.7118182 135.490452,48.1887413 135.490452,49.0558741 Z" id="Shape" fill="#034181"></path>
                        <path d="M238.323084,31.0628671 C219.424421,24.5771469 206.914137,26.4237063 206.914137,26.4237063 C180.281184,30.2932867 165.76361,42.6824476 165.76361,42.6824476 C165.545189,43.9831469 165.108347,45.5873427 164.4094,47.6251049 C163.404663,50.4432867 161.395189,55.3425874 158.468347,62.4097203 L156.022031,68.3495804 C158.29361,65.6614685 160.303084,63.3635664 162.181505,61.5859441 C165.850979,57.943986 168.734137,56.123007 170.787295,56.123007 C170.918347,56.123007 171.0494,56.1663636 171.180452,56.1663636 C171.311505,56.1663636 171.486242,56.123007 171.660979,56.123007 C172.578347,56.123007 173.058873,56.5999301 173.058873,57.5537762 L173.058873,57.7705594 C173.058873,58.4642657 172.7094,59.5915385 171.966768,61.109021 L170.132031,65.1845455 C167.161505,71.7313986 165.632558,75.6334965 165.501505,76.8474825 C165.545189,77.0642657 165.632558,77.2376923 165.807295,77.3244056 C166.331505,77.1943357 167.074137,76.8908392 167.947821,76.3705594 L168.209926,76.2404895 L168.472031,76.5873427 C168.5594,76.5006294 168.690452,76.4572727 168.821505,76.3705594 L169.08361,76.2404895 L169.607821,77.0209091 C169.564137,77.0209091 169.564137,77.0642657 169.476768,77.0642657 L169.607821,77.2376923 C167.685716,78.2348951 165.152031,79.3188112 162.050452,80.4027273 L161.351505,80.7062238 C161.351505,80.6195105 161.351505,80.5327972 161.395189,80.4894406 L161.351505,80.4894406 C161.351505,80.4460839 161.351505,80.4027273 161.395189,80.4027273 C161.307821,80.4027273 161.264137,80.4027273 161.176768,80.4027273 L160.477821,80.7062238 C160.477821,80.6195105 160.477821,80.5327972 160.521505,80.4894406 L160.477821,80.4894406 C160.696242,77.4111189 162.793084,71.6013287 166.855716,63.0167133 C167.467295,61.7593706 167.773084,60.8922378 167.816768,60.4153147 C167.816768,60.0684615 167.7294,59.8083217 167.510979,59.6782517 C166.986768,59.895035 166.244137,60.371958 165.283084,61.109021 C164.627821,61.6293007 164.016242,62.1929371 163.360979,62.7999301 C162.705716,63.4069231 162.094137,64.0572727 161.482558,64.750979 C159.647821,66.7453846 157.7694,69.1733566 155.934663,71.9481818 C154.056242,74.6796503 152.745716,77.0642657 151.828347,79.102028 C150.474137,79.3188112 149.16361,79.6656643 147.940452,80.2726573 L148.071505,80.0125175 C148.071505,80.0558741 148.027821,80.0558741 147.940452,80.0558741 L148.071505,79.8390909 C147.722031,79.9691608 147.416242,80.1425874 147.066768,80.2726573 L147.197821,80.0125175 C147.197821,80.0558741 147.154137,80.0558741 147.066768,80.0558741 L147.416242,79.3188112 C148.770452,76.1971329 150.037295,73.1621678 151.1294,70.2572727 L158.162558,52.7411888 C159.822558,48.6223077 160.608873,45.9775524 160.696242,44.936993 C160.696242,44.4600699 148.506163,57.6691049 145.099668,54.3631608 L144.576768,56.9901399 C146.542558,56.0796503 148.552031,55.6460839 150.517821,55.6460839 L151.391505,55.6460839 C151.65361,55.6460839 152.046768,55.6460839 152.614663,55.6894406 L152.527295,55.9062238 C152.527295,55.9062238 152.570979,55.9062238 152.614663,55.9062238 L148.464663,63.6237063 L146.542558,63.6237063 L146.629926,63.4069231 L146.542558,63.4069231 L146.760979,62.8866434 C147.416242,61.5425874 147.765716,60.5453846 147.8094,59.9817483 C147.722031,59.3747552 147.154137,59.0712587 145.974663,58.9845455 C145.100979,59.0279021 144.227295,59.2446853 143.440979,59.5915385 L135.839926,77.5845455 C136.233084,77.8013287 136.669926,77.888042 137.194137,77.9313986 C138.766768,77.8446853 140.3394,77.150979 141.955716,75.8069231 C143.790452,74.3327972 145.3194,72.4251049 146.542558,70.0404895 L147.285189,68.5663636 C147.328873,68.523007 147.416242,68.3495804 147.590979,68.0894406 C147.765716,68.4362937 147.853084,68.7397902 147.896768,69.13 L148.158873,68.5663636 C148.202558,68.523007 148.289926,68.3495804 148.464663,68.0894406 C148.683084,68.4796503 148.770452,68.8698601 148.770452,69.2167133 L148.770452,69.4334965 C148.770452,71.1244056 147.50361,73.2055245 144.969926,75.6334965 C144.358347,76.1971329 143.746768,76.7607692 143.135189,77.2376923 C140.252031,79.6223077 137.54361,80.8796503 135.05361,80.9663636 C135.140979,81.0530769 135.184663,81.0964336 135.184663,81.1831469 C135.272031,81.3999301 135.272031,81.6167133 135.184663,81.8334965 L133.961505,84.6516783 C133.961505,84.6516783 133.961505,84.695035 133.961505,84.7383916 L133.961505,84.695035 L132.170452,88.336993 C131.908347,88.8572727 131.558873,89.2474825 131.122031,89.550979 C131.122031,89.550979 131.078347,89.550979 131.034663,89.550979 C130.597821,89.8544755 130.117295,89.9411888 129.593084,89.9845455 L129.505716,89.9845455 C127.277821,89.9411888 125.748873,90.0712587 124.918873,90.288042 C124.525716,90.5481818 124.088873,91.1118182 123.608347,91.9355944 C123.564663,91.9355944 123.564663,91.9355944 123.564663,91.978951 C122.297821,94.0600699 119.370979,100.736993 114.740452,112.053077 C120.768873,108.541189 125.967295,105.072657 130.248347,101.734196 C145.537821,89.5943357 159.167295,84.8251049 171.093084,87.4265035 C173.408347,87.9034266 175.548873,88.3803497 177.470979,88.8139161 L188.129926,91.0251049 C190.095716,91.4586713 191.318873,91.7188112 191.7994,91.8055245 L191.843084,91.8055245 C191.974137,91.8055245 192.061505,91.8488811 192.148873,91.8922378 L192.192558,91.8922378 C207.875189,94.8838462 219.932031,92.2390909 228.450452,83.8712587 C229.324137,83.0041259 230.197821,82.0069231 231.027821,80.9663636 C231.071505,80.8796503 231.158873,80.8362937 231.289926,80.7062238 C231.33361,80.6195105 231.420979,80.5327972 231.508347,80.5327972 C231.595716,80.4027273 231.683084,80.2726573 231.770452,80.1859441 C231.901505,80.0125175 232.425716,79.2754545 233.2994,78.0181119 L233.2994,77.9747552 L233.386768,77.8446853 C233.517821,77.6712587 233.605189,77.4978322 233.736242,77.281049 C233.779926,77.1943357 233.82361,77.0642657 233.910979,76.9775524 C233.998347,76.7607692 234.085716,76.543986 234.173084,76.2838462 C234.391505,75.8936364 234.566242,75.4600699 234.697295,75.0265035 C235.046768,73.9859441 235.396242,72.771958 235.658347,71.3845455 C236.31361,68.3062238 235.658347,63.4069231 233.692558,56.73 C231.464663,49.6195105 236.532031,42.509021 248.982031,35.5286014 L238.323084,31.1062238 L238.323084,31.0628671 Z M228.84361,40.3845455 C229.1494,40.2544755 229.455189,40.081049 229.717295,39.950979 C229.717295,40.0376923 229.717295,40.1244056 229.717295,40.1677622 C229.717295,42.5523776 228.100979,47.364965 224.912031,54.5621678 C219.364137,67.1355944 216.524663,74.3761538 216.437295,76.4139161 C216.437295,76.9341958 216.655716,77.2376923 216.961505,77.3677622 C217.573084,77.1943357 218.490452,76.6306993 219.669926,75.7202098 L220.0194,75.4600699 L220.368873,75.8502797 C220.412558,75.8502797 220.456242,75.7635664 220.54361,75.7202098 L220.893084,75.4600699 L221.460979,76.1971329 C221.460979,76.2404895 221.417295,76.2838462 221.37361,76.2838462 L221.460979,76.4139161 C218.272031,79.1887413 215.956768,80.5761538 214.471505,80.5761538 C214.340452,80.5761538 214.2094,80.5327972 214.034663,80.5327972 C213.90361,80.5327972 213.772558,80.5761538 213.597821,80.5761538 C212.418347,80.5761538 211.850452,79.7523776 211.850452,78.1048252 L211.850452,78.0614685 L211.850452,78.0181119 C211.850452,77.9747552 211.850452,77.9313986 211.850452,77.888042 C211.850452,76.5873427 212.24361,74.8097203 213.07361,72.5118182 C213.90361,70.2139161 215.825716,65.4013287 218.927295,58.0306993 L221.766768,51.3537762 C223.383084,47.495035 224.256768,45.1537762 224.300452,44.4167133 C224.300452,44.0698601 224.125716,43.8530769 223.86361,43.7663636 C223.557821,43.8097203 223.208347,43.9397902 222.684137,44.0698601 C222.553084,44.1565734 222.422031,44.1999301 222.247295,44.2432867 L222.159926,43.9831469 C222.072558,43.9831469 221.897821,44.0265035 221.810452,44.0698601 C221.6794,44.1565734 221.548347,44.1999301 221.37361,44.2432867 L221.067821,43.3761538 L221.111505,43.3761538 L221.067821,43.1593706 L221.504663,42.9859441 C224.955716,41.6852448 227.402031,40.688042 228.84361,39.950979 L228.84361,40.3845455 Z M215.650979,57.4237063 L215.650979,57.6404895 C215.650979,58.3775524 215.257821,59.3313986 214.515189,60.371958 C213.772558,61.4125175 212.811505,62.3663636 211.7194,63.1901399 C210.627295,63.9272028 209.316768,64.6642657 207.700452,65.3146154 C206.127821,65.964965 204.860979,66.3118182 203.987295,66.3118182 C203.856242,66.3118182 203.725189,66.3118182 203.637821,66.2684615 C203.4194,66.3118182 203.288347,66.3118182 203.11361,66.3118182 C202.28361,66.3118182 201.672031,65.8782517 201.322558,65.0544755 C200.62361,66.2251049 200.012031,67.4390909 199.444137,68.7397902 C198.4394,71.1677622 197.915189,73.3355944 197.871505,75.2432867 L197.871505,75.4600699 C197.958873,77.150979 198.657821,78.1048252 200.055716,78.2348951 C201.7594,78.1048252 203.506768,77.0642657 205.385189,75.2432867 C207.350979,73.2055245 209.010979,70.5607692 210.321505,67.3957343 C210.539926,67.8293007 210.670979,68.1761538 210.758347,68.523007 C210.8894,68.1327972 211.064137,67.7859441 211.195189,67.3957343 C211.500979,67.916014 211.632031,68.4362937 211.632031,68.8698601 L211.632031,69.0866434 C211.632031,70.950979 210.321505,73.1188112 207.700452,75.5901399 C203.856242,79.1453846 200.579926,80.9663636 197.915189,80.9663636 L197.041505,80.9663636 C194.726242,80.9663636 193.590452,79.6656643 193.590452,77.0209091 C193.590452,76.9775524 193.590452,76.9341958 193.590452,76.9341958 C193.590452,76.8908392 193.590452,76.8474825 193.590452,76.8041259 L193.721505,74.6362937 C194.070979,72.3817483 194.900979,69.9971329 196.298873,67.5691608 C198.089926,64.3607692 200.405189,61.6726573 203.200979,59.5915385 C206.652031,56.9901399 209.75361,55.7327972 212.418347,55.7327972 L213.292031,55.7327972 C214.864663,55.7327972 215.650979,56.2964336 215.650979,57.4237063 Z M174.3694,75.6334965 L174.3694,75.7635664 C174.3694,77.0209091 174.806242,77.8013287 175.679926,77.9747552 C176.597295,77.8013287 177.864137,76.9341958 179.524137,75.4600699 C181.358873,73.7691608 183.018873,71.7747552 184.504137,69.5635664 C186.51361,66.4852448 187.867821,63.2768531 188.610452,59.895035 C188.916242,60.0684615 189.134663,60.2852448 189.353084,60.5887413 C189.396768,60.3286014 189.440452,60.1118182 189.484137,59.895035 C190.314137,60.4153147 190.750979,61.3691608 190.750979,62.7132168 L190.750979,62.93 C190.750979,64.750979 189.877295,66.7887413 188.129926,69.13 C188.828873,68.9565734 189.615189,68.7397902 190.488873,68.4796503 L190.401505,68.7397902 C190.401505,68.6964336 190.445189,68.6964336 190.488873,68.6964336 L190.445189,68.7397902 C190.750979,68.6964336 191.056768,68.5663636 191.362558,68.4796503 L191.275189,68.7397902 C191.275189,68.6964336 191.318873,68.6964336 191.362558,68.6964336 L191.144137,69.1733566 C189.353084,73.2055245 188.392031,75.6334965 188.348347,76.4139161 C188.348347,76.7174126 188.4794,76.9341958 188.654137,77.0209091 C189.134663,76.8474825 189.877295,76.5006294 190.882031,75.8936364 L191.100452,76.2838462 C191.318873,76.1537762 191.537295,76.0670629 191.755716,75.8936364 L192.279926,76.7174126 L192.192558,76.7607692 L192.279926,76.9341958 C190.226768,78.4516783 187.387295,79.6656643 183.761505,80.5327972 C183.761505,80.4894406 183.761505,80.4027273 183.805189,80.316014 L183.761505,80.316014 C183.4994,80.4027273 183.19361,80.4894406 182.887821,80.5327972 C182.887821,80.4894406 182.887821,80.4027273 182.931505,80.316014 L182.887821,80.316014 C183.018873,78.6684615 183.848873,76.0670629 185.377821,72.4684615 C183.455716,74.5062238 181.489926,76.2838462 179.480452,77.7146154 C176.772031,79.6656643 174.587821,80.6628671 173.015189,80.6628671 C172.840452,80.6628671 172.753084,80.6628671 172.622031,80.6195105 C172.447295,80.6628671 172.316242,80.6628671 172.141505,80.6628671 C170.787295,80.6628671 170.088347,79.7957343 170.088347,78.0614685 L170.088347,78.0181119 L170.088347,77.9313986 C170.088347,77.888042 170.088347,77.8446853 170.088347,77.8446853 C170.088347,74.8530769 171.398873,71.688042 174.06361,68.2628671 C176.772031,64.7943357 180.092031,61.9761538 184.110979,59.764965 C188.697821,57.2069231 193.197295,55.9495804 197.696768,55.9495804 L198.570452,55.9495804 C199.182031,55.9495804 199.531505,56.1663636 199.531505,56.6432867 L199.531505,56.8600699 C199.531505,57.2502797 199.225716,57.9873427 198.614137,59.1146154 C198.352031,59.0279021 198.089926,58.9845455 197.827821,58.9411888 C197.827821,58.9845455 197.784137,59.0279021 197.740452,59.1146154 C196.560979,58.8978322 195.425189,58.7677622 194.2894,58.7244056 C188.4794,58.8544755 183.412031,61.1957343 179.174663,65.7048252 C176.0294,69.0866434 174.413084,72.3817483 174.3694,75.6334965 Z" id="chael---Right-Block" fill="#034181"></path>
                        <path d="M208.661505,63.0600699 C210.277821,61.9327972 211.107821,60.7188112 211.151505,59.4614685 C211.107821,58.7244056 210.627295,58.2908392 209.75361,58.1607692 C207.700452,58.3341958 205.60361,59.6782517 203.4194,62.1929371 C202.764137,62.93 202.196242,63.7104196 201.628347,64.5775524 C201.803084,64.6209091 201.977821,64.6209091 202.108873,64.6209091 C202.108873,64.6209091 202.108873,64.5775524 202.065189,64.5341958 C202.676768,64.6209091 203.200979,64.6642657 203.637821,64.7076224 C205.428873,64.6209091 207.132558,64.0572727 208.661505,63.0600699 Z" id="Shape" fill="#034181"></path>
                        <path d="M165.676242,40.2111189 L164.977295,40.2111189 C164.977295,40.3411888 164.977295,40.4712587 164.977295,40.557972 C165.108347,40.5146154 165.195716,40.5146154 165.283084,40.4279021 L165.676242,40.2111189 Z" id="Shape" fill="#FFCC00"></path>
                        <path d="M164.4094,40.4279021 L164.802558,40.2111189 L147.372558,40.2111189 C147.023084,40.1677622 146.717295,40.2978322 146.498873,40.557972 C146.280452,40.7747552 146.1494,41.0348951 146.105716,41.3383916 L142.742031,50.5733566 L138.198873,61.3258042 C138.548347,60.9355944 138.985189,60.6320979 139.334663,60.2852448 C139.858873,59.895035 140.3394,59.5481818 140.86361,59.157972 C142.130452,58.2908392 143.35361,57.5537762 144.576768,56.9901399 L147.416242,47.1915385 C147.765716,46.4978322 150.117673,38.9815245 149.687821,40.5146154 C149.687821,40.5146154 162.836768,41.2516783 164.4094,40.4279021 Z" id="Shape" fill="#FFCC00"></path>
                        <path d="M143.440979,59.5915385 C142.916768,59.8083217 142.392558,60.1551748 141.868347,60.502028 C141.387821,60.8922378 140.86361,61.3691608 140.426768,61.8894406 C138.854137,63.7104196 137.456242,65.9216084 136.364137,68.523007 C135.228347,70.950979 134.660452,73.0320979 134.616768,74.7663636 L134.616768,74.9831469 C134.660452,76.1971329 135.05361,77.0642657 135.839926,77.5845455 L143.440979,59.5915385 Z" id="Shape" fill="#FFCC00"></path>
                        <path d="M191.7994,91.8055245 C191.318873,91.7188112 190.095716,91.4586713 188.129926,91.0251049 L177.470979,88.8139161 C175.548873,88.3803497 173.408347,87.9034266 171.093084,87.4265035 C159.167295,84.8251049 145.537821,89.5943357 130.248347,101.734196 C125.967295,105.072657 120.768873,108.541189 114.740452,112.053077 C119.370979,100.736993 122.297821,94.0600699 123.564663,91.978951 C123.564663,91.9355944 123.564663,91.9355944 123.608347,91.9355944 C124.088873,91.1118182 124.525716,90.5481818 124.918873,90.288042 C125.748873,90.0712587 127.277821,89.9411888 129.505716,89.9845455 L129.593084,89.9845455 C130.117295,89.9411888 130.597821,89.8544755 131.034663,89.550979 C131.078347,89.550979 131.122031,89.550979 131.122031,89.550979 C131.558873,89.2474825 131.908347,88.8572727 132.170452,88.336993 L133.961505,84.695035 L133.961505,84.7383916 C133.961505,84.695035 133.961505,84.6516783 133.961505,84.6516783 L135.184663,81.8334965 C135.272031,81.6167133 135.272031,81.3999301 135.184663,81.1831469 C135.184663,81.0964336 135.140979,81.0530769 135.05361,80.9663636 C134.966242,80.8796503 134.878873,80.7929371 134.747821,80.7062238 C134.5294,80.6195105 134.310979,80.6195105 134.092558,80.7062238 C133.874137,80.8362937 133.6994,80.9663636 133.612031,81.1831469 L132.432558,83.9146154 L132.432558,83.957972 L130.641505,87.5999301 C130.554137,87.7733566 130.3794,87.9901399 130.248347,88.1202098 L130.204663,88.1202098 L130.160979,88.1202098 C129.986242,88.2069231 129.767821,88.2502797 129.5494,88.2936364 L129.505716,88.2936364 C126.884663,88.2502797 125.137295,88.4237063 124.26361,88.6838462 C124.219926,88.6838462 124.176242,88.7272028 124.132558,88.7705594 C123.477295,89.1174126 122.822031,89.8978322 122.123084,91.1118182 L122.0794,91.1551748 L122.0794,91.1118182 C120.768873,93.323007 117.492558,100.693636 112.337821,113.31042 C112.250452,113.527203 112.250452,113.743986 112.337821,113.960769 C112.381505,114.004126 112.425189,114.090839 112.468873,114.134196 C112.468873,114.177552 112.512558,114.220909 112.556242,114.264266 C112.64361,114.437692 112.818347,114.611119 113.080452,114.654476 C113.298873,114.741189 113.517295,114.697832 113.735716,114.611119 C120.637821,110.665664 126.535189,106.806923 131.340452,103.034895 C146.105716,91.2852448 159.866242,86.9495804 172.665716,89.9845455 C185.421505,93.0628671 190.270452,95.143986 187.125189,96.357972 C184.125831,97.4592308 186.923368,98.1763497 195.517363,98.3662517 C196.060358,98.377958 196.626942,98.3879301 197.216242,98.3957343 C207.176242,98.5258042 215.214137,96.0111189 221.37361,90.8083217 C227.533084,85.6055245 231.552031,81.2698601 233.386768,77.8446853 L233.2994,77.9747552 L233.2994,78.0181119 C232.425716,79.2754545 231.901505,80.0125175 231.770452,80.1859441 C231.683084,80.2726573 231.595716,80.4027273 231.508347,80.5327972 C231.420979,80.5327972 231.33361,80.6195105 231.289926,80.7062238 C231.158873,80.8362937 231.071505,80.8796503 231.027821,80.9663636 C230.197821,82.0069231 229.324137,83.0041259 228.450452,83.8712587 C219.932031,92.2390909 207.875189,94.8838462 192.192558,91.8922378 L192.148873,91.8922378 C192.061505,91.8488811 191.974137,91.8055245 191.843084,91.8055245 L191.7994,91.8055245 Z M121.992031,91.502028 L121.948347,91.5453846 L121.992031,91.4586713 L121.992031,91.502028 Z M123.695716,91.502028 L123.695716,91.5887413 L123.695716,91.5453846 L123.695716,91.502028 Z" id="Bottom-Right-Border" fill="#FFCC00"></path>
                        <path d="M123.695716,91.5887413 L123.695716,91.502028 L123.695716,91.5887413 Z" id="Shape" fill="url(#linearGradient-1)"></path>
                        <path d="M118.235189,34.0978322 L118.235189,34.1411888 L118.409926,34.0978322 C118.366242,34.0978322 118.322558,34.0978322 118.322558,34.0978322 C118.278873,34.0978322 118.278873,34.0978322 118.235189,34.0978322 Z" id="Shape" fill="url(#linearGradient-2)"></path>
                        <path d="M118.459071,54.8907798 C118.217443,53.7837313 118.372385,53.5438156 118.090485,52.481049 C117.325329,54.0309169 117.641357,54.6965472 117.077558,56.6892346 C116.513758,58.8147678 115.559531,63.2841865 113.586234,67.6882612 C112.821077,72.3378652 112.378092,75.3933192 112.337821,76.8546233 C112.337821,76.8546233 112.378092,76.8546233 112.418364,76.8546233 C112.941892,76.8103414 113.666776,76.5003678 114.512475,76.0575484 L114.673561,76.367522 C114.673561,76.32324 114.673561,76.32324 114.713832,76.2789581 L114.754104,76.367522 C114.955461,76.2789581 115.116546,76.1903942 115.317903,76.0575484 L115.478989,76.367522 C115.478989,76.32324 115.478989,76.32324 115.51926,76.2789581 L115.559531,76.367522 C115.640074,76.367522 115.680346,76.32324 115.720617,76.2789581 L116.203873,77.2531608 C116.163602,77.2531608 116.163602,77.2531608 116.123331,77.2531608 L116.203873,77.4745705 L116.163602,77.4745705 L116.123331,77.4745705 L116.203873,77.6959802 L116.163602,77.6959802 L116.606587,78.5816191 C116.566316,78.5816191 116.566316,78.5816191 116.526045,78.5816191 L116.606587,78.8030288 L116.203873,79.2458482 C115.680346,79.4672579 114.955461,79.7329496 114.029219,80.175769 C117.492558,81.4599453 119.385313,83.0983772 119.58667,85.1353466 C119.626941,85.578166 119.626941,85.9767035 119.58667,86.330959 L119.626941,86.330959 L119.667212,86.2423951 C119.667212,86.1981132 119.667212,86.1538312 119.707484,86.1095493 C119.707484,86.0652674 119.707484,86.0209854 119.707484,85.9767035 C119.788026,85.6667299 119.828298,85.4453202 119.868569,85.2239105 L120.069926,83.0540953 C120.069926,82.3455842 119.989383,81.725637 119.908841,81.1056898 C119.667212,81.2385356 119.385313,81.3270995 119.183956,81.4156634 C119.183956,81.3270995 119.183956,81.2385356 119.183956,81.1942537 C119.183956,80.3971787 119.30477,79.6001038 119.385313,78.8473107 C119.02287,77.7845441 118.539614,76.6774956 117.895272,75.6147289 C117.855,75.526165 117.774457,75.4818831 117.734186,75.4376012 C119.58667,68.3967723 119.788026,61.5330712 118.459071,54.8907798 Z" id="yellow-left-curve" fill="#FFCC00"></path>
                        <path d="M235.876768,78.3216084 L235.920452,78.3216084 C235.833084,78.1481818 235.745716,77.9747552 235.702031,77.8013287 C235.745716,78.0181119 235.833084,78.1481818 235.876768,78.3216084 Z" id="Shape" fill="#FFCC00"></path>
                        <path d="M237.624137,83.2209091 C238.454137,85.4320979 238.454137,85.4320979 237.667821,83.2209091 L237.624137,83.2209091 Z" id="Shape" fill="#FFCC00"></path>
                        <path d="M95.2140101,32.8269041 C95.2268184,32.8236362 95.2394972,32.8204969 95.2520464,32.8174863 L95.2520464,32.1467832 C95.1525151,32.1519905 95.0945827,32.1562003 95.0782492,32.1594126 C94.5558159,32.2621578 93.8833259,32.5455645 93.0349223,33.0090446 L92.8884523,33.1176858 C92.8602327,33.1454351 92.7898229,33.1939006 92.7516981,33.2126453 L92.6343168,33.2864979 C92.4808263,33.4072438 92.3519069,33.4896449 92.0458274,33.6702319 C91.9543067,33.7421209 91.9082536,33.778502 91.9076681,33.7793752 L91.5483625,33.9560338 L91.5483625,34.3049864 C91.51966,34.4065748 91.5042711,34.4992858 91.5042711,34.6181119 L91.5382105,34.8237705 C91.5537115,34.8694985 91.5607793,34.8871479 91.596735,34.9623133 C91.5201346,35.0018398 91.4620376,35.0406075 91.3893422,35.1120914 L91.306708,35.211209 C91.2772966,35.2545908 91.2540226,35.2926685 91.2221453,35.3475242 C91.1516219,35.4688833 91.1362733,35.4910125 91.0807018,35.5456578 C90.9973396,35.6598508 90.9554668,35.7173224 90.9550832,35.7180726 L90.4019842,35.536779 L90.4019842,36.5045586 C89.8713064,38.0395588 89.5778057,39.1870212 89.5238531,40.0013333 C89.3562657,40.8856272 89.0832642,42.4986 88.7782903,44.4478929 C88.3614954,46.5767049 87.3873471,48.8881909 85.8225382,51.4527405 C83.5093258,55.1806213 83.360772,55.4228033 83.2623775,55.66469 L83.1004117,56.0628561 L83.6465882,56.5999301 L83.9205375,56.5999301 C83.9635368,56.5999301 84.0040263,56.5964501 84.0426906,56.5900721 C83.9969913,56.7128819 83.9359038,56.8497494 83.858086,57.0027912 L82.29652,59.9470239 C81.0562785,62.8552329 81.0562785,65.0311248 82.4480308,66.3470453 L82.598665,66.4894719 L81.8899261,67.2656643 L79.0504524,69.8237063 C78.0457156,70.6474825 76.9972945,71.4279021 75.9051893,72.164965 C75.5120314,72.3817483 75.1625577,72.5985315 74.813084,72.8153147 C74.5509787,72.9887413 74.2451893,73.1621678 73.983084,73.2922378 C72.8909787,68.8698601 72.4978208,64.4474825 72.8909787,60.1985315 L72.934663,60.0251049 C72.934663,59.8516783 73.0220314,59.6782517 73.0657156,59.5481818 C74.9441366,51.136993 77.0409787,45.1537762 79.2688735,41.5118182 C79.2251893,41.3817483 79.3999261,41.0348951 79.7057156,40.6013287 C80.0115051,40.2544755 80.1425577,40.081049 80.2299261,40.081049 C81.0162419,38.7803497 81.9336103,37.5663636 82.894663,36.3523776 C83.8557156,35.095035 84.8167682,33.8376923 85.6904524,32.6670629 C90.9762419,25.4265035 94.2525577,19.4432867 95.4757156,14.6740559 C95.563084,14.2838462 95.6504524,13.936993 95.7378208,13.6334965 C95.8251893,13.4167133 95.8251893,13.2432867 95.8688735,13.0698601 C95.9562419,12.8530769 95.9999261,12.6362937 96.0436103,12.5062238 C96.1309787,12.3327972 96.174663,12.2460839 96.3057156,12.2027273 C96.4367682,12.2460839 96.5241366,12.4195105 96.6988735,12.7663636 C96.8299261,13.0698601 96.9172945,13.2866434 96.9609787,13.5034266 C97.004663,13.5467832 97.0483472,13.7202098 97.1357156,14.1104196 C97.1357156,14.4139161 97.1793998,14.6306993 97.2667682,14.8041259 C97.2667682,14.8908392 97.2813296,14.948648 97.3104524,14.9775524 C98.7957156,20.4838462 102.945716,27.5943357 109.760452,36.3523776 C110.066242,36.7425874 110.415716,37.1327972 110.677821,37.5663636 C113.080452,40.7747552 115.046242,44.0698601 116.487821,47.4083217 L113.866768,50.3132168 C113.124137,51.1803497 112.337821,52.1341958 111.464137,53.1747552 L109.890265,55.1512525 C109.236411,50.3686916 108.083075,45.7732447 106.409408,41.3708025 C106.322165,41.174848 106.263238,41.024873 106.200413,40.8451579 C106.182903,40.7950664 106.164907,40.7422074 106.14385,40.6792261 C106.141926,40.673472 106.050427,40.3971882 106.020518,40.3089568 L105.958501,40.1260049 L106.131804,40.2964199 L105.785197,39.61476 L104.731713,36.5069803 L104.731713,37.3153769 C104.711212,37.2779253 104.689057,37.2415012 104.64353,37.1761538 C104.634205,37.1639277 104.449262,36.898404 104.304488,36.70273 C104.207789,36.5139649 104.108274,36.3636858 103.982546,36.2093224 C104.009483,36.1336145 104.02625,36.0560465 104.02625,35.9621678 L104.006503,35.8044349 C103.967213,35.6498948 103.910153,35.5356726 103.771853,35.3229428 L103.722481,35.1772945 L103.423347,34.8831462 C103.142605,34.5243445 102.805096,34.2210357 102.453088,33.990275 L102.310244,33.9194928 C100.946767,33.4368216 99.3750574,33.9765255 97.4859999,35.453059 C97.0750767,35.7895614 96.8895658,35.9427936 96.6293815,36.1620919 C96.483658,36.2814278 96.3318133,36.3441055 96.1675927,36.3516113 C95.968648,36.3252123 95.834188,36.26898 95.6793934,36.1509434 C95.5514097,35.9856882 95.4725037,35.8039906 95.4725037,35.702028 C95.4725037,35.0953536 95.6541872,34.4842156 96.0565975,33.7855502 C96.1183109,33.71159 96.1675972,33.6322429 96.2491851,33.4677646 C96.30912,33.3837636 96.3499857,33.2851653 96.3655983,33.1776989 C96.3850098,33.0440828 96.3671309,32.946132 96.3314167,32.8407749 C96.3080895,32.7719597 96.2901758,32.7342131 96.1991645,32.5664537 C95.958989,32.2121946 95.5810329,32.0828341 95.0782492,32.1594126 L95.1559967,32.7356258 C95.1718187,32.7120937 95.1891882,32.689664 95.2079549,32.668475 L95.2079549,32.7971329 L95.2140101,32.8269041 C95.2119949,32.8274182 95.2099765,32.8279355 95.2079549,32.828456 L95.2079549,32.7971329 L95.2140101,32.8269041 Z" id="brush-tip" fill="#FFCC00"></path>
                        <path d="M90.4083472,69.3034266 C90.2336103,68.3062238 89.9715051,67.309021 89.753084,66.2251049 L89.3162419,64.3174126 C88.6172945,65.1411888 87.1320314,66.7453846 84.8604524,69.1733566 C85.7778208,68.2628671 85.6904524,68.4362937 84.4672945,69.7803497 L84.4672945,69.8237063 L84.5109787,69.7803497 C85.7778208,71.2544755 85.384663,73.5523776 83.4625577,76.7607692 C85.384663,76.3272028 86.8699261,75.9803497 87.9183472,75.7635664 L87.9620314,75.7202098 C88.1367682,75.7202098 88.2678208,75.6768531 88.3988735,75.6334965 L88.4425577,75.6334965 L89.4036103,75.4167133 L89.4909787,75.4167133 C89.4909787,75.3733566 89.4909787,75.3733566 89.534663,75.3733566 C90.1025577,75.2432867 90.6267682,75.1132168 91.194663,75.0265035 L90.4083472,69.3034266 Z" id="Shape" fill="#034181"></path>
                        <path d="M84.4672945,69.8237063 C84.2925577,69.9971329 84.1178208,70.2139161 83.8993998,70.4306993 L80.2736103,73.6824476 C78.9193998,74.8530769 77.5215051,75.8936364 76.1236103,76.8474825 C76.1236103,76.8474825 76.0799261,76.8474825 76.0799261,76.8908392 C75.8178208,77.0642657 75.5557156,77.2376923 75.2936103,77.3677622 C75.4683472,77.888042 75.6867682,78.4083217 75.8615051,78.9286014 C75.8615051,78.9286014 75.8178208,78.9286014 75.7741366,78.9286014 C75.6867682,78.971958 75.5993998,79.0586713 75.5120314,79.1453846 L75.5120314,79.1887413 C74.9878208,79.7957343 74.5072945,80.4027273 74.1578208,81.0530769 C72.934663,82.9174126 72.4104524,84.8684615 72.4978208,86.9062238 C72.4978208,87.3397902 72.5851893,87.7733566 72.6725577,88.2069231 C72.7162419,88.6404895 72.8472945,89.0740559 72.934663,89.5076224 C73.2841366,90.6348951 73.764663,91.7188112 74.4636103,92.8894406 L81.7588735,121.808322 C81.7151893,121.808322 81.6278208,121.808322 81.5841366,121.808322 C81.453084,121.764965 81.4093998,121.808322 81.3657156,121.808322 C81.2783472,121.851678 80.7978208,121.938392 80.0115051,121.938392 C79.1378208,121.938392 77.7836103,121.764965 75.9488735,121.374755 C74.0704524,120.941189 71.5367682,119.813916 68.3478208,118.07965 C69.8767682,117.299231 70.7941366,116.432098 71.0999261,115.478252 C71.0999261,115.434895 71.0999261,115.391538 71.0999261,115.391538 C71.1436103,115.174755 71.1436103,114.914615 71.0999261,114.654476 C71.0562419,114.481049 71.0125577,114.307622 70.9251893,114.177552 L70.9251893,114.090839 C70.7504524,113.787343 70.6193998,113.657273 70.444663,113.527203 C70.2262419,113.31042 69.9641366,113.223706 69.7457156,113.267063 C69.6583472,113.267063 69.614663,113.31042 69.5709787,113.31042 L69.5272945,113.31042 C68.3041366,113.570559 67.124663,113.743986 66.0762419,113.874056 C65.9451893,113.874056 65.8578208,113.874056 65.7267682,113.874056 L64.7657156,113.960769 C63.4988735,113.960769 62.1883472,113.787343 60.8341366,113.483846 C59.6983472,113.093636 58.6499261,112.573357 57.8199261,111.87965 L57.8199261,111.836294 C57.8199261,111.792937 57.8199261,111.74958 57.8199261,111.706224 C58.0383472,110.969161 57.8199261,110.188741 57.164663,109.321608 C56.8588735,108.844685 56.2472945,108.324406 55.3736103,107.760769 C55.7667682,107.457273 56.1162419,107.24049 56.553084,106.98035 C56.553084,106.98035 56.6404524,106.98035 56.6404524,106.936993 C56.9025577,106.763566 56.9899261,106.546783 57.0772945,106.156573 C57.1209787,105.983147 57.1209787,105.80972 57.0772945,105.636294 C57.0772945,105.54958 57.0772945,105.506224 57.0336103,105.462867 C56.9462419,105.289441 56.9025577,105.116014 56.8588735,105.029301 C56.8151893,104.985944 56.7715051,104.899231 56.7715051,104.899231 C56.6404524,104.682448 56.5093998,104.552378 56.4220314,104.465664 C56.3783472,104.465664 56.3783472,104.465664 56.334663,104.465664 C53.6699261,102.688042 51.1362419,101.343986 48.7336103,100.39014 C48.6462419,100.303427 48.5588735,100.26007 48.4715051,100.26007 C48.2967682,100.216713 48.1220314,100.13 47.9472945,100.086643 L47.9909787,100.086643 C47.204663,99.8265035 46.4620314,99.5663636 45.763084,99.3495804 C45.7193998,99.3495804 44.8893998,99.0894406 43.273084,98.5691608 C41.7004524,98.0922378 39.7783472,97.5286014 37.5941366,96.9216084 C36.8951893,96.7481818 36.5020314,96.6614685 36.3272945,96.6614685 L36.2836103,96.6614685 C36.2836103,96.6614685 36.2836103,96.7048252 36.414663,96.7481818 L39.123084,97.7887413 C39.6909787,98.0055245 40.3899261,98.309021 41.3072945,98.6992308 C41.6567682,98.8293007 42.0062419,98.9593706 42.2683472,99.0460839 L40.6083472,99.0460839 C42.3993998,99.4362937 43.3604524,99.7397902 43.4915051,99.9132168 C43.6225577,100.13 43.884663,100.346783 44.1904524,100.563566 C44.4525577,100.78035 44.6709787,100.91042 44.8457156,100.91042 C44.9767682,100.953776 45.3262419,100.997133 45.8067682,101.127203 C46.2436103,101.170559 46.8988735,101.343986 47.7288735,101.604126 C48.5588735,101.820909 49.0393998,101.994336 49.2578208,101.994336 C49.4325577,101.994336 49.3451893,101.994336 49.0393998,102.037692 C48.6899261,102.037692 48.3841366,102.167762 48.034663,102.427902 C49.083084,102.341189 50.1751893,102.557972 51.354663,103.078252 C52.5341366,103.555175 53.844663,104.465664 55.2862419,105.766364 C54.6309787,106.19993 53.9757156,106.633497 53.3204524,107.153776 C53.1893998,107.24049 53.1020314,107.413916 53.014663,107.587343 C52.9709787,107.804126 53.014663,107.934196 53.0583472,108.107622 C53.1457156,108.281049 53.233084,108.454476 53.4515051,108.541189 C54.6309787,109.234895 55.4172945,109.841888 55.8541366,110.318811 C56.0725577,110.665664 56.2036103,110.969161 56.2036103,111.272657 C56.2036103,111.272657 56.1599261,111.359371 56.1599261,111.402727 L56.0725577,112.096434 C56.0725577,112.226503 56.0725577,112.356573 56.0725577,112.486643 C56.1162419,112.573357 56.2036103,112.703427 56.2909787,112.79014 C56.334663,112.833497 56.334663,112.833497 56.334663,112.876853 L56.3783472,112.876853 C58.6936103,115.044685 61.9699261,115.911818 66.2072945,115.564965 C67.2120314,115.478252 68.3041366,115.304825 69.3962419,115.044685 C68.9593998,115.781748 68.0420314,116.432098 66.5567682,116.995734 L66.513084,116.995734 C66.3820314,117.039091 66.294663,117.125804 66.1636103,117.212517 C66.0325577,117.342587 65.9015051,117.559371 65.9015051,117.776154 C65.9015051,117.862867 65.9015051,117.94958 65.9451893,117.992937 C65.9015051,118.123007 65.9451893,118.20972 65.9451893,118.296434 C66.0325577,118.556573 66.1636103,118.73 66.3383472,118.86007 C69.9641366,121.027902 73.983084,122.545385 78.5262419,123.412517 C78.6136103,123.455874 78.744663,123.455874 78.8320314,123.455874 C78.9193998,123.499231 78.963084,123.499231 79.0067682,123.499231 C79.1378208,123.499231 79.2688735,123.499231 79.4436103,123.585944 C79.6183472,123.672657 80.0551893,123.672657 80.7541366,123.716014 C81.4093998,123.759371 81.9772945,123.759371 82.3704524,123.672657 C82.7636103,123.629301 83.0693998,123.542587 83.2441366,123.455874 C83.4188735,123.325804 83.5499261,123.239091 83.6372945,123.109021 C83.724663,122.935594 83.724663,122.805524 83.6809787,122.588741 L76.1236103,92.3691608 C76.1236103,92.3258042 76.0799261,92.2390909 75.9925577,92.1523776 C75.3372945,91.0684615 74.8567682,90.0712587 74.594663,89.0740559 C74.4199261,88.4670629 74.2888735,87.9034266 74.2451893,87.3397902 C74.2451893,87.2964336 74.2451893,87.2530769 74.2451893,87.2530769 C74.6383472,87.3831469 75.2936103,86.8195105 76.254663,85.4754545 C77.2157156,84.1313986 78.2204524,83.2209091 79.3125577,82.7873427 C80.404663,82.3537762 81.4093998,82.3537762 82.283084,82.743986 C83.2004524,83.1341958 84.3799261,83.350979 85.7778208,83.350979 C87.1320314,83.350979 88.3988735,83.0908392 89.4909787,82.5272028 C89.534663,82.5272028 89.534663,82.5272028 89.534663,82.4838462 C89.9715051,82.2237063 90.6267682,81.9202098 91.4567682,81.53 L90.8015051,81.0964336 C90.8015051,81.0530769 90.8451893,80.9663636 90.8451893,80.923007 L90.8015051,80.8796503 C90.8015051,80.7929371 90.8451893,80.7062238 90.9325577,80.6195105 L90.364663,80.2293007 C90.364663,80.1859441 90.364663,80.1425874 90.364663,80.1425874 C90.2336103,79.9691608 90.2336103,79.7523776 90.364663,79.578951 C90.364663,79.5355944 90.364663,79.4922378 90.4083472,79.4488811 C90.4083472,79.3621678 90.4957156,79.3188112 90.5393998,79.2320979 C90.5393998,79.1453846 90.583084,79.0586713 90.6267682,78.971958 C90.6267682,78.9286014 90.6267682,78.8852448 90.6704524,78.8852448 C90.7141366,78.7985315 90.7141366,78.7551748 90.7578208,78.7118182 C90.7578208,78.6684615 90.8015051,78.5383916 90.8451893,78.4516783 C91.2820314,77.3677622 91.413084,76.1971329 91.194663,75.0698601 L91.194663,75.0265035 C90.6267682,75.1132168 90.1025577,75.2432867 89.534663,75.3733566 C89.4909787,75.3733566 89.4909787,75.3733566 89.4909787,75.4167133 L89.4472945,75.4167133 L89.4036103,75.4167133 L88.4425577,75.6334965 L88.3988735,75.6334965 C88.2678208,75.6768531 88.1367682,75.7202098 87.9620314,75.7202098 L87.9183472,75.7635664 C86.8699261,75.9803497 85.384663,76.3272028 83.4625577,76.7607692 L83.4188735,76.7607692 L83.4625577,76.7607692 C85.384663,73.5523776 85.7778208,71.2544755 84.5109787,69.7803497 L84.4672945,69.8237063 Z M48.8209787,100.476853 L48.864663,100.476853 L48.864663,100.52021 L48.8209787,100.476853 Z M69.4399261,115.044685 C69.4836103,115.001329 69.4836103,115.044685 69.4399261,115.174755 C69.4836103,115.088042 69.4836103,115.044685 69.4399261,115.044685 Z" id="left-bottom-brush" fill="#FFCC00"></path>
                        <path d="M0.0257155842,73.5523776 C0.156768216,73.6824476 0.331505058,73.7691608 0.462557689,73.8992308 C1.68571558,74.8530769 2.90887348,75.7202098 4.21939979,76.5873427 C7.93255769,78.9286014 12.0388735,80.7929371 16.4509787,82.0936364 C16.5383472,82.136993 16.5820314,82.136993 16.6257156,82.136993 C16.6693998,82.136993 16.6693998,82.136993 16.713084,82.136993 C17.1062419,82.2670629 17.543084,82.3971329 17.9799261,82.5272028 C18.154663,82.5705594 18.373084,82.5705594 18.5478208,82.6572727 C23.964663,83.8712587 28.7699261,84.3481818 32.9199261,84.088042 C36.4583472,83.8279021 40.1278208,84.2181119 43.8409787,85.302028 C44.5836103,85.4754545 45.2825577,85.6922378 46.0251893,85.9523776 C45.4136103,86.0824476 44.8457156,86.2558741 44.2778208,86.4726573 L44.103084,87.0362937 C45.8067682,87.6432867 47.5104524,88.2502797 49.083084,88.9006294 C49.4325577,88.9873427 49.7820314,89.1607692 50.1751893,89.3341958 C51.2236103,89.7677622 52.2283472,90.2446853 53.233084,90.7216084 C53.6262419,90.895035 54.0193998,91.1118182 54.4562419,91.2852448 C54.9367682,91.502028 55.3736103,91.7621678 55.8541366,92.0223077 C56.5093998,92.3691608 57.2520314,92.8027273 57.994663,93.2362937 C58.0383472,93.2362937 58.0383472,93.2796503 58.0383472,93.323007 L58.0820314,93.323007 C58.213084,93.3663636 58.2567682,93.4097203 58.3878208,93.4530769 C58.0820314,93.6265035 57.994663,93.7565734 57.9509787,93.7565734 C57.7325577,94.1901399 56.6404524,94.1034266 54.674663,93.5397902 L54.2378208,93.4097203 C53.3204524,93.1062238 52.6651893,92.8894406 52.2283472,92.716014 C51.1362419,92.3258042 50.4372945,92.109021 50.1751893,92.1523776 C49.7383472,92.1523776 50.4809787,92.7593706 52.3593998,93.9733566 C53.014663,94.3202098 53.7136103,94.7537762 54.5436103,95.2740559 C55.1988735,95.6209091 55.8541366,96.0111189 56.4220314,96.357972 C57.994663,97.2684615 59.3051893,98.1355944 60.3972945,98.9593706 C57.1209787,98.5258042 53.844663,97.8754545 50.5683472,96.8782517 C50.524663,96.8782517 50.4809787,96.8782517 50.3936103,96.8348951 C50.3499261,96.7915385 50.3062419,96.7915385 50.2625577,96.7915385 C50.2625577,96.7915385 50.1751893,96.7481818 50.1315051,96.7048252 C50.0878208,96.7048252 50.0441366,96.7048252 50.0441366,96.7048252 C48.4278208,95.9677622 47.0736103,95.4474825 45.9378208,95.143986 C44.7583472,94.7971329 42.7925577,94.4936364 39.9967682,94.3202098 C37.2009787,94.1034266 37.0699261,94.6670629 39.5599261,96.0111189 L39.7783472,96.0111189 C39.6909787,96.0111189 39.6472945,96.0111189 39.5599261,96.0544755 C39.4725577,96.0544755 39.4725577,96.0544755 39.4288735,96.0978322 C38.3804524,96.2712587 37.2883472,96.488042 36.2399261,96.6614685 L36.3272945,96.6614685 C36.5020314,96.6614685 36.8951893,96.7481818 37.5941366,96.9216084 C39.7783472,97.5286014 41.7004524,98.0922378 43.273084,98.5691608 C44.8893998,99.0894406 45.7193998,99.3495804 45.763084,99.3495804 C46.4620314,99.5663636 47.204663,99.8265035 47.9909787,100.086643 L47.9472945,100.086643 C48.1220314,100.13 48.2967682,100.216713 48.4715051,100.26007 C48.5588735,100.26007 48.6462419,100.303427 48.7336103,100.39014 C51.1362419,101.343986 53.6699261,102.688042 56.334663,104.465664 C56.3783472,104.465664 56.3783472,104.465664 56.4220314,104.465664 C56.5093998,104.552378 56.6404524,104.682448 56.7715051,104.899231 C56.7715051,104.899231 56.8151893,104.985944 56.8588735,105.029301 C56.9025577,105.116014 56.9462419,105.289441 57.0336103,105.462867 C57.0772945,105.506224 57.0772945,105.54958 57.0772945,105.636294 C57.1209787,105.80972 57.1209787,105.983147 57.0772945,106.156573 C56.9899261,106.546783 56.9025577,106.763566 56.6404524,106.936993 C56.6404524,106.98035 56.553084,106.98035 56.553084,106.98035 C56.1162419,107.24049 55.7667682,107.457273 55.3736103,107.760769 C56.2472945,108.324406 56.8588735,108.844685 57.164663,109.321608 C57.8199261,110.188741 58.0383472,110.969161 57.8199261,111.706224 L57.8199261,111.87965 C58.6499261,112.573357 59.6983472,113.093636 60.8341366,113.483846 C62.1883472,113.787343 63.4988735,113.960769 64.7657156,113.960769 L65.7267682,113.874056 C65.8141366,113.874056 65.9015051,113.874056 65.9451893,113.874056 C67.0372945,113.743986 68.2167682,113.570559 69.4399261,113.31042 C69.5709787,113.267063 69.614663,113.223706 69.7457156,113.267063 C69.9641366,113.223706 70.2262419,113.31042 70.444663,113.527203 C70.6193998,113.657273 70.7504524,113.787343 70.9251893,114.090839 L70.9251893,114.177552 C71.0125577,114.307622 71.0562419,114.481049 71.0999261,114.654476 C71.1436103,114.914615 71.1436103,115.174755 71.0999261,115.391538 C71.0999261,115.391538 71.0999261,115.434895 71.0999261,115.478252 C70.7941366,116.432098 69.8767682,117.299231 68.3478208,118.07965 C70.2161945,119.09593 71.8600314,119.903664 73.2784577,120.48551 C74.2810103,120.896965 75.1712945,121.195259 75.9488735,121.374755 C77.7836103,121.764965 79.1378208,121.938392 80.0115051,121.938392 C80.7978208,121.938392 81.2783472,121.851678 81.3657156,121.808322 C81.4093998,121.808322 81.453084,121.764965 81.5841366,121.808322 C81.6278208,121.808322 81.7151893,121.808322 81.7588735,121.808322 L74.4636103,92.8894406 L74.4199261,92.9327972 L74.4199261,92.8894406 L74.4636103,92.8894406 C73.764663,91.7188112 73.2841366,90.6348951 72.934663,89.5076224 C72.8472945,89.0740559 72.7162419,88.6404895 72.6725577,88.2069231 C72.5851893,87.7733566 72.4978208,87.3397902 72.4978208,86.9062238 C72.4104524,84.8684615 72.934663,82.9174126 74.1578208,81.0530769 C74.5072945,80.4027273 74.9878208,79.7957343 75.5120314,79.1887413 L75.5120314,79.1453846 C75.5993998,79.0586713 75.6867682,78.971958 75.7741366,78.9286014 C75.8178208,78.9286014 75.8615051,78.9286014 75.8615051,78.9286014 C75.6867682,78.4083217 75.4683472,77.888042 75.2936103,77.3677622 L75.2499261,77.4111189 C75.2062419,77.4111189 75.2062419,77.4111189 75.2062419,77.3677622 C75.1188735,77.4111189 75.0751893,77.4544755 75.0751893,77.4544755 C72.5415051,78.8852448 70.1388735,79.9691608 67.8236103,80.7062238 C67.2120314,80.923007 66.6441366,81.0530769 66.0762419,81.1831469 C65.464663,81.3565734 64.9404524,81.4866434 64.3725577,81.5733566 C64.1104524,81.6167133 63.8483472,81.6600699 63.6299261,81.7034266 C60.7467682,82.136993 58.0383472,82.0069231 55.4609787,81.3565734 L55.3736103,81.3565734 L55.3299261,81.3565734 L55.3736103,81.3132168 C51.4420314,80.316014 47.7725577,78.0614685 44.4962419,74.5929371 L44.4962419,74.5495804 C44.4525577,74.5495804 44.4088735,74.5495804 44.3651893,74.5495804 L44.3215051,74.5062238 L44.4962419,74.5495804 C41.7878208,73.4656643 37.8999261,72.4684615 32.7451893,71.5146154 C27.5904524,70.5174126 22.3483472,70.4740559 17.0188735,71.3411888 L15.3588735,71.3411888 C6.49097874,69.4334965 4.48150506,69.8670629 9.33045243,72.7286014 C9.37413664,72.7286014 9.41782085,72.771958 9.46150506,72.8153147 C9.59255769,72.8153147 9.76729453,72.902028 9.89834716,72.9453846 C9.72361032,72.9887413 9.54887348,72.9887413 9.37413664,73.0320979 C7.18992611,73.1188112 5.31150506,73.2922378 3.65150506,73.4656643 C4.13203137,73.7258042 4.61255769,73.9859441 5.09308401,74.2460839 C5.35518927,74.4195105 5.61729453,74.5495804 5.83571558,74.6796503 C5.57361032,74.6362937 5.26782085,74.5929371 5.00571558,74.5495804 C4.52518927,74.4195105 4.04466295,74.3327972 3.56413664,74.2460839 C2.73413664,74.116014 1.99150506,73.9859441 1.20518927,73.8125175 C1.16150506,73.8125175 1.11782085,73.8125175 1.11782085,73.8125175 C0.724662953,73.6824476 0.375189268,73.5957343 0.0257155842,73.5523776 Z M44.1467682,74.4195105 L44.2778208,74.4628671 L44.1904524,74.4628671 C44.1904524,74.4195105 44.1467682,74.4195105 44.1467682,74.4195105 Z M58.9557156,93.2362937 L58.9557156,93.1929371 C58.9557156,93.2362937 58.9557156,93.2362937 58.9993998,93.2362937 L58.9557156,93.2362937 Z" id="Left-Bottom-Flame" fill="#034181"></path>
                        <path d="M58.9557156,93.1929371 L58.9557156,93.2362937 L58.9993998,93.2362937 C58.9557156,93.2362937 58.9557156,93.2362937 58.9557156,93.1929371 Z" id="Shape" fill="url(#linearGradient-3)"></path>
                        <path d="M43.4041366,86.8195105 C43.6225577,86.8628671 43.8409787,86.9495804 44.103084,87.0362937 L44.2778208,86.4726573 C44.0157156,86.5593706 43.7099261,86.6894406 43.4041366,86.8195105 Z" id="Shape" fill="url(#linearGradient-4)"></path>
                        <path d="M106.920979,70.8642657 C106.964663,70.4306993 107.095716,69.9537762 107.183084,69.4768531 C107.576242,67.178951 108.056768,64.8376923 108.537295,62.5831469 C108.056768,63.1034266 107.619926,63.7104196 107.095716,64.3174126 L99.3199261,73.8992308 C101.678873,73.7258042 104.037821,73.6824476 106.440452,73.7691608 C106.527821,72.8586713 106.702558,71.9048252 106.920979,70.8642657 Z" id="Shape" fill="#034181"></path>
                        <path d="M106.440452,73.7691608 C104.037821,73.6824476 101.678873,73.7258042 99.3199261,73.8992308 L93.9904524,80.4460839 C94.0778208,80.4027273 94.1651893,80.4027273 94.2962419,80.3593706 C94.2962419,80.316014 94.3399261,80.316014 94.4272945,80.316014 C95.1699261,79.9691608 96.0436103,79.6656643 97.0483472,79.3188112 C99.7567682,78.364965 102.68361,77.9313986 105.828873,78.0614685 C105.916242,76.8908392 106.134663,75.4600699 106.440452,73.7691608 Z" id="Shape" fill="#FFCC00"></path>
                        <path d="M10.4225577,59.8516783 C10.2478208,59.9383916 10.1167682,59.9817483 9.98571558,59.9817483 C10.1167682,60.0251049 10.2478208,60.0251049 10.4225577,60.0251049 L10.4225577,59.8516783 Z" id="Shape" fill="#A2ABB8"></path>
                        <path d="M10.4225577,59.8516783 L10.4225577,60.0251049 C19.9893998,61.1523776 27.8088735,62.8432867 33.9683472,64.9677622 C34.2304524,65.0544755 34.4925577,65.1845455 34.754663,65.2712587 L33.7936103,65.3146154 C27.4593998,65.0544755 30.1678208,66.571958 42.0499261,69.9104196 C41.6567682,68.9132168 41.4383472,67.8293007 41.3072945,66.7453846 L41.0888735,64.1873427 C41.0888735,64.143986 41.0888735,64.0572727 41.0888735,63.9705594 L41.1325577,63.9272028 L41.0888735,63.7537762 C41.0888735,63.7104196 41.0888735,63.6237063 41.0888735,63.536993 C41.0888735,62.4097203 41.2199261,61.3258042 41.4383472,60.3286014 C41.6567682,59.0279021 42.0499261,57.8139161 42.6178208,56.6866434 C42.7051893,56.5132168 40.0841366,55.9929371 34.754663,55.2125175 C34.754663,55.2125175 34.7109787,55.2125175 34.6672945,55.1691608 C26.673084,54.2586713 18.5478208,55.8195105 10.4225577,59.8516783 Z" id="Shape" fill="#034181"></path>
                        <path d="M66.9936103,76.1104196 C69.3525577,75.5467832 71.6678208,74.5929371 73.983084,73.2922378 C72.8909787,68.8698601 72.4978208,64.4474825 72.8909787,60.1985315 C66.8188735,63.2768531 61.533084,63.7971329 57.1209787,61.8027273 C52.6651893,59.8083217 49.2141366,58.2908392 46.6804524,57.3803497 C46.2436103,58.3341958 45.8941366,59.3747552 45.6757156,60.502028 C45.4136103,61.5859441 45.3262419,62.4964336 45.3699261,63.2334965 C45.3699261,63.9272028 45.3699261,64.3607692 45.3699261,64.5775524 C45.4136103,64.750979 45.5009787,65.1411888 45.6320314,65.7915385 C45.8067682,66.3985315 45.9815051,67.1355944 46.2436103,67.8293007 C46.5057156,68.4796503 47.204663,69.5635664 48.2967682,70.950979 C48.3841366,70.9943357 48.4278208,71.081049 48.4715051,71.1677622 L48.4278208,71.1244056 C48.864663,71.557972 49.3015051,72.0348951 49.8257156,72.4251049 C49.913084,72.5118182 49.9567682,72.5985315 50.0878208,72.6852448 C51.0488735,73.4656643 52.0972945,74.1593706 53.1893998,74.7663636 C55.7667682,75.936993 58.6936103,76.5873427 62.1009787,76.6740559 L62.3193998,76.6740559 C63.1057156,76.6306993 63.9357156,76.5873427 64.7220314,76.5006294 L66.9936103,76.1104196 Z" id="blue-big-left" fill="#034181"></path>
                        <path d="M83.9868296,62.3493308 C83.7165436,61.3751301 83.9305096,60.0553712 84.6287276,58.4028749 L85.9839335,55.8280765 C86.2162546,55.3669185 86.3324151,54.9826203 86.2936949,54.6367518 C86.242068,54.6111319 86.2033479,54.5727021 86.1775344,54.5214623 C86.1000941,54.4061729 85.9452134,54.4446027 85.635452,54.598322 C85.5967318,54.598322 85.5580117,54.6367518 85.4805713,54.598322 C85.5580117,54.4061729 86.2936949,53.2148482 87.6876211,50.9474884 C89.0815473,48.6416988 89.9721112,46.5280583 90.3593129,44.5297073 C90.6690743,42.5313563 90.4645532,40.7527459 90.5807137,40.1378687 C90.6194339,39.4461318 90.8904751,38.4085264 91.3551171,37.0634825 C91.3551171,37.0250527 91.3551171,36.948193 91.3551171,36.9097632 C91.4712777,36.948193 91.6261583,36.8329035 91.781039,36.5254649 C91.9359197,36.3717456 91.9746399,36.2564561 92.0520802,36.1411666 C92.0908004,36.1027368 92.1295206,36.1027368 92.1682407,36.064307 C92.3231214,35.9490175 92.3618416,35.833728 92.4005618,35.6800087 C92.4392819,35.5262894 92.3618416,35.4109999 92.3231214,35.2957104 C92.3231214,35.1804209 92.3618416,35.1419911 92.3618416,35.0651315 C92.4392819,35.0267016 92.4780021,34.9882718 92.5167223,34.949842 C92.7103231,34.8345525 92.903924,34.719263 93.0975249,34.5655437 C93.1749652,34.5271139 93.2911257,34.4502542 93.3685661,34.3733946 C94.0655291,33.9890963 94.6076115,33.7585173 94.9948133,33.6816577 C95.1884141,33.6432279 95.3045746,33.6816577 95.382015,33.7969472 C95.4207351,33.8738068 95.4594553,33.9506665 95.4207351,33.9506665 C95.382015,34.0275261 95.3432948,34.1428156 95.2658545,34.2196753 C94.8399326,34.949842 94.6463317,35.603149 94.6463317,36.2564561 C94.6463317,36.5254649 94.8012124,36.8329035 94.9948133,37.0634825 C95.2271343,37.2556316 95.4594553,37.3709211 95.8079369,37.4093509 C96.1176982,37.4093509 96.8255815,37.7276279 97.0579026,37.5354787 C97.3289438,37.3048998 97.5612648,37.1127506 97.7935858,36.9206015 C99.3036725,35.7292769 100.503998,35.3065488 101.472002,35.6524172 C101.704323,35.8061365 101.975364,36.0367155 102.207685,36.3441541 C102.246406,36.3825839 102.323846,36.4594436 102.401286,36.5363032 C102.440006,36.6515927 102.556167,36.7668822 102.594887,36.9206015 C102.594887,36.9590313 102.556167,36.9974612 102.556167,37.0743208 C102.556167,37.2280401 102.556167,37.3433296 102.633607,37.4970489 C102.749768,37.5739086 102.827208,37.689198 102.865928,37.8044875 C103.020809,37.9966367 103.136969,38.1887858 103.25313,38.3425051 C103.33057,38.4577946 103.36929,38.6115139 103.408011,38.7268034 C103.640332,39.3032508 103.950093,39.9565578 104.182414,40.5330053 C104.221134,40.6867246 104.337295,40.8404439 104.376015,40.9557334 C104.492175,41.3016018 104.569616,41.5706106 104.724496,41.916479 C106.200963,45.8364124 107.184803,49.8611171 107.743105,53.9573006 C110.416094,52.4448685 112.350165,50.6995964 115.187051,46.5450909 C116.250324,44.9881538 116.732598,47.4794266 116.732598,47.5227832 C116.732598,47.5227832 114.123777,51.0138601 109.875051,55.3092028 C108.700196,56.4969752 107.001287,56.9122683 105.42906,57.5020646 L96.6319807,68.3177703 C96.244779,66.2041298 95.7801369,63.8599103 95.0831738,61.2851119 C94.6572519,59.5557697 94.1538897,56.2123747 93.6505275,51.3317867 C90.3980331,54.2140237 88.8879464,56.366094 89.2364279,57.8648573 C89.1977078,57.8648573 89.1589876,57.9032871 89.1202674,57.9801468 L86.096639,61.6537305 C83.9395761,65.3439259 77.9245465,73.7732466 66.9291032,76.1143217 L68.6764716,73.866496 C74.2043605,71.3277118 78.7959344,68.5609432 83.9868296,62.3493308 Z" id="Combined-Shape" fill="#034181"></path>
                        <path d="M117.808103,52.1814545 C115.879882,60.1230909 110.618993,76.5947133 113.369787,75.2532587 C118.81284,72.5985315 118.252372,50.3526713 117.808103,52.1814545 Z" id="Shape" fill="#034181"></path>
                        <path d="M36.1088735,96.6614685 L36.2836103,96.7481818 C36.1962419,96.7048252 36.1962419,96.6614685 36.1962419,96.6614685 C36.1525577,96.6614685 36.1525577,96.6614685 36.1088735,96.6614685 Z" id="Shape" fill="url(#linearGradient-5)"></path>
                        <path d="M109.498347,92.2390909 L111.333084,86.6027273 C100.324663,85.7355944 90.0151893,86.9495804 80.4920314,90.157972 C80.4483472,90.157972 80.3609787,90.157972 80.3609787,90.157972 L81.4967682,94.8404895 C83.6372945,93.9733566 85.8651893,93.2796503 88.093084,92.7593706 C95.0388735,91.0251049 102.1594,90.8516783 109.498347,92.2390909 Z" id="Shape" fill="#034181"></path>
                        <path d="M105.00842,99.6130331 L104.845979,99.4518095 L104.474663,99.083278 L104.471558,99.8234222 C103.886043,100.404547 103.175892,101.221737 102.169036,102.458973 C100.640426,104.228694 99.6226451,105.432089 98.4117263,106.925283 C94.0409057,112.347837 90.3325218,116.603886 87.3750614,119.603775 L82.0086626,97.1843633 C83.9870014,96.4037715 86.0691533,95.7585442 88.193138,95.2625305 C94.8739318,93.5944822 101.776415,93.4063854 108.972003,94.6664894 L107.013339,103.29951 L105.08936,111.780611 C104.705502,109.409557 104.518347,107.205837 104.518347,105.116014 C104.518347,103.813919 104.580252,103.111736 104.751335,102.670257 C104.918352,102.174376 105.292377,101.569818 105.809517,100.977592 L106.075911,100.672519 L105.00842,99.6130331 Z" id="Combined-Shape" fill="#034181"></path>
                    </g>
                </g>
            </g>
        </g>
    </g>
</svg>