<?xml version="1.0" encoding="UTF-8"?>
<svg width="576px" height="561px" viewBox="0 0 576 561" version="1.1" xmlns="http://www.w3.org/2000/svg" xmlns:xlink="http://www.w3.org/1999/xlink">
    <!-- Generator: Sketch 51.3 (57544) - http://www.bohemiancoding.com/sketch -->
    <title>mf-vector-logo-bg</title>
    <desc>Created with Sketch.</desc>
    <defs>
        <linearGradient x1="5.98484233%" y1="81.0696248%" x2="99.970283%" y2="19.5473206%" id="linearGradient-1">
            <stop stop-color="#003A6A" offset="0%"></stop>
            <stop stop-color="#2287AE" offset="99.9841944%"></stop>
        </linearGradient>
        <linearGradient x1="0%" y1="10%" x2="0%" y2="10%" id="linearGradient-2">
            <stop stop-color="#99A9C1" offset="0%"></stop>
            <stop stop-color="#99A9C1" offset="16%"></stop>
            <stop stop-color="#5C6B7C" offset="76%"></stop>
            <stop stop-color="#5C6B7C" offset="100%"></stop>
        </linearGradient>
        <linearGradient x1="0%" y1="5%" x2="40%" y2="5%" id="linearGradient-3">
            <stop stop-color="#7A899F" offset="0%"></stop>
            <stop stop-color="#79899F" offset="100%"></stop>
        </linearGradient>
        <linearGradient x1="-1%" y1="6.9%" x2="11%" y2="3.1%" id="linearGradient-4">
            <stop stop-color="#99A9C1" offset="0%"></stop>
            <stop stop-color="#99A9C1" offset="100%"></stop>
        </linearGradient>
        <linearGradient x1="-4.79%" y1="76.8461538%" x2="104.8%" y2="23.1538462%" id="linearGradient-5">
            <stop stop-color="#99A9C1" offset="0%"></stop>
            <stop stop-color="#99A9C1" offset="100%"></stop>
        </linearGradient>
        <linearGradient x1="0%" y1="10%" x2="40%" y2="10%" id="linearGradient-6">
            <stop stop-color="#99A9C1" offset="0%"></stop>
            <stop stop-color="#99A9C1" offset="100%"></stop>
        </linearGradient>
    </defs>
    <g id="MF-Branding---Portfolio-Page-(High-Res)" stroke="none" stroke-width="1" fill="none" fill-rule="evenodd">
        <g id="Desktop-HD">
            <g id="Hero---Header---Footer" transform="translate(-2279.000000, -1329.000000)">
                <g id="mf-vector-logo-bg" transform="translate(2277.000000, 1329.000000)">
                    <polygon id="Hero---Gradient-2" fill="url(#linearGradient-1)" points="2 0 574 0 574 542 2 542"></polygon>
                    <g id="Header---Shadow-Color" transform="translate(42.000000, 126.583072)" fill="#2391BB" fill-rule="nonzero">
                        <g id="oval-groups" transform="translate(0.000000, 0.416928)">
                            <g id="ovals" opacity="0.0340401786" transform="translate(0.000000, 137.000000)">
                                <ellipse id="Oval" cx="43.5" cy="62.5" rx="13.5" ry="11.5"></ellipse>
                                <ellipse id="Oval" cx="83.5" cy="112.5" rx="13.5" ry="11.5"></ellipse>
                                <ellipse id="Oval" cx="133.5" cy="94" rx="23.5" ry="20"></ellipse>
                                <ellipse id="Oval" cx="23.5" cy="104" rx="23.5" ry="20"></ellipse>
                                <ellipse id="Oval" cx="92" cy="15.5" rx="18" ry="15.5"></ellipse>
                                <ellipse id="Oval" cx="93.5" cy="63.5" rx="13.5" ry="11.5"></ellipse>
                            </g>
                            <g id="ovals" opacity="0.09" transform="translate(106.000000, 217.000000)">
                                <ellipse id="Oval" cx="43.5" cy="62.5" rx="13.5" ry="11.5"></ellipse>
                                <ellipse id="Oval" cx="83.5" cy="112.5" rx="13.5" ry="11.5"></ellipse>
                                <ellipse id="Oval" cx="133.5" cy="94" rx="23.5" ry="20"></ellipse>
                                <ellipse id="Oval" cx="23.5" cy="104" rx="23.5" ry="20"></ellipse>
                                <ellipse id="Oval" cx="92" cy="15.5" rx="18" ry="15.5"></ellipse>
                                <ellipse id="Oval" cx="93.5" cy="63.5" rx="13.5" ry="11.5"></ellipse>
                            </g>
                            <g id="ovals" opacity="0.09" transform="translate(247.000000, 138.000000)">
                                <ellipse id="Oval" cx="43.5" cy="62.5" rx="13.5" ry="11.5"></ellipse>
                                <ellipse id="Oval" cx="83.5" cy="112.5" rx="13.5" ry="11.5"></ellipse>
                                <ellipse id="Oval" cx="133.5" cy="94" rx="23.5" ry="20"></ellipse>
                                <ellipse id="Oval" cx="23.5" cy="104" rx="23.5" ry="20"></ellipse>
                                <ellipse id="Oval" cx="92" cy="15.5" rx="18" ry="15.5"></ellipse>
                                <ellipse id="Oval" cx="93.5" cy="63.5" rx="13.5" ry="11.5"></ellipse>
                            </g>
                            <g id="ovals" opacity="0.09" transform="translate(207.000000, 279.000000)">
                                <ellipse id="Oval" cx="43.5" cy="62.5" rx="13.5" ry="11.5"></ellipse>
                                <ellipse id="Oval" cx="83.5" cy="112.5" rx="13.5" ry="11.5"></ellipse>
                                <ellipse id="Oval" cx="133.5" cy="94" rx="23.5" ry="20"></ellipse>
                                <ellipse id="Oval" cx="23.5" cy="104" rx="23.5" ry="20"></ellipse>
                                <ellipse id="Oval" cx="92" cy="15.5" rx="18" ry="15.5"></ellipse>
                                <ellipse id="Oval" cx="93.5" cy="63.5" rx="13.5" ry="11.5"></ellipse>
                            </g>
                            <g id="ovals" opacity="0.0711495536" transform="translate(348.000000, 211.000000)">
                                <ellipse id="Oval" cx="43.5" cy="62.5" rx="13.5" ry="11.5"></ellipse>
                                <ellipse id="Oval" cx="83.5" cy="112.5" rx="13.5" ry="11.5"></ellipse>
                                <ellipse id="Oval" cx="133.5" cy="94" rx="23.5" ry="20"></ellipse>
                                <ellipse id="Oval" cx="23.5" cy="104" rx="23.5" ry="20"></ellipse>
                                <ellipse id="Oval" cx="92" cy="15.5" rx="18" ry="15.5"></ellipse>
                                <ellipse id="Oval" cx="93.5" cy="63.5" rx="13.5" ry="11.5"></ellipse>
                            </g>
                            <g id="ovals" opacity="0.09" transform="translate(372.000000, 73.000000)">
                                <ellipse id="Oval" cx="43.5" cy="62.5" rx="13.5" ry="11.5"></ellipse>
                                <ellipse id="Oval" cx="83.5" cy="112.5" rx="13.5" ry="11.5"></ellipse>
                                <ellipse id="Oval" cx="133.5" cy="94" rx="23.5" ry="20"></ellipse>
                                <ellipse id="Oval" cx="23.5" cy="104" rx="23.5" ry="20"></ellipse>
                                <ellipse id="Oval" cx="92" cy="15.5" rx="18" ry="15.5"></ellipse>
                                <ellipse id="Oval" cx="93.5" cy="63.5" rx="13.5" ry="11.5"></ellipse>
                            </g>
                            <g id="ovals" opacity="0.1" transform="translate(269.000000, 0.000000)">
                                <ellipse id="Oval" cx="43.5" cy="62.5" rx="13.5" ry="11.5"></ellipse>
                                <ellipse id="Oval" cx="83.5" cy="112.5" rx="13.5" ry="11.5"></ellipse>
                                <ellipse id="Oval" cx="133.5" cy="94" rx="23.5" ry="20"></ellipse>
                                <ellipse id="Oval" cx="23.5" cy="104" rx="23.5" ry="20"></ellipse>
                                <ellipse id="Oval" cx="92" cy="15.5" rx="18" ry="15.5"></ellipse>
                                <ellipse id="Oval" cx="93.5" cy="63.5" rx="13.5" ry="11.5"></ellipse>
                            </g>
                            <g id="ovals" opacity="0.09" transform="translate(124.000000, 68.000000)">
                                <ellipse id="Oval" cx="43.5" cy="62.5" rx="13.5" ry="11.5"></ellipse>
                                <ellipse id="Oval" cx="83.5" cy="112.5" rx="13.5" ry="11.5"></ellipse>
                                <ellipse id="Oval" cx="133.5" cy="94" rx="23.5" ry="20"></ellipse>
                                <ellipse id="Oval" cx="23.5" cy="104" rx="23.5" ry="20"></ellipse>
                                <ellipse id="Oval" cx="92" cy="15.5" rx="18" ry="15.5"></ellipse>
                                <ellipse id="Oval" cx="93.5" cy="63.5" rx="13.5" ry="11.5"></ellipse>
                            </g>
                        </g>
                    </g>
                    <g id="Header---White-Color" fill-rule="nonzero">
                        <path d="M575.421112,555.470154 L1,555.470154 C1,507.602146 2,505.271719 2.67046144,506.14247 C4.32550225,508.291928 16.448275,516.347486 22.7119055,519.147889 C27.5160189,521.295757 53.65625,538.718118 95.5377375,519.128582 C143.103696,498.737065 143.103696,515.905546 147.47828,517.627822 C151.712666,519.294902 123.892573,527.103513 157.153591,527.103513 C227.308179,527.103513 205.371094,538.718118 225.091724,538.718118 C254.035156,542.523438 272.132812,527.103513 275.223282,524.230207 C275.223282,516.473588 305.502445,502.93809 327.261081,505.271719 C349.019718,507.605347 333.316926,507.605347 328.669698,511.000825 C336.768611,509.382448 369.54421,521.530389 384.446597,511.637467 C408.561401,495.628902 459.32837,484.770394 481.859003,491.270047 C490.781724,496.615437 501.37046,500.205268 512.621263,502.688112 C523.62339,505.116078 520.485064,496.997183 533.06432,495.628902 C535.374268,501.238 544.298737,498.737065 544.848622,498.737065 C545.398506,498.737065 541.556072,507.749644 548.404724,508.139742 C550.500978,508.259144 557.515799,504.6402 563.2856,502.491569 C566.039546,501.46602 570.084717,501.014385 575.421112,501.136664 L575.421112,555.470154 Z" id="Bottom-Header" fill="#034181"></path>
                        <path d="M577.530603,561 L0.545531392,561 C0.545531392,488.527642 -3.52314146,510.801564 24.8213964,524.677734 C53.1659343,538.553905 63.7057377,538.145541 97.6472285,524.658427 C145.213187,504.266911 145.213187,521.435392 149.587771,523.157668 C153.822157,524.824747 126.002064,532.633358 159.263082,532.633358 C229.41767,532.633358 205.352211,544.247964 227.201215,544.247964 C249.05022,544.247964 260.651623,539.650466 277.332773,529.760052 C277.332773,522.003434 307.611936,508.467935 329.370572,510.801564 C351.129209,513.135193 335.426416,513.135193 330.779189,516.53067 C338.878102,514.912293 371.653701,527.060234 386.556088,517.167313 C410.670892,501.158747 461.437861,490.300239 483.968494,496.799892 C492.891215,502.145282 503.479951,505.735114 514.730754,508.217958 C525.732881,510.645924 522.594555,502.527028 535.173811,501.158747 C537.483759,506.767846 546.408228,504.266911 546.958113,504.266911 C547.507997,504.266911 543.665563,513.27949 550.514215,513.669587 C552.610469,513.788989 559.62529,510.170046 565.395091,508.021415 C568.149037,506.995866 572.194208,506.544231 577.530603,506.666509 L577.530603,561 Z" id="Bottom-Header" fill="#FFFFFF"></path>
                        <path d="M2,4 L573.353348,4 C573.353348,35.322347 573.353348,52.7956312 573.353348,56.4198526 C565.467339,57.5040906 551.773751,59.4895838 530.384922,52.6157178 C508.996094,45.7418517 517.839844,40.2167969 482.408203,40.2167969 C446.976562,40.2167969 396.277344,68.4221949 331.229688,54.1781839 C323.495394,52.4845432 347.148041,41.0307116 312.375668,53.1781839 C284.863409,54.2211367 296.249657,45.605302 287.369653,47.7418517 C278.48965,49.8784015 284.863409,54.0957613 273.244405,56.4198526 C261.625401,58.743944 277.278211,55.2323636 254.982444,54.2211367 C189.941814,67.8294493 218.138775,88.4119156 197.624485,95.1784478 C197.624485,102.221387 187.798341,114.511495 166.262503,112.392581 C144.726666,110.273668 160.268668,110.273668 164.86831,107.190605 C156.852326,108.660077 134.483822,97.6298582 119.734029,106.61254 C95.8661504,121.14817 89.7786072,131.007596 67.4786776,125.105971 C61.9988686,123.655752 87.5069873,120.914402 65.8541942,120.914402 C44.2014011,120.914402 62.8758083,116.992872 51.7402085,114.738472 C40.8507383,112.533901 47.0535189,116.945678 34.6030692,118.188065 C26.3027694,119.016323 15.4350796,117.866458 2,114.738472 L2,4 Z" id="Top-Header-Shadow" fill="#034181"></path>
                        <path d="M2,0 L575.65625,0 C574.989583,29.801305 574.65625,46.5140682 574.65625,50.1382897 C566.857723,51.2225277 546.204865,50.7189893 534.838007,47.6157178 C521.387365,43.9435514 514.894889,35.504541 489.280269,35.504541 C409.983072,35.504541 408.14122,61.4221949 329.555237,47.1781839 C321.169955,45.6583193 343.31919,35.0307116 308.932559,47.1781839 C281.725503,48.2211367 292.985439,39.605302 284.203945,41.7418517 C275.42245,43.8784015 281.725503,50.0957613 270.235393,52.4198526 C258.745283,54.743944 274.22445,49.2323636 252.176018,48.2211367 C187.856908,61.8294493 215.74107,84.4119156 195.454352,91.1784478 C195.454352,98.2213865 185.737213,110.511495 164.44028,108.392581 C143.143347,106.273668 158.512937,106.273668 163.061553,103.190605 C155.134493,104.660077 133.014131,93.6298582 118.427963,102.61254 C94.8248593,117.14817 88.8048474,127.007596 66.7522989,121.105971 C61.3332795,119.655752 86.5584275,116.914402 65.1458366,116.914402 C43.7332457,116.914402 62.200491,112.992872 51.1884224,110.738472 C40.419753,108.533901 46.553724,112.945678 34.2413916,114.188065 C26.03317,115.016323 15.2860395,113.866458 2,110.738472 L2,0 Z" id="Top-Header" fill="#FFFFFF"></path>
                    </g>
                    <g id="mf-logo---Normal" transform="translate(19.000000, 18.000000)">
                        <g id="copyright-logo" transform="translate(73.000000, 87.000000)" fill="#034181">
                            <path d="M2.44355147,5.71258333 C1.13124575,5.71258333 0.0674117647,4.50690482 0.0674117647,3.019625 C0.0674117647,1.53234518 1.13124575,0.326666667 2.44355147,0.326666667 C3.75585719,0.326666667 4.81969118,1.53234518 4.81969118,3.019625 C4.81969118,4.50690482 3.75585719,5.71258333 2.44355147,5.71258333 Z M2.44355147,5.163 C3.4880397,5.163 4.33476471,4.20337833 4.33476471,3.019625 C4.33476471,1.83587167 3.4880397,0.87625 2.44355147,0.87625 C1.39906324,0.87625 0.552338235,1.83587167 0.552338235,3.019625 C0.552338235,4.20337833 1.39906324,5.163 2.44355147,5.163 Z" id="Combined-Shape"></path>
                            <path d="M3.7396301,2.66239583 L3.09928554,2.66239583 C2.981842,2.38599892 2.73235194,2.19525 2.44355147,2.19525 C2.04182523,2.19525 1.71616176,2.56433526 1.71616176,3.019625 C1.71616176,3.47491474 2.04182523,3.844 2.44355147,3.844 C2.74182766,3.844 2.99817153,3.64052855 3.110416,3.349375 L3.7452653,3.349375 C3.61250723,4.02549275 3.08011582,4.53097917 2.44355147,4.53097917 C1.70705336,4.53097917 1.11000368,3.85432286 1.11000368,3.019625 C1.11000368,2.18492714 1.70705336,1.50827083 2.44355147,1.50827083 C3.071462,1.50827083 3.5980127,2.00010692 3.7396301,2.66239583 Z" id="Combined-Shape"></path>
                        </g>
                        <g id="logo">
                            <path d="M158.116361,3.23697552 C158.44794,2.27368881 158.646887,1.64256993 158.646887,1.37683566 C158.61373,1.27718531 158.547414,1.21075175 158.381624,1.14431818 C158.315309,1.1111014 158.215835,1.04466783 158.182677,0.978234266 C157.585835,0.446765734 155.496887,0.147814685 151.982151,0.147814685 C145.881098,0.147814685 138.652677,1.44326923 130.26373,3.96774476 L130.26373,3.93452797 C122.571098,6.29291958 116.801624,8.75096154 112.955309,11.2090035 C109.108993,13.6338287 105.992151,16.9222902 103.671098,20.9747378 C101.847414,24.1303322 98.7305717,25.8576049 94.3868875,26.0236888 C94.0884664,26.0569056 93.8232033,26.0569056 93.5579401,26.0569056 L90.9053085,26.1233392 C90.8389927,26.1233392 90.441098,26.1233392 89.7447822,26.1565559 L89.512677,30.9065559 L100.421624,30.8401224 L98.9295191,35.6897727 L95.7795191,37.6827797 L94.6189927,40.9712413 C94.4863612,40.9712413 94.3868875,41.004458 94.2874138,41.0376748 C92.9942559,41.3366259 91.6679401,41.6687937 90.3084664,42.0009615 C91.402677,46.983479 91.2368875,52.1320804 89.7116243,57.413549 C89.7447822,57.4467657 89.811098,57.4799825 89.8442559,57.5464161 C90.3747822,58.3436189 90.772677,59.1740385 91.071098,59.9712413 C91.1705717,59.2072552 91.3363612,58.5097028 91.5684664,57.8121503 C91.9663612,56.6163462 92.7953085,54.6233392 94.0553085,51.8663462 C95.6800454,48.3121503 96.5089927,46.2527098 96.5421506,45.6548077 C96.5089927,45.3890734 96.4095191,45.2229895 96.2105717,45.1565559 C96.1774138,45.1897727 96.1442559,45.1897727 96.111098,45.1897727 C96.0116243,45.2229895 95.9453085,45.2562063 95.8458348,45.2894231 L94.8842559,45.6215909 C94.8179401,45.6548077 94.6853085,45.6880245 94.4863612,45.7876748 L94.3868875,45.5551573 L94.221098,45.6215909 C94.1547822,45.6548077 94.0221506,45.6880245 93.8232033,45.7876748 L93.5579401,45.0569056 L93.6242559,45.0236888 L93.5579401,44.8908217 L94.0553085,44.7247378 C94.6521506,44.4922203 95.2158348,44.2929196 95.812677,44.0604021 C96.9068875,43.6285839 98.0342559,43.163549 99.1284664,42.6652972 L99.7916243,42.3331294 L99.7916243,42.6652972 L100.454782,42.3331294 L100.454782,42.7317308 C100.454782,44.1600524 99.5263612,46.983479 97.702677,51.1355769 L96.0447822,54.9222902 C95.1495191,56.9152972 94.7184664,58.1443182 94.6521506,58.6093531 L94.6521506,58.6425699 C94.6853085,58.8750874 94.8179401,59.0079545 95.0168875,59.1076049 C95.3153085,59.0079545 95.7132033,58.8750874 96.2437296,58.6425699 L96.3432033,58.8750874 C96.5089927,58.8086538 96.7079401,58.7422203 96.9068875,58.6425699 L97.2053085,59.3069056 C97.1721506,59.3401224 97.1721506,59.3733392 97.2053085,59.4729895 C94.8179401,60.6023601 92.961098,61.4327797 91.5684664,61.8978147 C91.5684664,61.8313811 91.5684664,61.7649476 91.5684664,61.7317308 C91.5684664,61.698514 91.5684664,61.6652972 91.5684664,61.6652972 C91.5353085,61.6652972 91.5021506,61.6652972 91.5021506,61.6652972 C91.5684664,62.1303322 91.6347822,62.5953671 91.6347822,63.0936189 L91.6347822,63.1268357 L91.4689927,64.754458 C91.4358348,64.920542 91.402677,65.0866259 91.3363612,65.2859266 L91.3363612,65.4187937 C91.3032033,65.4520105 91.3032033,65.4852273 91.3032033,65.5184441 L91.2700454,65.5848776 C91.0379401,66.3488636 90.7063612,67.1128497 90.3084664,67.8436189 L90.3084664,67.8768357 L89.0484664,71.2649476 L89.0153085,71.3313811 C89.6453085,69.8366259 90.142677,68.7736888 90.5074138,68.1757867 C91.4689927,66.5813811 92.3974138,65.5848776 93.3921506,65.2859266 L93.3921506,65.2527098 C94.0553085,64.9537587 95.3816243,64.7876748 97.3047822,64.754458 L99.0953085,60.8016608 C98.7968875,60.2701923 98.631098,59.5394231 98.631098,58.6757867 C98.631098,58.6093531 98.631098,58.5429196 98.631098,58.5097028 C98.631098,56.5499126 99.261098,54.4572552 100.587414,52.2317308 C101.681624,50.3051573 103.140572,48.5446678 104.89794,46.983479 L108.346361,38.7457168 L110.899519,31.670542 C110.932677,31.4380245 111.032151,31.2387238 111.19794,31.0726399 C111.36373,30.8733392 111.595835,30.7736888 111.861098,30.8069056 L125.091098,30.8069056 L125.22373,30.7072552 C125.22373,30.740472 125.22373,30.7736888 125.22373,30.8069056 L125.754256,30.8069056 L125.886887,30.7072552 C125.886887,30.740472 125.886887,30.7736888 125.886887,30.8069056 L126.118993,30.8069056 C126.118993,30.6076049 126.118993,30.4083042 126.118993,30.2090035 L126.118993,30.1757867 C126.118993,29.9432692 126.118993,29.8104021 126.118993,29.7107517 L126.118993,29.0464161 C126.118993,28.3488636 126.118993,27.5848776 126.118993,26.8541084 L114.878466,26.8541084 C114.613203,26.8873252 114.381098,26.8208916 114.115835,26.7212413 C113.71794,26.5219406 113.485835,26.2229895 113.353203,25.8576049 C113.220572,25.4590035 113.220572,25.0604021 113.419519,24.7282343 C116.702151,17.9520105 120.482151,13.1355769 124.726361,10.3121503 L124.792677,10.2457168 L124.825835,10.2457168 C124.892151,10.1792832 124.991624,10.1460664 125.05794,10.0796329 C129.401624,7.18977273 135.237414,5.76145105 142.532151,5.76145105 C146.212677,5.76145105 148.699519,6.12683566 150.025835,6.92403846 C150.25794,7.09012238 150.456887,7.25620629 150.622677,7.42229021 C150.688993,7.52194056 150.755309,7.58837413 150.788466,7.72124126 C150.854782,7.85410839 150.854782,8.11984266 150.788466,8.41879371 L150.788466,8.45201049 C150.854782,8.75096154 150.821624,9.04991259 150.688993,9.38208042 C150.589519,9.68103147 150.390572,10.2125 150.191624,10.9100524 C150.158466,10.9100524 150.158466,10.9432692 150.158466,10.9432692 L150.092151,11.1425699 L150.092151,11.1757867 L150.058993,11.2422203 C150.058993,11.2754371 150.058993,11.2754371 150.025835,11.2754371 L150.025835,11.3750874 L155.065835,11.4083042 L157.718466,4.20026224 C157.751624,4.13382867 157.784782,4.0673951 157.81794,4.03417832 L158.116361,3.23697552 Z M102.842151,37.5831294 L102.842151,37.7492133 C102.842151,38.1810315 102.676361,38.5131993 102.344782,38.8453671 C102.046361,39.1443182 101.681624,39.3104021 101.316887,39.3104021 C101.184256,39.3104021 101.084782,39.3104021 100.952151,39.2771853 C100.852677,39.3104021 100.786361,39.3104021 100.65373,39.3104021 C99.9574138,39.3104021 99.592677,38.9782343 99.592677,38.247465 C99.592677,38.247465 99.592677,38.2142483 99.592677,38.1810315 C99.592677,38.1810315 99.592677,38.1478147 99.592677,38.1145979 L99.592677,38.0813811 C99.592677,37.7159965 99.7584664,37.3506119 100.056887,37.0184441 C100.355309,36.719493 100.686887,36.5534091 101.11794,36.5534091 C101.250572,36.5534091 101.350045,36.5866259 101.449519,36.5866259 C101.582151,36.5866259 101.681624,36.5534091 101.781098,36.5534091 C102.477414,36.5534091 102.842151,36.9187937 102.842151,37.5831294 Z" id="Shape" fill="#034181"></path>
                            <path d="M180.895835,23.7981643 C166.551066,18.8292657 157.055309,20.2439685 157.055309,20.2439685 C136.839935,23.2085664 125.820572,32.7002622 125.820572,32.7002622 C125.654782,33.6967657 125.323203,34.9257867 124.792677,36.4869755 C124.030045,38.6460664 122.504782,42.3995629 120.283203,47.8138986 L118.426361,52.3645979 C120.150572,50.3051573 121.675835,48.5446678 123.101624,47.1827797 C125.886887,44.3925699 128.075309,42.997465 129.63373,42.997465 C129.733203,42.997465 129.832677,43.0306818 129.932151,43.0306818 C130.031624,43.0306818 130.164256,42.997465 130.296887,42.997465 C130.993203,42.997465 131.35794,43.3628497 131.35794,44.0936189 L131.35794,44.2597028 C131.35794,44.7911713 131.092677,45.6548077 130.528993,46.8173951 L129.136361,49.9397727 C126.881624,54.955507 125.721098,57.9450175 125.621624,58.8750874 C125.654782,59.0411713 125.721098,59.1740385 125.85373,59.240472 C126.251624,59.1408217 126.815309,58.9083042 127.478466,58.5097028 L127.677414,58.4100524 L127.876361,58.6757867 C127.942677,58.6093531 128.042151,58.5761364 128.141624,58.5097028 L128.340572,58.4100524 L128.738466,59.0079545 C128.705309,59.0079545 128.705309,59.0411713 128.638993,59.0411713 L128.738466,59.1740385 C127.279519,59.9380245 125.356361,60.7684441 123.002151,61.5988636 L122.471624,61.8313811 C122.471624,61.7649476 122.471624,61.698514 122.504782,61.6652972 L122.471624,61.6652972 C122.471624,61.6320804 122.471624,61.5988636 122.504782,61.5988636 C122.438466,61.5988636 122.405309,61.5988636 122.338993,61.5988636 L121.808466,61.8313811 C121.808466,61.7649476 121.808466,61.698514 121.841624,61.6652972 L121.808466,61.6652972 C121.974256,59.3069056 123.565835,54.8558566 126.649519,48.2789336 C127.11373,47.3156469 127.345835,46.6513112 127.378993,46.2859266 C127.378993,46.0201923 127.312677,45.8208916 127.146887,45.7212413 C126.748993,45.8873252 126.185309,46.2527098 125.455835,46.8173951 C124.958466,47.2159965 124.494256,47.6478147 123.996887,48.1128497 C123.499519,48.5778846 123.035309,49.0761364 122.571098,49.6076049 C121.178466,51.1355769 119.752677,52.9957168 118.360045,55.1215909 C116.934256,57.2142483 115.939519,59.0411713 115.243203,60.6023601 C114.215309,60.7684441 113.220572,61.0341783 112.292151,61.4992133 L112.391624,61.2999126 C112.391624,61.3331294 112.358466,61.3331294 112.292151,61.3331294 L112.391624,61.1670455 C112.126361,61.2666958 111.894256,61.3995629 111.628993,61.4992133 L111.728466,61.2999126 C111.728466,61.3331294 111.695309,61.3331294 111.628993,61.3331294 L111.894256,60.7684441 C112.922151,58.3768357 113.88373,56.0516608 114.712677,53.8261364 L120.051098,40.4065559 C121.311098,37.2509615 121.90794,35.2247378 121.974256,34.427535 C121.974256,34.0621503 112.721545,44.1819755 110.135893,41.6491958 L109.738993,43.6618007 C111.231098,42.9642483 112.756361,42.6320804 114.248466,42.6320804 L114.911624,42.6320804 C115.110572,42.6320804 115.408993,42.6320804 115.840045,42.6652972 L115.77373,42.8313811 C115.77373,42.8313811 115.806887,42.8313811 115.840045,42.8313811 L112.690045,48.7439685 L111.231098,48.7439685 L111.297414,48.5778846 L111.231098,48.5778846 L111.396887,48.1792832 C111.894256,47.1495629 112.159519,46.3855769 112.192677,45.9537587 C112.126361,45.4887238 111.695309,45.2562063 110.800045,45.1897727 C110.136887,45.2229895 109.47373,45.3890734 108.876887,45.6548077 L103.107414,59.4397727 C103.405835,59.6058566 103.737414,59.6722902 104.135309,59.705507 C105.328993,59.6390734 106.522677,59.1076049 107.749519,58.0778846 C109.142151,56.948514 110.302677,55.4869755 111.231098,53.6600524 L111.794782,52.5306818 C111.82794,52.497465 111.894256,52.3645979 112.026887,52.1652972 C112.159519,52.4310315 112.225835,52.663549 112.258993,52.9625 L112.45794,52.5306818 C112.491098,52.497465 112.557414,52.3645979 112.690045,52.1652972 C112.855835,52.4642483 112.922151,52.7631993 112.922151,53.0289336 L112.922151,53.1950175 C112.922151,54.490472 111.960572,56.0848776 110.037414,57.9450175 C109.573203,58.3768357 109.108993,58.8086538 108.644782,59.1740385 C106.456361,61.0009615 104.400572,61.9642483 102.510572,62.0306818 C102.576887,62.0971154 102.610045,62.1303322 102.610045,62.1967657 C102.676361,62.3628497 102.676361,62.5289336 102.610045,62.6950175 L101.681624,64.8541084 C101.681624,64.8541084 101.681624,64.8873252 101.681624,64.920542 L101.681624,64.8873252 L100.322151,67.677535 C100.123203,68.0761364 99.8579401,68.3750874 99.5263612,68.6076049 C99.5263612,68.6076049 99.4932033,68.6076049 99.4600454,68.6076049 C99.1284664,68.8401224 98.7637296,68.9065559 98.3658348,68.9397727 L98.2995191,68.9397727 C96.6084664,68.9065559 95.4479401,69.0062063 94.8179401,69.1722902 C94.5195191,69.3715909 94.1879401,69.8034091 93.8232033,70.434528 C93.7900454,70.434528 93.7900454,70.434528 93.7900454,70.4677448 C92.8284664,72.0621503 90.6068875,77.177535 87.0921506,85.8471154 C91.6679401,83.1565559 95.6137296,80.4992133 98.8632033,77.941521 C110.468466,68.6408217 120.81373,64.9869755 129.865835,66.9799825 C131.623203,67.3453671 133.24794,67.7107517 134.706887,68.0429196 L142.797414,69.7369755 C144.289519,70.0691434 145.21794,70.2684441 145.582677,70.3348776 L145.615835,70.3348776 C145.715309,70.3348776 145.781624,70.3680944 145.84794,70.4013112 L145.881098,70.4013112 C157.784782,72.6932692 166.936361,70.6670455 173.402151,64.2562063 C174.065309,63.5918706 174.728466,62.8278846 175.358466,62.0306818 C175.391624,61.9642483 175.45794,61.9310315 175.557414,61.8313811 C175.590572,61.7649476 175.656887,61.698514 175.723203,61.698514 C175.789519,61.5988636 175.855835,61.4992133 175.922151,61.4327797 C176.021624,61.2999126 176.419519,60.7352273 177.082677,59.7719406 L177.082677,59.7387238 L177.148993,59.6390734 C177.248466,59.5062063 177.314782,59.3733392 177.414256,59.2072552 C177.447414,59.1408217 177.480572,59.0411713 177.546887,58.9747378 C177.613203,58.8086538 177.679519,58.6425699 177.745835,58.4432692 C177.911624,58.1443182 178.044256,57.8121503 178.14373,57.4799825 C178.408993,56.6827797 178.674256,55.7527098 178.873203,54.6897727 C179.370572,52.3313811 178.873203,48.5778846 177.381098,43.4625 C175.690045,38.0149476 179.536361,32.5673951 188.986361,27.219493 L180.895835,23.8313811 L180.895835,23.7981643 Z M173.700572,30.9397727 C173.932677,30.8401224 174.164782,30.7072552 174.36373,30.6076049 C174.36373,30.6740385 174.36373,30.740472 174.36373,30.7736888 C174.36373,32.6006119 173.136887,36.2876748 170.716361,41.8016608 C166.505309,51.434528 164.350045,56.9817308 164.28373,58.5429196 C164.28373,58.941521 164.449519,59.1740385 164.681624,59.2736888 C165.145835,59.1408217 165.842151,58.7090035 166.737414,58.011451 L167.002677,57.8121503 L167.26794,58.1111014 C167.301098,58.1111014 167.334256,58.0446678 167.400572,58.011451 L167.665835,57.8121503 L168.096887,58.3768357 C168.096887,58.4100524 168.06373,58.4432692 168.030572,58.4432692 L168.096887,58.5429196 C165.676361,60.6687937 163.918993,61.7317308 162.791624,61.7317308 C162.692151,61.7317308 162.592677,61.698514 162.460045,61.698514 C162.360572,61.698514 162.261098,61.7317308 162.128466,61.7317308 C161.233203,61.7317308 160.802151,61.1006119 160.802151,59.8383741 L160.802151,59.8051573 L160.802151,59.7719406 C160.802151,59.7387238 160.802151,59.705507 160.802151,59.6722902 C160.802151,58.6757867 161.100572,57.3138986 161.730572,55.5534091 C162.360572,53.7929196 163.819519,50.1058566 166.17373,44.4590035 L168.328993,39.3436189 C169.555835,36.3873252 170.218993,34.5936189 170.252151,34.0289336 C170.252151,33.7631993 170.119519,33.5971154 169.920572,33.5306818 C169.688466,33.5638986 169.423203,33.663549 169.025309,33.7631993 C168.925835,33.8296329 168.826361,33.8628497 168.69373,33.8960664 L168.627414,33.6967657 C168.561098,33.6967657 168.428466,33.7299825 168.362151,33.7631993 C168.262677,33.8296329 168.163203,33.8628497 168.030572,33.8960664 L167.798466,33.2317308 L167.831624,33.2317308 L167.798466,33.0656469 L168.130045,32.9327797 C170.749519,31.9362762 172.606361,31.1722902 173.700572,30.6076049 L173.700572,30.9397727 Z M163.686887,43.9939685 L163.686887,44.1600524 C163.686887,44.7247378 163.388466,45.455507 162.824782,46.2527098 C162.261098,47.0499126 161.531624,47.7806818 160.702677,48.4118007 C159.87373,48.976486 158.878993,49.5411713 157.652151,50.0394231 C156.458466,50.5376748 155.496887,50.8034091 154.83373,50.8034091 C154.734256,50.8034091 154.634782,50.8034091 154.568466,50.7701923 C154.402677,50.8034091 154.303203,50.8034091 154.170572,50.8034091 C153.540572,50.8034091 153.076361,50.4712413 152.811098,49.8401224 C152.280572,50.7369755 151.816361,51.6670455 151.385309,52.663549 C150.622677,54.5236888 150.224782,56.184528 150.191624,57.6460664 L150.191624,57.8121503 C150.25794,59.1076049 150.788466,59.8383741 151.849519,59.9380245 C153.142677,59.8383741 154.468993,59.0411713 155.894782,57.6460664 C157.386887,56.0848776 158.646887,54.0586538 159.641624,51.6338287 C159.807414,51.9659965 159.906887,52.2317308 159.973203,52.497465 C160.072677,52.198514 160.205309,51.9327797 160.304782,51.6338287 C160.536887,52.0324301 160.636361,52.4310315 160.636361,52.7631993 L160.636361,52.9292832 C160.636361,54.3576049 159.641624,56.0184441 157.652151,57.9118007 C154.734256,60.6355769 152.247414,62.0306818 150.224782,62.0306818 L149.561624,62.0306818 C147.804256,62.0306818 146.942151,61.0341783 146.942151,59.0079545 C146.942151,58.9747378 146.942151,58.941521 146.942151,58.941521 C146.942151,58.9083042 146.942151,58.8750874 146.942151,58.8418706 L147.041624,57.1810315 C147.306887,55.4537587 147.936887,53.6268357 148.99794,51.7666958 C150.357414,49.3086538 152.114782,47.2492133 154.236887,45.6548077 C156.856361,43.6618007 159.210572,42.698514 161.233203,42.698514 L161.896361,42.698514 C163.090045,42.698514 163.686887,43.1303322 163.686887,43.9939685 Z M132.352677,57.9450175 L132.352677,58.0446678 C132.352677,59.0079545 132.684256,59.6058566 133.347414,59.7387238 C134.04373,59.6058566 135.005309,58.941521 136.265309,57.8121503 C137.65794,56.5166958 138.91794,54.9887238 140.045309,53.2946678 C141.570572,50.9362762 142.598466,48.4782343 143.162151,45.8873252 C143.394256,46.0201923 143.560045,46.1862762 143.725835,46.4187937 C143.758993,46.219493 143.792151,46.0534091 143.825309,45.8873252 C144.455309,46.2859266 144.786887,47.0166958 144.786887,48.0464161 L144.786887,48.2125 C144.786887,49.6076049 144.12373,51.1687937 142.797414,52.9625 C143.32794,52.8296329 143.924782,52.663549 144.58794,52.4642483 L144.521624,52.663549 C144.521624,52.6303322 144.554782,52.6303322 144.58794,52.6303322 L144.554782,52.663549 C144.786887,52.6303322 145.018993,52.5306818 145.251098,52.4642483 L145.184782,52.663549 C145.184782,52.6303322 145.21794,52.6303322 145.251098,52.6303322 L145.085309,52.9957168 C143.725835,56.0848776 142.996361,57.9450175 142.963203,58.5429196 C142.963203,58.7754371 143.062677,58.941521 143.195309,59.0079545 C143.560045,58.8750874 144.12373,58.6093531 144.886361,58.1443182 L145.052151,58.4432692 C145.21794,58.3436189 145.38373,58.2771853 145.549519,58.1443182 L145.947414,58.7754371 L145.881098,58.8086538 L145.947414,58.941521 C144.388993,60.1041084 142.23373,61.0341783 139.481624,61.698514 C139.481624,61.6652972 139.481624,61.5988636 139.514782,61.5324301 L139.481624,61.5324301 C139.282677,61.5988636 139.050572,61.6652972 138.818466,61.698514 C138.818466,61.6652972 138.818466,61.5988636 138.851624,61.5324301 L138.818466,61.5324301 C138.91794,60.2701923 139.54794,58.2771853 140.708466,55.5201923 C139.249519,57.0813811 137.757414,58.4432692 136.232151,59.5394231 C134.176361,61.0341783 132.518466,61.7981643 131.324782,61.7981643 C131.192151,61.7981643 131.125835,61.7981643 131.026361,61.7649476 C130.89373,61.7981643 130.794256,61.7981643 130.661624,61.7981643 C129.63373,61.7981643 129.103203,61.1338287 129.103203,59.8051573 L129.103203,59.7719406 L129.103203,59.705507 C129.103203,59.6722902 129.103203,59.6390734 129.103203,59.6390734 C129.103203,57.3471154 130.09794,54.9222902 132.120572,52.2981643 C134.176361,49.6408217 136.696361,47.4817308 139.746887,45.7876748 C143.228466,43.8278846 146.64373,42.8645979 150.058993,42.8645979 L150.722151,42.8645979 C151.186361,42.8645979 151.451624,43.0306818 151.451624,43.3960664 L151.451624,43.5621503 C151.451624,43.8611014 151.219519,44.4257867 150.755309,45.2894231 C150.556361,45.2229895 150.357414,45.1897727 150.158466,45.1565559 C150.158466,45.1897727 150.125309,45.2229895 150.092151,45.2894231 C149.196887,45.1233392 148.334782,45.0236888 147.472677,44.990472 C143.062677,45.0901224 139.216361,46.8838287 136.000045,50.3383741 C133.612677,52.9292832 132.385835,55.4537587 132.352677,57.9450175 Z" id="chael---Right-Block" fill="#034181"></path>
                            <path d="M158.381624,48.3121503 C159.608466,47.448514 160.238466,46.5184441 160.271624,45.5551573 C160.238466,44.990472 159.87373,44.6583042 159.210572,44.5586538 C157.652151,44.691521 156.060572,45.7212413 154.402677,47.6478147 C153.905309,48.2125 153.474256,48.8104021 153.043203,49.4747378 C153.175835,49.5079545 153.308466,49.5079545 153.40794,49.5079545 C153.40794,49.5079545 153.40794,49.4747378 153.374782,49.441521 C153.838993,49.5079545 154.236887,49.5411713 154.568466,49.5743881 C155.92794,49.5079545 157.221098,49.0761364 158.381624,48.3121503 Z" id="Shape" fill="#034181"></path>
                            <path d="M125.754256,30.8069056 L125.22373,30.8069056 C125.22373,30.9065559 125.22373,31.0062063 125.22373,31.0726399 C125.323203,31.0394231 125.389519,31.0394231 125.455835,30.9729895 L125.754256,30.8069056 Z" id="Shape" fill="#FFCC00"></path>
                            <path d="M124.792677,30.9729895 L125.091098,30.8069056 L111.861098,30.8069056 C111.595835,30.7736888 111.36373,30.8733392 111.19794,31.0726399 C111.032151,31.2387238 110.932677,31.4380245 110.899519,31.670542 L108.346361,38.7457168 L104.89794,46.983479 C105.163203,46.684528 105.494782,46.4520105 105.760045,46.1862762 C106.15794,45.8873252 106.522677,45.6215909 106.920572,45.3226399 C107.882151,44.6583042 108.810572,44.0936189 109.738993,43.6618007 L111.894256,36.1548077 C112.159519,35.6233392 113.94474,29.8648776 113.618466,31.0394231 C113.618466,31.0394231 123.598993,31.6041084 124.792677,30.9729895 Z" id="Shape" fill="#FFCC00"></path>
                            <path d="M108.876887,45.6548077 C108.478993,45.8208916 108.081098,46.0866259 107.683203,46.3523601 C107.318466,46.6513112 106.920572,47.0166958 106.588993,47.4152972 C105.395309,48.8104021 104.334256,50.504458 103.505309,52.497465 C102.643203,54.3576049 102.212151,55.9520105 102.178993,57.2806818 L102.178993,57.4467657 C102.212151,58.3768357 102.510572,59.0411713 103.107414,59.4397727 L108.876887,45.6548077 Z" id="Shape" fill="#FFCC00"></path>
                            <path d="M145.582677,70.3348776 C145.21794,70.2684441 144.289519,70.0691434 142.797414,69.7369755 L134.706887,68.0429196 C133.24794,67.7107517 131.623203,67.3453671 129.865835,66.9799825 C120.81373,64.9869755 110.468466,68.6408217 98.8632033,77.941521 C95.6137296,80.4992133 91.6679401,83.1565559 87.0921506,85.8471154 C90.6068875,77.177535 92.8284664,72.0621503 93.7900454,70.4677448 C93.7900454,70.434528 93.7900454,70.434528 93.8232033,70.434528 C94.1879401,69.8034091 94.5195191,69.3715909 94.8179401,69.1722902 C95.4479401,69.0062063 96.6084664,68.9065559 98.2995191,68.9397727 L98.3658348,68.9397727 C98.7637296,68.9065559 99.1284664,68.8401224 99.4600454,68.6076049 C99.4932033,68.6076049 99.5263612,68.6076049 99.5263612,68.6076049 C99.8579401,68.3750874 100.123203,68.0761364 100.322151,67.677535 L101.681624,64.8873252 L101.681624,64.920542 C101.681624,64.8873252 101.681624,64.8541084 101.681624,64.8541084 L102.610045,62.6950175 C102.676361,62.5289336 102.676361,62.3628497 102.610045,62.1967657 C102.610045,62.1303322 102.576887,62.0971154 102.510572,62.0306818 C102.444256,61.9642483 102.37794,61.8978147 102.278466,61.8313811 C102.112677,61.7649476 101.946887,61.7649476 101.781098,61.8313811 C101.615309,61.9310315 101.482677,62.0306818 101.416361,62.1967657 L100.521098,64.2894231 L100.521098,64.3226399 L99.1616243,67.1128497 C99.0953085,67.2457168 98.962677,67.4118007 98.8632033,67.511451 L98.8300454,67.511451 L98.7968875,67.511451 C98.6642559,67.5778846 98.4984664,67.6111014 98.332677,67.6443182 L98.2995191,67.6443182 C96.3100454,67.6111014 94.9837296,67.7439685 94.3205717,67.9432692 C94.2874138,67.9432692 94.2542559,67.976486 94.221098,68.0097028 C93.7237296,68.2754371 93.2263612,68.8733392 92.6958348,69.8034091 L92.662677,69.8366259 L92.662677,69.8034091 C91.6679401,71.497465 89.181098,77.1443182 85.2684664,86.8104021 C85.2021506,86.976486 85.2021506,87.1425699 85.2684664,87.3086538 C85.3016243,87.3418706 85.3347822,87.4083042 85.3679401,87.441521 C85.3679401,87.4747378 85.401098,87.5079545 85.4342559,87.5411713 C85.5005717,87.6740385 85.6332033,87.8069056 85.8321506,87.8401224 C85.9979401,87.9065559 86.1637296,87.8733392 86.3295191,87.8069056 C91.5684664,84.7841783 96.0447822,81.8278846 99.6921506,78.9380245 C110.899519,69.9362762 121.344256,66.6145979 131.059519,68.9397727 C140.741624,71.2981643 144.422151,72.8925699 142.034782,73.8226399 C139.758161,74.6663462 141.881593,75.2157517 148.404745,75.3612413 C148.816898,75.3702098 149.246956,75.3778497 149.694256,75.3838287 C157.254256,75.483479 163.355309,73.5569056 168.030572,69.5708916 C172.705835,65.5848776 175.756361,62.2631993 177.148993,59.6390734 L177.082677,59.7387238 L177.082677,59.7719406 C176.419519,60.7352273 176.021624,61.2999126 175.922151,61.4327797 C175.855835,61.4992133 175.789519,61.5988636 175.723203,61.698514 C175.656887,61.698514 175.590572,61.7649476 175.557414,61.8313811 C175.45794,61.9310315 175.391624,61.9642483 175.358466,62.0306818 C174.728466,62.8278846 174.065309,63.5918706 173.402151,64.2562063 C166.936361,70.6670455 157.784782,72.6932692 145.881098,70.4013112 L145.84794,70.4013112 C145.781624,70.3680944 145.715309,70.3348776 145.615835,70.3348776 L145.582677,70.3348776 Z M92.5963612,70.1023601 L92.5632033,70.1355769 L92.5963612,70.0691434 L92.5963612,70.1023601 Z M93.8895191,70.1023601 L93.8895191,70.1687937 L93.8895191,70.1355769 L93.8895191,70.1023601 Z" id="Bottom-Right-Border" fill="#FFCC00"></path>
                            <path d="M93.8895191,70.1687937 L93.8895191,70.1023601 L93.8895191,70.1687937 Z" id="Shape" fill="url(#linearGradient-2)"></path>
                            <path d="M89.7447822,26.1233392 L89.7447822,26.1565559 L89.8774138,26.1233392 C89.8442559,26.1233392 89.811098,26.1233392 89.811098,26.1233392 C89.7779401,26.1233392 89.7779401,26.1233392 89.7447822,26.1233392 Z" id="Shape" fill="url(#linearGradient-3)"></path>
                            <path d="M89.9147164,42.05342 C89.7313118,41.205278 89.8489187,41.0214716 89.6349467,40.2072552 C89.0541654,41.3946541 89.2940421,41.9046128 88.866098,43.4312684 C88.4381539,45.0597012 87.7138612,48.4838526 86.2160569,51.8579421 C85.6352756,55.4201386 85.2990339,57.7610107 85.2684664,58.8805582 C85.2684664,58.8805582 85.2990339,58.8805582 85.3296013,58.8805582 C85.7269779,58.8466325 86.2771918,58.6091527 86.9191079,58.2698959 L87.0413776,58.5073757 C87.0413776,58.47345 87.0413776,58.47345 87.071945,58.4395243 L87.1025125,58.5073757 C87.2553496,58.4395243 87.3776194,58.371673 87.5304566,58.2698959 L87.6527263,58.5073757 C87.6527263,58.47345 87.6527263,58.47345 87.6832937,58.4395243 L87.7138612,58.5073757 C87.774996,58.5073757 87.8055635,58.47345 87.8361309,58.4395243 L88.2029401,59.1858893 C88.1723727,59.1858893 88.1723727,59.1858893 88.1418052,59.1858893 L88.2029401,59.3555177 L88.1723727,59.3555177 L88.1418052,59.3555177 L88.2029401,59.5251461 L88.1723727,59.5251461 L88.5086145,60.2036598 C88.478047,60.2036598 88.478047,60.2036598 88.4474796,60.2036598 L88.5086145,60.3732882 L88.2029401,60.712545 C87.8055635,60.8821734 87.2553496,61.0857275 86.5522987,61.4249843 C89.181098,62.4088291 90.6177674,63.6640793 90.7706046,65.2246607 C90.801172,65.5639175 90.801172,65.8692486 90.7706046,66.1406541 L90.801172,66.1406541 L90.8317395,66.0728027 C90.8317395,66.038877 90.8317395,66.0049514 90.8623069,65.9710257 C90.8623069,65.9371 90.8623069,65.9031743 90.8623069,65.8692486 C90.9234418,65.6317689 90.9540092,65.4621405 90.9845766,65.292512 L91.1374138,63.6301536 C91.1374138,63.0873427 91.0762789,62.6123832 91.0151441,62.1374236 C90.8317395,62.2392007 90.6177674,62.307052 90.4649302,62.3749034 C90.4649302,62.307052 90.4649302,62.2392007 90.4649302,62.205275 C90.4649302,61.5946127 90.5566325,60.9839505 90.6177674,60.4072139 C90.3426605,59.5929975 89.9758513,58.7448555 89.4867723,57.9306391 C89.4562049,57.8627877 89.39507,57.8288621 89.3645026,57.7949364 C90.7706046,52.400753 90.9234418,47.1422723 89.9147164,42.05342 Z" id="yellow-left-curve" fill="#FFCC00"></path>
                            <path d="M179.038993,60.004458 L179.072151,60.004458 C179.005835,59.8715909 178.939519,59.7387238 178.906361,59.6058566 C178.939519,59.7719406 179.005835,59.8715909 179.038993,60.004458 Z" id="Shape" fill="#FFCC00"></path>
                            <path d="M180.365309,63.7579545 C180.995309,65.4520105 180.995309,65.4520105 180.398466,63.7579545 L180.365309,63.7579545 Z" id="Shape" fill="#FFCC00"></path>
                            <path d="M72.2708751,25.1496442 C72.2805971,25.1471406 72.2902207,25.1447356 72.299746,25.142429 L72.299746,24.6285839 C72.2241982,24.6325734 72.1802254,24.6357986 72.1678277,24.6382596 C71.771282,24.7169758 71.2608378,24.9341018 70.6168687,25.2891874 L70.5056927,25.3724206 C70.484273,25.3936801 70.4308294,25.4308109 70.4018913,25.4451718 L70.3127947,25.5017524 C70.1962899,25.5942594 70.0984354,25.6573892 69.86611,25.7957422 C69.7966424,25.8508184 69.7616864,25.878691 69.761242,25.87936 L69.4885161,26.0147033 L69.4885161,26.282046 C69.4667299,26.3598758 69.4550491,26.4309044 69.4550491,26.5219406 L69.4808104,26.6795016 C69.4925762,26.7145351 69.4979409,26.7280569 69.5252326,26.7856432 C69.4670901,26.8159257 69.4229924,26.8456267 69.3678139,26.9003926 L69.3050916,26.9763294 C69.2827673,27.0095655 69.2651015,27.038738 69.2409055,27.0807645 C69.1873756,27.1737412 69.1757255,27.1906951 69.1335448,27.2325604 C69.0702699,27.320047 69.0384868,27.3640776 69.0381957,27.3646524 L68.6183736,27.2257581 L68.6183736,27.9672022 C68.21557,29.1432103 67.9927923,30.0223146 67.9518403,30.6461827 C67.8246354,31.323666 67.6174174,32.5594113 67.3859312,34.0528212 C67.0695688,35.6837658 66.330155,37.4546624 65.1424085,39.4194383 C63.3865967,42.275476 63.273839,42.4610187 63.199154,42.6463351 L63.0762161,42.9513817 L63.4907838,43.3628497 L63.6987213,43.3628497 C63.7313592,43.3628497 63.7620923,43.3601835 63.7914399,43.3552972 C63.7567524,43.4493853 63.7103848,43.5542435 63.6513183,43.6714932 L62.4660332,45.9271554 C61.5246452,48.1552187 61.5246452,49.8222327 62.5810355,50.8303976 L62.6953722,50.9395148 L62.1574138,51.5341783 L60.0021506,53.4939685 C59.2395191,54.1250874 58.4437296,54.7229895 57.6147822,55.2876748 C57.3163612,55.4537587 57.051098,55.6198427 56.7858348,55.7859266 C56.5868875,55.9187937 56.3547822,56.0516608 56.1558348,56.1513112 C55.3268875,52.7631993 55.0284664,49.3750874 55.3268875,46.1198427 L55.3600454,45.9869755 C55.3600454,45.8541084 55.4263612,45.7212413 55.4595191,45.6215909 C56.8853085,39.177535 58.4768875,34.5936189 60.1679401,31.8034091 C60.1347822,31.7037587 60.2674138,31.4380245 60.4995191,31.1058566 C60.7316243,30.8401224 60.831098,30.7072552 60.8974138,30.7072552 C61.4942559,29.7107517 62.1905717,28.7806818 62.9200454,27.8506119 C63.6495191,26.8873252 64.3789927,25.9240385 65.0421506,25.0271853 C69.0542559,19.4799825 71.541098,14.8960664 72.4695191,11.2422203 C72.5358348,10.9432692 72.6021506,10.677535 72.6684664,10.4450175 C72.7347822,10.2789336 72.7347822,10.1460664 72.7679401,10.0131993 C72.8342559,9.84711538 72.8674138,9.68103147 72.9005717,9.58138112 C72.9668875,9.44851399 73.0000454,9.38208042 73.0995191,9.34886364 C73.1989927,9.38208042 73.2653085,9.51494755 73.3979401,9.78068182 C73.4974138,10.0131993 73.5637296,10.1792832 73.5968875,10.3453671 C73.6300454,10.3785839 73.6632033,10.511451 73.7295191,10.8104021 C73.7295191,11.0429196 73.762677,11.2090035 73.8289927,11.3418706 C73.8289927,11.4083042 73.8400454,11.4525932 73.8621506,11.4747378 C74.9895191,15.6932692 78.1395191,21.1408217 83.3121506,27.8506119 C83.5442559,28.1495629 83.8095191,28.448514 84.0084664,28.7806818 C85.8321506,31.2387238 87.3242559,33.7631993 88.4184664,36.3208916 L86.4289927,38.5464161 C85.8653085,39.2107517 85.2684664,39.941521 84.6053085,40.7387238 L83.4106827,42.2529757 C82.914384,38.588917 82.0389602,35.0682117 80.768587,31.6953729 C80.7023658,31.5452464 80.6576382,31.4303463 80.6099524,31.2926613 C80.5966611,31.2542848 80.5830016,31.2137879 80.5670185,31.1655361 C80.5655583,31.1611277 80.4961073,30.9494587 80.4734053,30.881862 L80.4263317,30.7416973 L80.5578752,30.8722572 L80.2947883,30.3500177 L79.4951559,27.9690575 L79.4951559,28.5883936 C79.4795949,28.5597009 79.4627785,28.5317953 79.4282218,28.4817308 C79.4211438,28.472364 79.2807651,28.2689386 79.1708762,28.119027 C79.0974781,27.9744086 79.0219429,27.8592754 78.9265105,27.7410131 C78.9469567,27.6830111 78.9596835,27.623584 78.9596835,27.5516608 L78.9446949,27.430817 C78.9148725,27.3124194 78.8715618,27.2249105 78.7665872,27.061932 L78.7291118,26.9503466 L78.5020585,26.7249911 C78.2889651,26.4501026 78.0327835,26.2177289 77.765597,26.0409365 L77.6571735,25.9867082 C76.6222451,25.6169198 75.4292605,26.0304026 73.9953975,27.1616178 C73.683492,27.4194221 73.5426825,27.5368177 73.3451932,27.7048284 C73.2345838,27.7962552 73.1193282,27.8442744 72.9946788,27.8500248 C72.8436726,27.8297997 72.7416126,27.7867186 72.6241179,27.6962873 C72.5269737,27.5696805 72.4670812,27.4304767 72.4670812,27.3523601 C72.4670812,26.8875693 72.6049854,26.4193587 72.9104294,25.8840909 C72.9572721,25.8274279 72.9946822,25.7666377 73.0566104,25.6406261 C73.1021032,25.5762705 73.1331217,25.5007315 73.1449722,25.4183983 C73.1597062,25.3160312 73.1461355,25.2409882 73.1190271,25.1602711 C73.1013209,25.1075497 73.0877238,25.078631 73.0186429,24.9501057 C72.836341,24.6786975 72.5494587,24.5795907 72.1678277,24.6382596 L72.2268409,25.0797133 C72.2388503,25.0616847 72.2520344,25.0445006 72.266279,25.0282671 L72.266279,25.1268357 L72.2708751,25.1496442 Z M72.2708751,25.1496442 C72.2693455,25.1500381 72.2678135,25.1504345 72.266279,25.1508333 L72.266279,25.1268357 L72.2708751,25.1496442 Z" id="brush-tip" fill="#FFCC00"></path>
                            <path d="M68.6232033,53.0953671 C68.4905717,52.3313811 68.2916243,51.5673951 68.1258348,50.7369755 L67.7942559,49.2754371 C67.2637296,49.9065559 66.1363612,51.1355769 64.4121506,52.9957168 C65.1084664,52.2981643 65.0421506,52.4310315 64.1137296,53.4607517 L64.1137296,53.4939685 L64.1468875,53.4607517 C65.1084664,54.5901224 64.8100454,56.3506119 63.351098,58.8086538 C64.8100454,58.476486 65.9374138,58.2107517 66.7332033,58.0446678 L66.7663612,58.011451 C66.8989927,58.011451 66.9984664,57.9782343 67.0979401,57.9450175 L67.131098,57.9450175 L67.8605717,57.7789336 L67.9268875,57.7789336 C67.9268875,57.7457168 67.9268875,57.7457168 67.9600454,57.7457168 C68.391098,57.6460664 68.7889927,57.5464161 69.2200454,57.4799825 L68.6232033,53.0953671 Z" id="Shape" fill="#034181"></path>
                            <path d="M64.1137296,53.4939685 C63.981098,53.6268357 63.8484664,53.7929196 63.682677,53.9590035 L60.9305717,56.4502622 C59.902677,57.3471154 58.8416243,58.1443182 57.7805717,58.8750874 C57.7805717,58.8750874 57.7474138,58.8750874 57.7474138,58.9083042 C57.5484664,59.0411713 57.3495191,59.1740385 57.1505717,59.2736888 C57.2832033,59.6722902 57.4489927,60.0708916 57.5816243,60.469493 C57.5816243,60.469493 57.5484664,60.469493 57.5153085,60.469493 C57.4489927,60.5027098 57.382677,60.5691434 57.3163612,60.6355769 L57.3163612,60.6687937 C56.9184664,61.1338287 56.5537296,61.5988636 56.2884664,62.0971154 C55.3600454,63.5254371 54.9621506,65.0201923 55.0284664,66.5813811 C55.0284664,66.913549 55.0947822,67.2457168 55.161098,67.5778846 C55.1942559,67.9100524 55.2937296,68.2422203 55.3600454,68.5743881 C55.6253085,69.4380245 55.9900454,70.2684441 56.5205717,71.1652972 L62.0579401,93.3208916 C62.0247822,93.3208916 61.9584664,93.3208916 61.9253085,93.3208916 C61.8258348,93.2876748 61.792677,93.3208916 61.7595191,93.3208916 C61.6932033,93.3541084 61.3284664,93.420542 60.7316243,93.420542 C60.0684664,93.420542 59.0405717,93.2876748 57.6479401,92.9887238 C56.2221506,92.6565559 54.2989927,91.7929196 51.8784664,90.4642483 C53.0389927,89.8663462 53.7353085,89.2020105 53.9674138,88.4712413 C53.9674138,88.4380245 53.9674138,88.4048077 53.9674138,88.4048077 C54.0005717,88.2387238 54.0005717,88.0394231 53.9674138,87.8401224 C53.9342559,87.7072552 53.901098,87.5743881 53.8347822,87.4747378 L53.8347822,87.4083042 C53.7021506,87.1757867 53.602677,87.0761364 53.4700454,86.976486 C53.3042559,86.8104021 53.1053085,86.7439685 52.9395191,86.7771853 C52.8732033,86.7771853 52.8400454,86.8104021 52.8068875,86.8104021 L52.7737296,86.8104021 C51.8453085,87.0097028 50.9500454,87.1425699 50.1542559,87.2422203 C50.0547822,87.2422203 49.9884664,87.2422203 49.8889927,87.2422203 L49.1595191,87.3086538 C48.1979401,87.3086538 47.2032033,87.1757867 46.1753085,86.9432692 C45.3132033,86.6443182 44.5174138,86.2457168 43.8874138,85.7142483 L43.8874138,85.6810315 C43.8874138,85.6478147 43.8874138,85.6145979 43.8874138,85.5813811 C44.0532033,85.0166958 43.8874138,84.4187937 43.3900454,83.754458 C43.1579401,83.3890734 42.6937296,82.990472 42.0305717,82.5586538 C42.3289927,82.3261364 42.5942559,82.1600524 42.9258348,81.9607517 C42.9258348,81.9607517 42.9921506,81.9607517 42.9921506,81.927535 C43.191098,81.7946678 43.2574138,81.6285839 43.3237296,81.3296329 C43.3568875,81.1967657 43.3568875,81.0638986 43.3237296,80.9310315 C43.3237296,80.8645979 43.3237296,80.8313811 43.2905717,80.7981643 C43.2242559,80.6652972 43.191098,80.5324301 43.1579401,80.4659965 C43.1247822,80.4327797 43.0916243,80.3663462 43.0916243,80.3663462 C42.9921506,80.2002622 42.892677,80.1006119 42.8263612,80.0341783 C42.7932033,80.0341783 42.7932033,80.0341783 42.7600454,80.0341783 C40.7374138,78.6722902 38.8142559,77.6425699 36.9905717,76.9118007 C36.9242559,76.8453671 36.8579401,76.8121503 36.7916243,76.8121503 C36.6589927,76.7789336 36.5263612,76.7125 36.3937296,76.6792832 L36.4268875,76.6792832 C35.8300454,76.4799825 35.2663612,76.2806818 34.7358348,76.1145979 C34.702677,76.1145979 34.072677,75.9152972 32.8458348,75.5166958 C31.6521506,75.1513112 30.1932033,74.719493 28.5353085,74.254458 C28.0047822,74.1215909 27.7063612,74.0551573 27.5737296,74.0551573 L27.5405717,74.0551573 C27.5405717,74.0551573 27.5405717,74.0883741 27.6400454,74.1215909 L29.6958348,74.9187937 C30.1268875,75.0848776 30.6574138,75.3173951 31.3537296,75.6163462 C31.6189927,75.7159965 31.8842559,75.8156469 32.0832033,75.8820804 L30.8232033,75.8820804 C32.182677,76.1810315 32.9121506,76.413549 33.0116243,76.5464161 C33.111098,76.7125 33.3100454,76.8785839 33.5421506,77.0446678 C33.741098,77.2107517 33.9068875,77.3104021 34.0395191,77.3104021 C34.1389927,77.3436189 34.4042559,77.3768357 34.7689927,77.476486 C35.1005717,77.5097028 35.5979401,77.6425699 36.2279401,77.8418706 C36.8579401,78.0079545 37.222677,78.1408217 37.3884664,78.1408217 C37.521098,78.1408217 37.4547822,78.1408217 37.222677,78.1740385 C36.9574138,78.1740385 36.7253085,78.2736888 36.4600454,78.4729895 C37.2558348,78.4065559 38.0847822,78.5726399 38.9800454,78.9712413 C39.8753085,79.3366259 40.8700454,80.0341783 41.9642559,81.0306818 C41.4668875,81.3628497 40.9695191,81.6950175 40.4721506,82.0936189 C40.372677,82.1600524 40.3063612,82.2929196 40.2400454,82.4257867 C40.2068875,82.5918706 40.2400454,82.691521 40.2732033,82.8243881 C40.3395191,82.9572552 40.4058348,83.0901224 40.5716243,83.1565559 C41.4668875,83.6880245 42.0637296,84.1530594 42.3953085,84.5184441 C42.561098,84.7841783 42.6605717,85.0166958 42.6605717,85.2492133 C42.6605717,85.2492133 42.6274138,85.3156469 42.6274138,85.3488636 L42.561098,85.8803322 C42.561098,85.9799825 42.561098,86.0796329 42.561098,86.1792832 C42.5942559,86.2457168 42.6605717,86.3453671 42.7268875,86.4118007 C42.7600454,86.4450175 42.7600454,86.4450175 42.7600454,86.4782343 L42.7932033,86.4782343 C44.5505717,88.1390734 47.0374138,88.8034091 50.2537296,88.5376748 C51.0163612,88.4712413 51.8453085,88.3383741 52.6742559,88.1390734 C52.342677,88.7037587 51.6463612,89.2020105 50.5189927,89.6338287 L50.4858348,89.6338287 C50.3863612,89.6670455 50.3200454,89.733479 50.2205717,89.7999126 C50.121098,89.8995629 50.0216243,90.0656469 50.0216243,90.2317308 C50.0216243,90.2981643 50.0216243,90.3645979 50.0547822,90.3978147 C50.0216243,90.497465 50.0547822,90.5638986 50.0547822,90.6303322 C50.121098,90.8296329 50.2205717,90.9625 50.3532033,91.0621503 C53.1053085,92.7229895 56.1558348,93.8855769 59.6042559,94.5499126 C59.6705717,94.5831294 59.7700454,94.5831294 59.8363612,94.5831294 C59.902677,94.6163462 59.9358348,94.6163462 59.9689927,94.6163462 C60.0684664,94.6163462 60.1679401,94.6163462 60.3005717,94.6827797 C60.4332033,94.7492133 60.7647822,94.7492133 61.2953085,94.7824301 C61.792677,94.8156469 62.2237296,94.8156469 62.5221506,94.7492133 C62.8205717,94.7159965 63.052677,94.6495629 63.1853085,94.5831294 C63.3179401,94.483479 63.4174138,94.4170455 63.4837296,94.3173951 C63.5500454,94.184528 63.5500454,94.0848776 63.5168875,93.9187937 L57.7805717,70.7666958 C57.7805717,70.733479 57.7474138,70.6670455 57.681098,70.6006119 C57.1837296,69.7701923 56.8189927,69.0062063 56.6200454,68.2422203 C56.4874138,67.7771853 56.3879401,67.3453671 56.3547822,66.913549 C56.3547822,66.8803322 56.3547822,66.8471154 56.3547822,66.8471154 C56.6532033,66.9467657 57.1505717,66.5149476 57.8800454,65.4852273 C58.6095191,64.455507 59.3721506,63.7579545 60.201098,63.4257867 C61.0300454,63.0936189 61.792677,63.0936189 62.4558348,63.3925699 C63.1521506,63.691521 64.0474138,63.8576049 65.1084664,63.8576049 C66.1363612,63.8576049 67.0979401,63.6583042 67.9268875,63.226486 C67.9600454,63.226486 67.9600454,63.226486 67.9600454,63.1932692 C68.2916243,62.9939685 68.7889927,62.761451 69.4189927,62.4625 L68.9216243,62.1303322 C68.9216243,62.0971154 68.9547822,62.0306818 68.9547822,61.997465 L68.9216243,61.9642483 C68.9216243,61.8978147 68.9547822,61.8313811 69.021098,61.7649476 L68.5900454,61.4659965 C68.5900454,61.4327797 68.5900454,61.3995629 68.5900454,61.3995629 C68.4905717,61.2666958 68.4905717,61.1006119 68.5900454,60.9677448 C68.5900454,60.934528 68.5900454,60.9013112 68.6232033,60.8680944 C68.6232033,60.8016608 68.6895191,60.7684441 68.722677,60.7020105 C68.722677,60.6355769 68.7558348,60.5691434 68.7889927,60.5027098 C68.7889927,60.469493 68.7889927,60.4362762 68.8221506,60.4362762 C68.8553085,60.3698427 68.8553085,60.3366259 68.8884664,60.3034091 C68.8884664,60.2701923 68.9216243,60.170542 68.9547822,60.1041084 C69.2863612,59.2736888 69.3858348,58.3768357 69.2200454,57.5131993 L69.2200454,57.4799825 C68.7889927,57.5464161 68.391098,57.6460664 67.9600454,57.7457168 C67.9268875,57.7457168 67.9268875,57.7457168 67.9268875,57.7789336 L67.8937296,57.7789336 L67.8605717,57.7789336 L67.131098,57.9450175 L67.0979401,57.9450175 C66.9984664,57.9782343 66.8989927,58.011451 66.7663612,58.011451 L66.7332033,58.0446678 C65.9374138,58.2107517 64.8100454,58.476486 63.351098,58.8086538 L63.3179401,58.8086538 L63.351098,58.8086538 C64.8100454,56.3506119 65.1084664,54.5901224 64.1468875,53.4607517 L64.1137296,53.4939685 Z M37.0568875,76.9782343 L37.0900454,76.9782343 L37.0900454,77.011451 L37.0568875,76.9782343 Z M52.7074138,88.1390734 C52.7405717,88.1058566 52.7405717,88.1390734 52.7074138,88.2387238 C52.7405717,88.1722902 52.7405717,88.1390734 52.7074138,88.1390734 Z" id="left-bottom-brush" fill="#FFCC00"></path>
                            <path d="M0.0195190579,56.3506119 C0.118992742,56.4502622 0.251624321,56.5166958 0.351098005,56.6163462 C1.27951906,57.3471154 2.20794011,58.011451 3.20267695,58.6757867 C6.02109801,60.469493 9.13794011,61.8978147 12.4868875,62.8943182 C12.5532033,62.927535 12.5863612,62.927535 12.6195191,62.927535 C12.652677,62.927535 12.652677,62.927535 12.6858348,62.927535 C12.9842559,63.0271853 13.3158348,63.1268357 13.6474138,63.226486 C13.7800454,63.2597028 13.9458348,63.2597028 14.0784664,63.3261364 C18.1900454,64.2562063 21.8374138,64.6215909 24.9874138,64.4222902 C27.6732033,64.2229895 30.4584664,64.5219406 33.2768875,65.3523601 C33.8405717,65.4852273 34.371098,65.6513112 34.9347822,65.8506119 C34.4705717,65.9502622 34.0395191,66.0831294 33.6084664,66.2492133 L33.4758348,66.6810315 C34.7689927,67.1460664 36.0621506,67.6111014 37.2558348,68.1093531 C37.521098,68.1757867 37.7863612,68.3086538 38.0847822,68.441521 C38.8805717,68.7736888 39.6432033,69.1390734 40.4058348,69.504458 C40.7042559,69.6373252 41.002677,69.8034091 41.3342559,69.9362762 C41.6989927,70.1023601 42.0305717,70.3016608 42.3953085,70.5009615 C42.892677,70.7666958 43.4563612,71.0988636 44.0200454,71.4310315 C44.0532033,71.4310315 44.0532033,71.4642483 44.0532033,71.497465 L44.0863612,71.497465 C44.1858348,71.5306818 44.2189927,71.5638986 44.3184664,71.5971154 C44.0863612,71.7299825 44.0200454,71.8296329 43.9868875,71.8296329 C43.821098,72.1618007 42.9921506,72.0953671 41.5000454,71.663549 L41.1684664,71.5638986 C40.4721506,71.3313811 39.9747822,71.1652972 39.6432033,71.0324301 C38.8142559,70.733479 38.2837296,70.5673951 38.0847822,70.6006119 C37.7532033,70.6006119 38.3168875,71.0656469 39.742677,71.9957168 C40.2400454,72.261451 40.7705717,72.5936189 41.4005717,72.9922203 C41.8979401,73.2579545 42.3953085,73.5569056 42.8263612,73.8226399 C44.0200454,74.5201923 45.0147822,75.184528 45.8437296,75.8156469 C43.3568875,75.483479 40.8700454,74.9852273 38.3832033,74.2212413 C38.3500454,74.2212413 38.3168875,74.2212413 38.2505717,74.1880245 C38.2174138,74.1548077 38.1842559,74.1548077 38.151098,74.1548077 C38.151098,74.1548077 38.0847822,74.1215909 38.0516243,74.0883741 C38.0184664,74.0883741 37.9853085,74.0883741 37.9853085,74.0883741 C36.7584664,73.5236888 35.7305717,73.1250874 34.8684664,72.8925699 C33.9732033,72.6268357 32.481098,72.3943182 30.3589927,72.261451 C28.2368875,72.0953671 28.1374138,72.5271853 30.0274138,73.5569056 L30.1932033,73.5569056 C30.1268875,73.5569056 30.0937296,73.5569056 30.0274138,73.5901224 C29.961098,73.5901224 29.961098,73.5901224 29.9279401,73.6233392 C29.1321506,73.7562063 28.3032033,73.9222902 27.5074138,74.0551573 L27.5737296,74.0551573 C27.7063612,74.0551573 28.0047822,74.1215909 28.5353085,74.254458 C30.1932033,74.719493 31.6521506,75.1513112 32.8458348,75.5166958 C34.072677,75.9152972 34.702677,76.1145979 34.7358348,76.1145979 C35.2663612,76.2806818 35.8300454,76.4799825 36.4268875,76.6792832 L36.3937296,76.6792832 C36.5263612,76.7125 36.6589927,76.7789336 36.7916243,76.8121503 C36.8579401,76.8121503 36.9242559,76.8453671 36.9905717,76.9118007 C38.8142559,77.6425699 40.7374138,78.6722902 42.7600454,80.0341783 C42.7932033,80.0341783 42.7932033,80.0341783 42.8263612,80.0341783 C42.892677,80.1006119 42.9921506,80.2002622 43.0916243,80.3663462 C43.0916243,80.3663462 43.1247822,80.4327797 43.1579401,80.4659965 C43.191098,80.5324301 43.2242559,80.6652972 43.2905717,80.7981643 C43.3237296,80.8313811 43.3237296,80.8645979 43.3237296,80.9310315 C43.3568875,81.0638986 43.3568875,81.1967657 43.3237296,81.3296329 C43.2574138,81.6285839 43.191098,81.7946678 42.9921506,81.927535 C42.9921506,81.9607517 42.9258348,81.9607517 42.9258348,81.9607517 C42.5942559,82.1600524 42.3289927,82.3261364 42.0305717,82.5586538 C42.6937296,82.990472 43.1579401,83.3890734 43.3900454,83.754458 C43.8874138,84.4187937 44.0532033,85.0166958 43.8874138,85.5813811 L43.8874138,85.7142483 C44.5174138,86.2457168 45.3132033,86.6443182 46.1753085,86.9432692 C47.2032033,87.1757867 48.1979401,87.3086538 49.1595191,87.3086538 L49.8889927,87.2422203 C49.9553085,87.2422203 50.0216243,87.2422203 50.0547822,87.2422203 C50.8837296,87.1425699 51.7789927,87.0097028 52.7074138,86.8104021 C52.8068875,86.7771853 52.8400454,86.7439685 52.9395191,86.7771853 C53.1053085,86.7439685 53.3042559,86.8104021 53.4700454,86.976486 C53.602677,87.0761364 53.7021506,87.1757867 53.8347822,87.4083042 L53.8347822,87.4747378 C53.901098,87.5743881 53.9342559,87.7072552 53.9674138,87.8401224 C54.0005717,88.0394231 54.0005717,88.2387238 53.9674138,88.4048077 C53.9674138,88.4048077 53.9674138,88.4380245 53.9674138,88.4712413 C53.7353085,89.2020105 53.0389927,89.8663462 51.8784664,90.4642483 C53.2966296,91.2428497 54.5443612,91.8616783 55.620998,92.3074476 C56.3819717,92.6226748 57.0577296,92.8512063 57.6479401,92.9887238 C59.0405717,93.2876748 60.0684664,93.420542 60.7316243,93.420542 C61.3284664,93.420542 61.6932033,93.3541084 61.7595191,93.3208916 C61.792677,93.3208916 61.8258348,93.2876748 61.9253085,93.3208916 C61.9584664,93.3208916 62.0247822,93.3208916 62.0579401,93.3208916 L56.5205717,71.1652972 L56.4874138,71.198514 L56.4874138,71.1652972 L56.5205717,71.1652972 C55.9900454,70.2684441 55.6253085,69.4380245 55.3600454,68.5743881 C55.2937296,68.2422203 55.1942559,67.9100524 55.161098,67.5778846 C55.0947822,67.2457168 55.0284664,66.913549 55.0284664,66.5813811 C54.9621506,65.0201923 55.3600454,63.5254371 56.2884664,62.0971154 C56.5537296,61.5988636 56.9184664,61.1338287 57.3163612,60.6687937 L57.3163612,60.6355769 C57.382677,60.5691434 57.4489927,60.5027098 57.5153085,60.469493 C57.5484664,60.469493 57.5816243,60.469493 57.5816243,60.469493 C57.4489927,60.0708916 57.2832033,59.6722902 57.1505717,59.2736888 L57.1174138,59.3069056 C57.0842559,59.3069056 57.0842559,59.3069056 57.0842559,59.2736888 C57.0179401,59.3069056 56.9847822,59.3401224 56.9847822,59.3401224 C55.0616243,60.4362762 53.2379401,61.2666958 51.4805717,61.8313811 C51.0163612,61.997465 50.5853085,62.0971154 50.1542559,62.1967657 C49.6900454,62.3296329 49.2921506,62.4292832 48.861098,62.4957168 C48.6621506,62.5289336 48.4632033,62.5621503 48.2974138,62.5953671 C46.1089927,62.927535 44.0532033,62.8278846 42.0968875,62.3296329 L42.0305717,62.3296329 L41.9974138,62.3296329 L42.0305717,62.2964161 C39.0463612,61.5324301 36.261098,59.8051573 33.7742559,57.1478147 L33.7742559,57.1145979 C33.741098,57.1145979 33.7079401,57.1145979 33.6747822,57.1145979 L33.6416243,57.0813811 L33.7742559,57.1145979 C31.7184664,56.2841783 28.7674138,55.5201923 24.8547822,54.7894231 C20.9421506,54.0254371 16.9632033,53.9922203 12.9179401,54.6565559 L11.6579401,54.6565559 C4.92688748,53.1950175 3.40162432,53.5271853 7.08215064,55.719493 C7.11530853,55.719493 7.14846643,55.7527098 7.18162432,55.7859266 C7.28109801,55.7859266 7.41372958,55.8523601 7.51320327,55.8855769 C7.38057169,55.9187937 7.24794011,55.9187937 7.11530853,55.9520105 C5.45741379,56.0184441 4.03162432,56.1513112 2.77162432,56.2841783 C3.13636116,56.483479 3.50109801,56.6827797 3.86583485,56.8820804 C4.06478222,57.0149476 4.26372958,57.1145979 4.42951906,57.2142483 C4.23057169,57.1810315 3.99846643,57.1478147 3.79951906,57.1145979 C3.43478222,57.0149476 3.07004537,56.948514 2.70530853,56.8820804 C2.07530853,56.7824301 1.51162432,56.6827797 0.914782216,56.5499126 C0.881624321,56.5499126 0.848466426,56.5499126 0.848466426,56.5499126 C0.550045374,56.4502622 0.284782216,56.3838287 0.0195190579,56.3506119 Z M33.5089927,57.0149476 L33.6084664,57.0481643 L33.5421506,57.0481643 C33.5421506,57.0149476 33.5089927,57.0149476 33.5089927,57.0149476 Z M44.7495191,71.4310315 L44.7495191,71.3978147 C44.7495191,71.4310315 44.7495191,71.4310315 44.782677,71.4310315 L44.7495191,71.4310315 Z" id="Left-Bottom-Flame" fill="#034181"></path>
                            <path d="M44.7495191,71.3978147 L44.7495191,71.4310315 L44.782677,71.4310315 C44.7495191,71.4310315 44.7495191,71.4310315 44.7495191,71.3978147 Z" id="Shape" fill="url(#linearGradient-4)"></path>
                            <path d="M32.9453085,66.5149476 C33.111098,66.5481643 33.2768875,66.6145979 33.4758348,66.6810315 L33.6084664,66.2492133 C33.4095191,66.3156469 33.1774138,66.4152972 32.9453085,66.5149476 Z" id="Shape" fill="url(#linearGradient-5)"></path>
                            <path d="M81.1568875,54.2911713 C81.1900454,53.9590035 81.2895191,53.5936189 81.3558348,53.2282343 C81.6542559,51.4677448 82.0189927,49.6740385 82.3837296,47.9467657 C82.0189927,48.3453671 81.6874138,48.8104021 81.2895191,49.2754371 L75.3874138,56.6163462 C77.1779401,56.483479 78.9684664,56.4502622 80.7921506,56.5166958 C80.8584664,55.8191434 80.991098,55.0883741 81.1568875,54.2911713 Z" id="Shape" fill="#034181"></path>
                            <path d="M80.7921506,56.5166958 C78.9684664,56.4502622 77.1779401,56.483479 75.3874138,56.6163462 L71.3421506,61.6320804 C71.4084664,61.5988636 71.4747822,61.5988636 71.5742559,61.5656469 C71.5742559,61.5324301 71.6074138,61.5324301 71.6737296,61.5324301 C72.2374138,61.2666958 72.9005717,61.0341783 73.6632033,60.7684441 C75.7189927,60.0376748 77.9405717,59.705507 80.3279401,59.8051573 C80.3942559,58.9083042 80.5600454,57.8121503 80.7921506,56.5166958 Z" id="Shape" fill="#FFCC00"></path>
                            <path d="M7.91109801,45.8541084 C7.77846643,45.920542 7.67899274,45.9537587 7.57951906,45.9537587 C7.67899274,45.9869755 7.77846643,45.9869755 7.91109801,45.9869755 L7.91109801,45.8541084 Z" id="Shape" fill="#A2ABB8"></path>
                            <path d="M7.91109801,45.8541084 L7.91109801,45.9869755 C15.172677,46.8506119 21.1079401,48.1460664 25.7832033,49.7736888 C25.9821506,49.8401224 26.181098,49.9397727 26.3800454,50.0062063 L25.6505717,50.0394231 C20.842677,49.8401224 22.8984664,51.0027098 31.9174138,53.5604021 C31.6189927,52.7964161 31.4532033,51.9659965 31.3537296,51.1355769 L31.1879401,49.1757867 C31.1879401,49.1425699 31.1879401,49.0761364 31.1879401,49.0097028 L31.221098,48.976486 L31.1879401,48.8436189 C31.1879401,48.8104021 31.1879401,48.7439685 31.1879401,48.677535 C31.1879401,47.8138986 31.2874138,46.983479 31.4532033,46.219493 C31.6189927,45.2229895 31.9174138,44.2929196 32.3484664,43.4292832 C32.4147822,43.2964161 30.4253085,42.8978147 26.3800454,42.2999126 C26.3800454,42.2999126 26.3468875,42.2999126 26.3137296,42.2666958 C20.2458348,41.5691434 14.0784664,42.7649476 7.91109801,45.8541084 Z" id="Shape" fill="#034181"></path>
                            <path d="M50.8505717,58.3104021 C52.641098,57.8785839 54.3984664,57.1478147 56.1558348,56.1513112 C55.3268875,52.7631993 55.0284664,49.3750874 55.3268875,46.1198427 C50.7179401,48.4782343 46.7058348,48.8768357 43.3568875,47.3488636 C39.9747822,45.8208916 37.3553085,44.6583042 35.4321506,43.9607517 C35.1005717,44.691521 34.8353085,45.4887238 34.6695191,46.3523601 C34.4705717,47.1827797 34.4042559,47.8803322 34.4374138,48.4450175 C34.4374138,48.976486 34.4374138,49.3086538 34.4374138,49.4747378 C34.4705717,49.6076049 34.5368875,49.9065559 34.6363612,50.4048077 C34.7689927,50.8698427 34.9016243,51.434528 35.1005717,51.9659965 C35.2995191,52.4642483 35.8300454,53.2946678 36.6589927,54.3576049 C36.7253085,54.3908217 36.7584664,54.4572552 36.7916243,54.5236888 L36.7584664,54.490472 C37.0900454,54.8226399 37.4216243,55.1880245 37.8195191,55.4869755 C37.8858348,55.5534091 37.9189927,55.6198427 38.0184664,55.6862762 C38.7479401,56.2841783 39.5437296,56.8156469 40.372677,57.2806818 C42.3289927,58.177535 44.5505717,58.6757867 47.1368875,58.7422203 L47.302677,58.7422203 C47.8995191,58.7090035 48.5295191,58.6757867 49.1263612,58.6093531 L50.8505717,58.3104021 Z" id="blue-big-left" fill="#034181"></path>
                            <path d="M63.7490393,47.7676325 C63.5438825,47.021269 63.7062904,46.0101634 64.2362631,44.744138 L65.2649134,42.7715102 C65.4412535,42.4182037 65.5294235,42.1237817 65.5000335,41.8588018 C65.4608468,41.8391737 65.4314568,41.8097315 65.4118635,41.7704752 C65.3530834,41.6821486 65.2355234,41.7115908 65.0004033,41.8293596 C64.9710133,41.8293596 64.9416233,41.8588018 64.8828433,41.8293596 C64.9416233,41.6821486 65.5000335,40.7694402 66.5580738,39.03235 C67.6161142,37.2658176 68.2920844,35.6464963 68.5859845,34.1155015 C68.8211046,32.5845068 68.6658657,31.2218618 68.7540357,30.7507865 C68.7834257,30.2208268 68.9891558,29.4258872 69.3418359,28.39541 C69.3418359,28.3659678 69.3418359,28.3070833 69.3418359,28.2776411 C69.4300059,28.3070833 69.547566,28.2187567 69.665126,27.9832191 C69.782686,27.8654502 69.8120761,27.7771236 69.8708561,27.688797 C69.9002461,27.6593548 69.9296361,27.6593548 69.9590261,27.6299126 C70.0765861,27.541586 70.1059762,27.4532594 70.1353662,27.3354905 C70.1647562,27.2177217 70.1059762,27.1293951 70.0765861,27.0410685 C70.0765861,26.9527419 70.1059762,26.9232996 70.1059762,26.8644152 C70.1647562,26.834973 70.1941462,26.8055308 70.2235362,26.7760886 C70.3704862,26.687762 70.5174363,26.5994354 70.6643863,26.4816666 C70.7231664,26.4522243 70.8113364,26.3933399 70.8701164,26.3344555 C71.3991366,26.0400335 71.8105967,25.8633802 72.1044968,25.8044958 C72.2514469,25.7750536 72.3396169,25.8044958 72.3983969,25.8928224 C72.4277869,25.9517068 72.4571769,26.0105913 72.4277869,26.0105913 C72.3983969,26.0694757 72.3690069,26.1578023 72.3102269,26.2166867 C71.9869368,26.7760886 71.8399867,27.2766061 71.8399867,27.7771236 C71.8399867,27.9832191 71.9575468,28.2187567 72.1044968,28.39541 C72.2808369,28.542621 72.4571769,28.6309476 72.721687,28.6603898 C72.9568071,28.6603898 73.4941161,28.904231 73.6704562,28.75702 C73.8761862,28.5803668 74.0525263,28.4331557 74.2288663,28.2859447 C75.3750767,27.3732363 76.286167,27.049372 77.0209172,27.3143519 C77.1972573,27.4321207 77.4029874,27.608774 77.5793274,27.8443116 C77.6087174,27.8737538 77.6674975,27.9326382 77.7262775,27.9915226 C77.7556675,28.0798493 77.8438375,28.1681759 77.8732275,28.2859447 C77.8732275,28.3153869 77.8438375,28.3448291 77.8438375,28.4037135 C77.8438375,28.5214824 77.8438375,28.609809 77.9026175,28.7275778 C77.9907876,28.7864622 78.0495676,28.8747888 78.0789576,28.9631154 C78.1965176,29.1103265 78.2846877,29.2575375 78.3728577,29.3753063 C78.4316377,29.463633 78.4610277,29.5814018 78.4904177,29.6697284 C78.6667578,30.1113615 78.9018779,30.611879 79.0782179,31.0535121 C79.1076079,31.1712809 79.195778,31.2890497 79.225168,31.3773764 C79.313338,31.6423562 79.372118,31.8484517 79.4896781,32.1134315 C80.6103699,35.1166063 81.3571399,38.2000494 81.7809107,41.3382545 C83.8098063,40.1795363 85.2778363,38.8424327 87.4311347,35.6595455 C88.2381979,34.4667308 88.6042611,36.3753671 88.6042611,36.4085839 C88.6042611,36.4085839 86.6240716,39.0831993 83.3991347,42.373986 C82.5073777,43.283973 81.2178442,43.6021411 80.0244673,44.0540011 L73.347166,52.3402272 C73.053266,50.7209059 72.7005858,48.9249313 72.1715657,46.9523035 C71.8482756,45.6274042 71.4662054,43.0659323 71.0841353,39.3267721 C68.6153745,41.5349375 67.4691641,43.1837011 67.7336742,44.3319471 C67.7042842,44.3319471 67.6748942,44.3613893 67.6455042,44.4202737 L65.3504609,47.2347129 C63.7131722,50.0618788 59.1475473,56.519826 50.8016084,58.3133916 L52.1279242,56.5912671 C56.3237917,54.6462308 59.8089623,52.5265291 63.7490393,47.7676325 Z" id="Combined-Shape" fill="#034181"></path>
                            <path d="M89.4206084,39.9777273 C87.9570189,46.0620455 83.9638137,58.6814336 86.0517663,57.6537063 C90.18324,55.6198427 89.7578242,38.5766434 89.4206084,39.9777273 Z" id="Shape" fill="#034181"></path>
                            <path d="M27.4079401,74.0551573 L27.5405717,74.1215909 C27.4742559,74.0883741 27.4742559,74.0551573 27.4742559,74.0551573 C27.441098,74.0551573 27.441098,74.0551573 27.4079401,74.0551573 Z" id="Shape" fill="url(#linearGradient-6)"></path>
                            <path d="M83.1132033,70.6670455 L84.5058348,66.3488636 C76.1500454,65.684528 68.3247822,66.6145979 61.0963612,69.0726399 C61.0632033,69.0726399 60.9968875,69.0726399 60.9968875,69.0726399 L61.8589927,72.6600524 C63.4837296,71.9957168 65.1747822,71.4642483 66.8658348,71.0656469 C72.1379401,69.7369755 77.542677,69.6041084 83.1132033,70.6670455 Z" id="Shape" fill="#034181"></path>
                            <path d="M79.7051866,76.3164366 L79.5818875,76.1929186 L79.3000454,75.9105759 L79.2976889,76.4776219 C78.8532619,76.9228382 78.3142311,77.5489113 77.5499912,78.4967936 C76.3897208,79.8526287 75.6171884,80.7745844 74.6980573,81.9185633 C71.3804465,86.0729397 68.5656491,89.3336221 66.3208297,91.6319246 L62.2475391,74.4557622 C63.7491697,73.8577282 65.3295983,73.3634008 66.9417795,72.9833903 C72.0127435,71.7054501 77.2519773,71.5613437 82.7136888,72.5267459 L81.2269925,79.1407536 L79.7666223,85.6383712 C79.4752605,83.8218378 79.3332033,82.1335044 79.3332033,80.5324301 C79.3332033,79.5348575 79.3801916,78.9968944 79.5100494,78.6586644 C79.6368218,78.2787554 79.9207198,77.815586 80.3132475,77.361865 L80.5154505,77.1281396 L79.7051866,76.3164366 Z" id="Combined-Shape" fill="#034181"></path>
                        </g>
                    </g>
                </g>
            </g>
        </g>
    </g>
</svg>