<?xml version="1.0" encoding="UTF-8" standalone="no"?>
<svg width="191px" height="416px" viewBox="0 0 191 416" version="1.1" xmlns="http://www.w3.org/2000/svg" xmlns:xlink="http://www.w3.org/1999/xlink">
    <!-- Generator: Sketch 48.1 (47250) - http://www.bohemiancoding.com/sketch -->
    <title>mfugate_golden-brush-icon</title>
    <desc>Created with Sketch.</desc>
    <defs>
        <filter x="-13.6%" y="-3.4%" width="119.1%" height="108.5%" filterUnits="objectBoundingBox" id="filter-1">
            <feOffset dx="-7" dy="4" in="SourceAlpha" result="shadowOffsetOuter1"></feOffset>
            <feGaussianBlur stdDeviation="4" in="shadowOffsetOuter1" result="shadowBlurOuter1"></feGaussianBlur>
            <feColorMatrix values="0 0 0 0 0.0712884594   0 0 0 0 0.0533955598   0 0 0 0 0.244711947  0 0 0 0.5 0" type="matrix" in="shadowBlurOuter1" result="shadowMatrixOuter1"></feColorMatrix>
            <feMerge>
                <feMergeNode in="shadowMatrixOuter1"></feMergeNode>
                <feMergeNode in="SourceGraphic"></feMergeNode>
            </feMerge>
        </filter>
        <linearGradient x1="50%" y1="27.6508309%" x2="50%" y2="100%" id="linearGradient-2">
            <stop stop-color="#FAD961" offset="0%"></stop>
            <stop stop-color="#F76B1C" offset="100%"></stop>
        </linearGradient>
        <linearGradient x1="50%" y1="0%" x2="50%" y2="100%" id="linearGradient-3">
            <stop stop-color="#FBD249" offset="0%"></stop>
            <stop stop-color="#F5A623" offset="100%"></stop>
        </linearGradient>
        <linearGradient x1="50%" y1="0%" x2="50%" y2="71.7270265%" id="linearGradient-4">
            <stop stop-color="#FAD961" offset="0%"></stop>
            <stop stop-color="#F76B1C" offset="100%"></stop>
        </linearGradient>
    </defs>
    <g id="MF-Branding-Homepage(High-Res)" stroke="none" stroke-width="1" fill="none" fill-rule="evenodd">
        <g transform="translate(-755.000000, -4550.000000)" fill-rule="nonzero" id="Content-Block-6">
            <g transform="translate(380.000000, 3952.000000)">
                <g id="mfugate_golden-brush-icon" filter="url(#filter-1)" transform="translate(391.000000, 603.000000)">
                    <path d="M171.320646,255.568366 C172.454709,259.287568 172.914477,263.095909 172.748031,266.993389 C172.748031,268.536277 172.438345,270.079165 172.128659,271.622053 C171.973817,273.164941 171.509288,274.707828 171.199602,276.250716 C169.96086,280.262225 168.257588,284.119445 165.780103,288.285242 L139.921347,391.195864 C140.076189,391.195864 140.385875,391.195864 140.540718,391.195864 C141.005247,391.041576 141.160089,391.195864 141.314932,391.195864 C141.624618,391.350153 139.147132,398.13886 137.753547,397.830282 C136.359961,397.675994 135.276061,397.367416 134.65669,397.058838 C134.037318,396.595972 133.57279,396.287394 133.263104,395.824528 C132.953418,395.207373 132.953418,394.744507 133.108261,393.973063 L159.896074,286.433776 C159.896074,286.279488 160.050917,285.97091 160.360603,285.662333 C162.683246,281.805113 164.386517,278.256471 165.315574,274.707828 C165.934945,272.547785 166.399474,270.542031 166.554317,268.536277 C165.160731,268.690566 162.838088,266.684811 159.431546,261.901859 C156.025003,257.118906 152.463617,253.878842 148.592546,252.335954 C144.721475,250.793066 141.160089,250.793066 138.063232,252.181665 C134.811533,253.570264 130.630776,254.341708 125.675804,254.341708 C120.875676,254.341708 116.385233,253.415976 112.514162,251.410221 C110.810891,250.3302 108.488248,249.250178 105.546234,247.861579 L107.868877,246.318691 C107.868877,246.164402 107.714034,245.855825 107.714034,245.701536 C107.868877,245.23867 107.714034,244.930092 107.404348,244.621515 L109.417305,243.232915 C109.881834,242.307183 109.881834,241.535739 109.417305,240.918584 C109.417305,240.764295 109.417305,240.610006 109.262462,240.455717 C109.262462,240.14714 108.952777,239.992851 108.797934,239.684273 C108.797934,239.375696 108.643091,239.067118 108.488248,238.758541 C108.178562,238.141385 108.178562,237.987097 108.02372,237.832808 C108.02372,237.678519 107.868877,237.215653 107.714034,236.907075 C106.165605,233.049855 105.701077,228.884058 106.475291,224.87255 C108.488248,225.026838 110.346362,225.489705 112.359319,225.952571 C112.462548,225.952571 112.565776,226.004001 112.669005,226.10686 L116.230391,226.878304 C116.849762,227.032593 117.314291,227.186881 117.933662,227.186881 C121.804733,228.112614 127.06939,224.718261 133.882475,226.261149 C136.111317,226.168613 138.757898,225.854079 141.504865,225.550552 C142.171524,219.69043 143.753332,210.504784 146.101714,197.993614 C149.449714,180.472387 152.16,168.023095 154.392,160.645736 C156.624,153.729462 159.174857,147.581663 162.204,142.202339 C163.32,145.891019 164.436,149.733393 165.392571,153.575767 C170.653714,176.630013 169.856571,200.452734 162.522857,224.890234 C162.682286,225.043929 163.001143,225.197624 163.160571,225.505014 C165.711429,229.193693 167.624571,233.036068 169.059429,236.724747 C168.740571,239.337561 168.262286,242.104071 168.262286,244.87058 C168.262286,245.024275 168.262286,245.331665 168.262286,245.639055 C169.059429,245.331665 170.175429,245.024275 171.132,244.56319 C171.450857,246.71492 171.769714,248.86665 171.769714,251.172074 L171.769714,251.325769 L171.320646,255.568366 Z" id="Combined-Shape" stroke="#FFFFFF" stroke-width="2" fill="#FFCC00"></path>
                    <path d="M86.1861386,4.51406942 C86.1861386,4.20580874 85.8772277,3.43515705 85.4138614,2.35624469 C84.7960396,1.12320199 84.4871287,0.506680639 84.0237624,0.352550302 C83.560396,0.0442896266 83.4059406,0.0442896266 83.560396,0.352550302 C83.560396,0.506680639 83.4059406,0.814941315 83.0970297,1.43146266 C82.9425743,1.89385368 82.7881188,2.66450537 82.4792079,3.43515705 C82.3247525,4.0516784 82.3247525,4.66819975 82.0158416,5.43885144 C81.7069307,6.51776381 81.3980198,7.75080651 81.0891089,9.13797954 C76.7643564,26.0923167 65.180198,47.3623033 46.4910891,73.1020696 C43.4019802,77.2635888 40.0039604,81.7333685 36.6059406,86.2031483 C33.2079208,90.5187978 29.9643564,94.8344472 27.1841584,99.4583574 C26.8752475,99.4583574 26.4118812,100.074879 25.3306931,101.307921 C24.249505,102.849225 23.6316832,104.082267 23.7861386,104.544659 C15.9089109,117.491607 8.4950495,138.761593 1.85346535,168.662879 C1.6990099,169.12527 1.39009901,169.741791 1.39009901,170.358313 L1.23564356,170.820704 L1.23564356,170.974834 C-0.154455446,186.079607 1.23564356,201.800902 5.0970297,217.522196 C6.02376238,217.059805 7.1049505,216.443284 8.03168317,215.826762 C9.26732673,215.056111 10.5029703,214.285459 11.8930693,213.514807 C15.7544554,210.894591 19.4613861,208.120245 23.0138614,205.191769 L33.0534653,196.098079 L37.5326733,191.165908 C33.5168317,187.31265 33.5168317,180.530915 37.5326733,170.974834 L42.9386139,160.648101 C43.8653465,158.798537 44.3287129,157.257234 44.1742574,155.870061 L43.8653465,155.715931 C43.8653465,155.870061 43.8653465,155.715931 43.7108911,155.40767 C43.4019802,154.945279 42.7841584,155.099409 41.5485149,155.715931 C41.3940594,155.715931 41.239604,155.870061 41.0851485,155.870061 L40.9306931,155.715931 C41.239604,154.945279 44.1742574,150.167238 49.7346535,141.073549 C55.2950495,131.825728 58.8475248,123.34856 60.3920792,115.333782 C61.6277228,107.319005 62.5544554,101.924443 63.0178218,99.4583574 C63.1722772,96.6840113 64.2534653,92.5224922 66.1069307,87.1279304 C66.1069307,86.9738 66.1069307,86.6655393 66.1069307,86.511409 C66.570297,86.6655393 67.1881188,86.2031483 67.8059406,84.9701056 C68.4237624,84.3535843 68.5782178,83.8911933 68.8871287,83.4288023 C69.0415842,83.2746719 69.1960396,83.2746719 69.350495,83.1205416 C69.9683168,82.6581506 70.1227723,82.1957596 70.2772277,81.5792382 C70.4316832,80.9627169 70.1227723,80.5003258 69.9683168,80.0379348 C69.9683168,79.5755438 70.1227723,79.4214135 70.1227723,79.1131528 C70.4316832,78.9590225 70.5861386,78.8048921 70.7405941,78.6507618 C71.5128713,78.1883708 72.2851485,77.7259798 73.0574257,77.1094584 C73.3663366,76.9553281 73.829703,76.6470674 74.1386139,76.3388067 C76.9188119,74.7975034 79.0811881,73.8727213 80.6257426,73.5644607 L80.780198,73.5644607 L80.6257426,73.5644607 C81.3980198,73.4103303 81.8613861,73.5644607 82.170297,74.0268517 C82.3247525,74.3351123 82.4792079,74.643373 82.3247525,74.643373 C82.170297,74.9516337 82.0158416,75.4140247 81.7069307,75.7222854 C80.0079208,78.6507618 79.2356436,81.2709775 79.2356436,83.8911933 C79.2356436,84.9701056 79.8534653,86.2031483 80.6257426,87.1279304 C81.5524752,87.898582 82.4792079,88.3609731 83.8693069,88.5151034 C85.1049505,88.5151034 86.1861386,88.0527124 87.1128713,87.2820607 C88.1940594,86.3572787 89.1207921,85.586627 90.0475248,84.8159753 C96.0712871,80.0379348 100.859406,78.3425011 104.720792,79.7296742 C105.647525,80.3461955 106.728713,81.2709775 107.655446,82.5040202 C107.809901,82.6581506 108.118812,82.9664112 108.427723,83.2746719 C108.582178,83.7370629 109.045545,84.1994539 109.2,84.8159753 C109.2,84.9701056 109.045545,85.124236 109.045545,85.4324966 C109.045545,86.049018 109.045545,86.511409 109.354455,87.1279304 C109.817822,87.436191 110.126733,87.898582 110.435644,88.5151034 L110.281188,88.3609731 C110.89901,89.1316247 111.362376,89.9022764 111.825743,90.5187978 C112.134653,90.9811888 112.289109,91.5977101 112.443564,92.0601012 C113.370297,94.3720562 114.605941,96.992272 115.532673,99.304227 C115.687129,99.9207484 116.150495,100.53727 116.30495,101.153791 L116.30495,100.999661 C116.768317,102.386834 117.077228,103.465746 117.69505,104.852919 C123.873267,121.344865 127.889109,138.299202 130.051485,155.5618 L137.619802,146.005719 C140.708911,142.306591 143.489109,138.915724 146.114851,135.833117 L155.382178,125.506384 C150.285149,113.638348 143.334653,101.924443 134.839604,90.5187978 C133.912871,88.9774944 132.677228,87.5903214 131.59604,86.2031483 C107.50099,55.0688201 92.8277228,29.7914448 87.5762376,10.2168919 C87.4217822,10.0627616 87.4217822,10.0627616 87.4217822,9.90863123 L87.4217822,9.60037056 C87.1128713,8.98384921 86.9584158,8.21319752 86.9584158,7.13428516 C86.649505,5.74711212 86.4950495,5.13059077 86.3405941,4.97646043 C86.3405941,4.97646043 86.1861386,4.66819975 86.1861386,4.51406942 Z" id="Shape" stroke="#FFFFFF" stroke-width="2.5" fill="url(#linearGradient-2)"></path>
                    <path d="M82.6269294,77.6075292 C82.9351943,77.2989458 83.0893268,76.8360708 83.2434592,76.5274875 C83.3975917,76.5274875 83.2434592,76.2189042 83.0893268,75.9103208 C82.7810619,75.4474458 82.3186645,75.2931542 81.5480022,75.4474458 L81.7021346,75.4474458 L81.5480022,75.4474458 C80.0066776,75.7560292 77.8488232,76.6817792 75.074439,78.2246958 C74.7661741,78.5332792 74.3037767,78.8418625 73.9955118,78.9961542 C73.2248495,79.6133208 72.4541872,80.0761958 71.6835249,80.5390708 C71.5293924,80.6933625 71.37526,80.8476542 71.0669951,81.0019458 C71.0669951,81.3105292 70.9128626,81.4648208 70.9128626,81.9276958 C71.0669951,82.3905708 71.37526,82.8534458 71.2211275,83.4706125 C71.0669951,84.0877792 70.9128626,84.5506542 70.2963328,85.0135292 C70.1422003,85.1678208 69.9880679,85.1678208 69.8339354,85.3221125 C69.5256705,85.7849875 69.371538,86.2478625 68.7550082,86.8650292 C68.1384784,88.0993625 67.5219485,88.5622375 67.0595512,88.4079458 C67.0595512,88.5622375 67.0595512,88.8708208 67.0595512,89.0251125 C65.2099617,94.4253208 64.1310345,98.5911958 63.976902,101.368446 C63.5145047,103.837113 62.5897099,109.237321 61.3566502,117.260488 C59.8153257,125.283654 56.2702791,133.769696 50.7215107,143.027196 C45.1727422,152.130404 42.2442255,156.913446 41.9359606,157.684904 L42.0900931,157.839196 C42.2442255,157.839196 42.398358,157.684904 42.5524904,157.684904 C43.7855501,157.067738 44.4020799,156.913446 44.7103448,157.376321 C44.8644773,157.684904 44.8644773,157.839196 44.8644773,157.684904 L45.1727422,157.839196 C45.3268747,159.227821 44.8644773,160.770738 43.9396825,162.622238 L38.5450465,172.959779 C34.5376026,182.525862 34.5376026,189.314696 38.5450465,193.171987 L56.4244116,171.262571 C56.5785441,170.953988 56.7326765,170.799696 56.886809,170.799696 C55.4996169,164.782321 61.5107827,156.141988 74.4579091,144.570113 C76.4616311,164.165154 78.465353,177.588529 80.1608101,184.531654 C82.9351943,194.869196 84.7847838,204.280987 86.3261084,212.767029 L130.870389,157.530613 C128.712534,140.249946 124.70509,123.277863 118.539792,106.768654 C117.923262,105.380029 117.614997,104.299988 117.1526,102.911363 L117.1526,103.065654 C116.998467,102.448488 116.53607,101.831321 116.381938,101.214154 C115.457143,98.8997792 114.224083,96.2768208 113.299288,93.9624458 C113.145156,93.4995708 112.991023,92.8824042 112.682759,92.4195292 C112.220361,91.8023625 111.757964,91.0309042 111.141434,90.2594458 L111.295567,90.4137375 C110.987302,89.7965708 110.679037,89.3336958 110.216639,89.0251125 C109.908374,88.4079458 109.908374,87.9450708 109.908374,87.3279042 C109.908374,87.0193208 110.062507,86.8650292 110.062507,86.7107375 C109.908374,86.0935708 109.445977,85.6306958 109.291845,85.1678208 C108.98358,84.8592375 108.675315,84.5506542 108.521182,84.3963625 C107.596387,83.1620292 106.51746,82.2362792 105.592666,81.6191125 C101.739354,80.2304875 96.9612479,81.9276958 90.9500821,86.7107375 C90.0252874,87.4821958 89.1004926,88.2536542 88.0215654,89.1794042 C87.0967707,89.9508625 86.0178435,90.4137375 84.7847838,90.4137375 C83.3975917,90.2594458 82.4727969,89.7965708 81.5480022,89.0251125 C80.7773399,88.0993625 80.1608101,86.8650292 80.1608101,85.7849875 C80.1608101,83.1620292 80.9314724,80.5390708 82.6269294,77.6075292 Z" id="Shape" stroke="#F5A623" stroke-width="3" fill="#FFFFFF"></path>
                    <path d="M63.85,203.09439 C63.25,199.560244 62.35,196.026098 61.6,192.184634 L60.1,185.423659 C57.7,188.343171 52.6,194.028537 44.8,202.633415 C47.95,199.406585 47.65,200.02122 43.45,204.784634 L43.45,204.938293 L43.6,204.784634 C47.95,210.009024 46.6,218.152927 40,229.523659 C46.6,227.987073 51.7,226.757805 55.3,225.989512 L55.45,225.835854 C56.05,225.835854 56.5,225.682195 56.95,225.528537 L57.1,225.528537 L60.4,224.760244 L60.7,224.760244 C60.7,224.606585 60.7,224.606585 60.85,224.606585 C62.8,224.14561 64.6,223.684634 66.55,223.377317 L63.85,203.09439 Z" id="Shape" fill="#FFFFFF"></path>
                    <path d="M40.7001491,208.363649 L27.8481925,219.935308 C23.0480642,224.101106 18.093093,227.804037 13.1381218,231.19839 C12.0542219,231.969834 11.1251648,232.586989 10.1961077,233.049855 C10.8154791,234.901321 11.5896933,236.752786 12.2090647,238.604252 C12.2090647,238.604252 12.0542219,238.604252 11.899379,238.604252 C11.5896933,238.758541 11.2800076,239.067118 10.9703219,239.375696 C9.11220771,241.690028 7.40893636,243.850071 6.17019356,246.164403 C1.83459377,252.79882 -0.0235204329,259.741816 0.286165267,266.993389 C0.286165267,268.536277 0.595850967,270.079165 0.905536666,271.622053 C1.06037952,273.164941 1.52490807,274.707829 1.83459377,276.250716 C3.07333657,280.262225 4.77660791,284.119445 7.25409351,288.285242 L33.1128494,391.195864 C32.9580066,391.195864 32.6483209,391.195864 32.493478,391.195864 C32.0289495,391.041576 31.8741066,391.195864 31.7192638,391.195864 C31.4095781,391.350153 33.8870637,398.13886 35.2806493,397.830282 C36.674235,397.675994 37.7581349,397.367416 38.3775063,397.058838 C38.9968777,396.595972 39.4614063,396.287394 39.771092,395.824528 C40.0807777,395.207373 40.0807777,394.744507 39.9259348,393.973063 L13.1381218,286.433777 C13.1381218,286.279488 12.983279,285.97091 12.6735933,285.662333 C10.3509505,281.805113 8.64767916,278.256471 7.71862206,274.707829 C7.09925066,272.547786 6.63472211,270.542031 6.47987926,268.536277 C7.87346491,268.690566 10.1961077,266.684812 13.6026504,261.901859 C17.0091931,257.118907 20.5705786,253.878842 24.4416499,252.335954 C28.3127211,250.793066 31.8741066,250.793066 34.9709636,252.181665 C38.2226635,253.570264 42.4034204,254.341708 47.3583916,254.341708 C52.15852,254.341708 56.6489626,253.415976 60.5200339,251.410221 C62.2233052,250.3302 64.545948,249.250178 67.4879621,247.861579 L65.1653194,246.318691 C65.1653194,246.164403 65.3201622,245.855825 65.3201622,245.701536 C65.1653194,245.23867 65.3201622,244.930092 65.6298479,244.621515 L63.6168909,243.232915 C63.1523623,242.307183 63.1523623,241.535739 63.6168909,240.918584 C63.6168909,240.764295 63.6168909,240.610006 63.7717337,240.455717 C63.7717337,240.14714 64.0814194,239.992851 64.2362623,239.684273 C64.2362623,239.375696 64.3911051,239.067118 64.545948,238.758541 C64.8556337,238.141386 64.8556337,237.987097 65.0104765,237.832808 C65.0104765,237.678519 65.1653194,237.215653 65.3201622,236.907075 C66.8685907,233.049855 67.3331193,228.884058 66.558905,224.87255 C64.545948,225.026838 62.6878338,225.489705 60.6748767,225.952571 C60.5716482,225.952571 60.4684196,226.004001 60.365191,226.10686 L56.8038055,226.878304 C56.1844341,227.032593 55.7199055,227.186881 55.1005341,227.186881 C51.2294629,228.112614 45.964806,229.346925 39.1517206,230.889812 C45.964806,219.472442 47.3583916,211.295136 42.867949,206.049317 C42.0937347,206.820761 41.4743633,207.592205 40.7001491,208.363649 Z" id="Shape" stroke="#FFFFFF" stroke-width="2" fill="#FFCC00"></path>
                    <path d="M121.405594,209.899527 C121.554779,208.356091 122.002331,206.658311 122.300699,204.960531 C123.643357,196.780319 125.284382,188.445763 126.925408,180.419894 C125.284382,182.272017 123.792541,184.432828 122.002331,186.593639 L95.4475524,220.703581 C103.503496,220.086207 111.559441,219.931863 119.764569,220.24055 C120.062937,216.999334 120.659674,213.603774 121.405594,209.899527 Z" id="Shape" fill="#FFFFFF"></path>
                    <path d="M120.393103,220.362715 C112.048276,220.044848 103.855172,220.203782 95.662069,220.839514 L77.1517241,244.838418 C77.4551724,244.679485 77.7586207,244.679485 78.2137931,244.520552 C78.2137931,244.361619 78.3655172,244.361619 78.6689655,244.361619 C81.2482759,243.090154 84.2827586,241.977622 87.7724138,240.706156 C97.1793103,237.209627 107.344828,235.620296 118.268965,236.097095 C118.572414,231.805901 119.331034,226.561107 120.393103,220.362715 Z" id="Shape" fill="#FFCC00"></path>
                    <path d="M161.820769,143.504206 C154.690461,171.460728 135.236385,229.444908 145.408462,224.722657 C165.536154,215.377361 163.463615,137.066437 161.820769,143.504206 Z" id="Shape" fill="#FFCC00"></path>
                    <path d="M142.537717,291.130343 L149.660805,270.404629 C107.695169,262.892678 66.2964427,262.892678 29.9250765,278.694914 C29.7554791,278.694914 29.4162844,278.694914 29.4162844,278.694914 L33.8258155,295.9132 C42.1360856,292.724629 50.7855505,290.173771 59.4350153,288.260629 C86.4009939,281.883486 114.045362,286.028629 142.537717,291.130343 Z" id="Shape" stroke="#FFFFFF" stroke-width="2" fill="url(#linearGradient-3)"></path>
                    <path d="M122.662015,368.629677 L131.890341,330.895484 L139.816912,298.487742 C111.561788,293.687742 84.1475894,289.507097 57.4061322,295.700645 C48.8286836,297.55871 40.2512351,300.036129 32.0101571,303.132903 L53.7060563,387.210323 C65.3108397,376.526452 120.139236,357.016774 122.662015,368.629677 Z" id="Shape" stroke="#FFFFFF" stroke-width="2" fill="url(#linearGradient-4)"></path>
                </g>
            </g>
        </g>
    </g>
</svg>