<?xml version="1.0" encoding="UTF-8" standalone="no"?>
<svg width="147px" height="315px" viewBox="0 0 147 315" version="1.1" xmlns="http://www.w3.org/2000/svg" xmlns:xlink="http://www.w3.org/1999/xlink">
    <!-- Generator: Sketch 48.1 (47250) - http://www.bohemiancoding.com/sketch -->
    <title>(Solid)_golden-brush-icon</title>
    <desc>Created with Sketch.</desc>
    <defs>
        <filter x="-18.2%" y="-4.5%" width="125.6%" height="111.4%" filterUnits="objectBoundingBox" id="filter-1">
            <feOffset dx="-7" dy="4" in="SourceAlpha" result="shadowOffsetOuter1"></feOffset>
            <feGaussianBlur stdDeviation="4" in="shadowOffsetOuter1" result="shadowBlurOuter1"></feGaussianBlur>
            <feColorMatrix values="0 0 0 0 0.0712884594   0 0 0 0 0.0533955598   0 0 0 0 0.244711947  0 0 0 0.5 0" type="matrix" in="shadowBlurOuter1" result="shadowMatrixOuter1"></feColorMatrix>
            <feMerge>
                <feMergeNode in="shadowMatrixOuter1"></feMergeNode>
                <feMergeNode in="SourceGraphic"></feMergeNode>
            </feMerge>
        </filter>
        <linearGradient x1="0.25781251%" y1="49.7500002%" x2="101.257813%" y2="49.7500002%" id="linearGradient-2">
            <stop stop-color="#3023AE" offset="0%"></stop>
            <stop stop-color="#53A0FD" offset="100%"></stop>
        </linearGradient>
        <linearGradient x1="50%" y1="27.6508309%" x2="50%" y2="100%" id="linearGradient-3">
            <stop stop-color="#FAD961" offset="0%"></stop>
            <stop stop-color="#F76B1C" offset="100%"></stop>
        </linearGradient>
        <linearGradient x1="50%" y1="0%" x2="50%" y2="100%" id="linearGradient-4">
            <stop stop-color="#FBD249" offset="0%"></stop>
            <stop stop-color="#F5A623" offset="100%"></stop>
        </linearGradient>
        <linearGradient x1="50%" y1="0%" x2="50%" y2="71.7270265%" id="linearGradient-5">
            <stop stop-color="#FAD961" offset="0%"></stop>
            <stop stop-color="#F76B1C" offset="100%"></stop>
        </linearGradient>
    </defs>
    <g id="MF-Branding-Homepage(High-Res)" stroke="none" stroke-width="1" fill="none" fill-rule="evenodd">
        <g transform="translate(-427.000000, -5227.000000)" id="Content-Block-6">
            <g transform="translate(380.000000, 3952.000000)">
                <g id="(Solid)_golden-brush-icon" filter="url(#filter-1)" transform="translate(63.000000, 1280.000000)">
                    <path d="M127.747765,190.568319 C128.593396,193.341597 128.936228,196.181343 128.812116,199.087556 C128.812116,200.238033 128.581194,201.38851 128.350272,202.538987 C128.234812,203.689464 127.888429,204.839941 127.657507,205.990419 C126.73382,208.981659 125.463751,211.857852 123.616377,214.96414 L104.334415,291.700962 C104.449875,291.700962 104.680797,291.700962 104.796258,291.700962 C105.142641,291.585915 105.258101,291.700962 105.373562,291.700962 C105.604484,291.81601 103.75711,296.878109 102.717963,296.648014 C101.678815,296.532967 100.870589,296.302871 100.408746,296.072775 C99.9469019,295.727632 99.6005197,295.497537 99.3695978,295.152394 C99.1386758,294.692203 99.1386758,294.34706 99.2541368,293.771822 L119.228864,213.583567 C119.228864,213.46852 119.344325,213.238424 119.575247,213.008329 C121.30716,210.132136 122.577229,207.486039 123.269994,204.839941 C123.731838,203.229274 124.07822,201.733653 124.193681,200.238033 C123.154534,200.353081 121.422621,198.857461 118.882482,195.290982 C116.342343,191.724503 113.686743,189.308501 110.800222,188.158024 C107.913701,187.007546 105.258101,187.007546 102.948884,188.042976 C100.524207,189.078405 97.4067636,189.653644 93.7120157,189.653644 C90.1327295,189.653644 86.7843645,188.963358 83.8978433,187.467737 C82.6277742,186.662403 80.8958612,185.857069 78.7021051,184.82164 L80.4340181,183.671163 C80.4340181,183.556115 80.3185571,183.32602 80.3185571,183.210972 C80.4340181,182.865829 80.3185571,182.635733 80.0876352,182.405638 L81.5886263,181.370209 C81.9350092,180.679922 81.9350092,180.104684 81.5886263,179.644493 C81.5886263,179.529445 81.5886263,179.414398 81.4731653,179.29935 C81.4731653,179.069254 81.2422441,178.954207 81.1267832,178.724111 C81.1267832,178.494016 81.0113222,178.263921 80.8958612,178.033825 C80.6649393,177.573634 80.6649393,177.458587 80.5494791,177.343539 C80.5494791,177.228491 80.4340181,176.883348 80.3185571,176.653253 C79.1639482,173.77706 78.8175661,170.670772 79.3948702,167.679531 C80.8958612,167.794579 82.2813913,168.139722 83.7823824,168.484865 C83.8593566,168.484865 83.9363301,168.523214 84.0133043,168.599913 L86.6689043,169.175151 C87.1307474,169.290199 87.4771303,169.405247 87.9389734,169.405247 C90.8254945,170.095533 94.7511636,167.564483 99.8314409,168.714961 C101.493409,168.64596 103.466872,168.411423 105.515188,168.185094 C106.012293,163.815407 107.191791,156.965995 108.942897,147.636857 C111.439382,134.571896 113.460347,125.288897 115.124671,119.787861 C116.788994,114.630639 118.691078,110.046443 120.949803,106.03527 C94.40625,68.4609375 129.644531,112.805664 125.467253,124.745117 C129.634766,121.924805 130.894531,151.333984 121.187564,167.692718 C121.306444,167.807323 121.544205,167.921928 121.663085,168.151138 C123.565169,170.901656 124.991732,173.766779 126.061655,176.517297 C125.823894,178.46558 125.467253,180.528469 125.467253,182.591357 C125.467253,182.705962 125.467253,182.935172 125.467253,183.164382 C126.061655,182.935172 126.893817,182.705962 127.607098,182.362147 C127.844859,183.966617 128.082619,185.571086 128.082619,187.404764 L127.747765,190.568319 Z" id="Combined-Shape" stroke="#FFFFFF" stroke-width="2" fill="#FFCC00" fill-rule="nonzero"></path>
                    <path d="M32.1845703,126.008789 C6.16004215,143.632548 -1.54327318,160.118637 9.07462433,175.467054 C25.0014706,198.489679 50.1535889,179.514912 61.5068359,175.467054 C69.0756673,172.768481 76.2654459,172.374515 83.0761719,174.285156 L106.157944,172.845759 L122.62084,109.330266 C116.999195,96.0252504 111.511564,85.8975859 106.157944,78.9472728 C100.804325,71.9969598 76.1465333,87.6841319 32.1845703,126.008789 Z" id="M" stroke="#FFFFFF" stroke-width="2" fill="url(#linearGradient-2)"></path>
                    <path d="M64.2659646,3.3659824 C64.2659646,3.13612328 64.0356207,2.56147549 63.6901047,1.75696858 C63.2294168,0.83753212 62.9990728,0.377813887 62.6535569,0.262884329 C62.3080409,0.0330252129 62.192869,0.0330252129 62.3080409,0.262884329 C62.3080409,0.377813887 62.192869,0.607673004 61.962525,1.06739123 C61.8473531,1.41217991 61.7321811,1.9868277 61.5018371,2.56147549 C61.3866652,3.02119372 61.3866652,3.48091195 61.1563212,4.05555974 C60.9259772,4.86006666 60.6956333,5.77950312 60.4652893,6.81386914 C57.2404738,19.4561205 48.6025754,35.3163996 34.6667659,54.5096357 C32.3633263,57.6127338 29.8295427,60.945691 27.2957592,64.2786482 C24.7619756,67.4966758 22.343364,70.7147034 20.2702684,74.1625902 C20.0399244,74.1625902 19.6944085,74.6223086 18.8882047,75.5417446 C18.0820008,76.6910406 17.6213129,77.6104765 17.7364849,77.955266 C11.8627139,87.6093486 6.33445888,103.469627 1.38206376,125.765962 C1.26689178,126.11075 1.03654782,126.570468 1.03654782,127.030187 L0.921375834,127.374976 L0.921375834,127.489905 C-0.11517198,138.753002 0.921375834,150.475817 3.80067533,162.198632 C4.49170721,161.853843 5.29791107,161.394125 5.98894294,160.934406 C6.91031878,160.359759 7.83169462,159.785111 8.86824243,159.210463 C11.7475419,157.25666 14.5116694,155.187928 17.160625,153.004267 L24.6468036,146.223423 L27.9867911,142.545677 C24.9923196,139.672438 24.9923196,134.615538 27.9867911,127.489905 L32.0178104,119.789624 C32.7088422,118.41047 33.0543582,117.261174 32.9391862,116.226808 L32.7088422,116.111879 C32.7088422,116.226808 32.7088422,116.111879 32.5936702,115.88202 C32.3633263,115.537231 31.9026383,115.65216 30.9812626,116.111879 C30.8660905,116.111879 30.7509186,116.226808 30.6357466,116.226808 L30.5205746,116.111879 C30.7509186,115.537231 32.9391862,111.974414 37.0853775,105.193571 C41.2315687,98.2977972 43.8805243,91.9766719 45.032244,86.0003346 C45.9536199,80.0239979 46.6446517,76.0014633 46.9901677,74.1625902 C47.1053396,72.0938581 47.9115435,68.9907601 49.2936073,64.9682256 C49.2936073,64.853296 49.2936073,64.6234368 49.2936073,64.5085073 C49.6391232,64.6234368 50.0998111,64.2786482 50.5604991,63.3592117 C51.021187,62.8994935 51.1363589,62.5547048 51.3667029,62.2099162 C51.4818749,62.0949866 51.5970469,62.0949866 51.7122188,61.980057 C52.1729067,61.6352684 52.2880788,61.2904797 52.4032507,60.8307614 C52.5184227,60.3710432 52.2880788,60.0262545 52.1729067,59.6814658 C52.1729067,59.3366772 52.2880788,59.2217476 52.2880788,58.9918885 C52.5184227,58.876959 52.6335947,58.7620294 52.7487667,58.6470998 C53.3246266,58.3023112 53.9004865,57.9575225 54.4763463,57.4978042 C54.7066903,57.3828747 55.0522063,57.1530156 55.2825502,56.9231564 C57.3556459,55.7738609 58.9680536,55.0842835 60.1197734,54.8544245 L60.2349453,54.8544245 L60.1197734,54.8544245 C60.6956333,54.7394948 61.0411492,54.8544245 61.2714931,55.1992131 C61.3866652,55.4290722 61.5018371,55.6589313 61.3866652,55.6589313 C61.2714931,55.8887904 61.1563212,56.2335791 60.9259772,56.4634382 C59.6590855,58.6470998 59.0832256,60.6009023 59.0832256,62.5547048 C59.0832256,63.3592117 59.5439134,64.2786482 60.1197734,64.9682256 C60.8108052,65.5428733 61.5018371,65.887662 62.5383849,66.0025916 C63.4597608,66.0025916 64.2659646,65.6578029 64.9569965,65.0831551 C65.7632004,64.3935778 66.4542323,63.81893 67.1452642,63.2442822 C71.6369713,59.6814658 75.2073027,58.4172407 78.0866021,59.4516068 C78.7776342,59.911325 79.583838,60.6009023 80.2748701,61.5203388 C80.3900418,61.6352684 80.6203858,61.8651274 80.8507299,62.0949866 C80.9659015,62.4397752 81.3114179,62.7845639 81.4265896,63.2442822 C81.4265896,63.3592117 81.3114179,63.4741413 81.3114179,63.7040004 C81.3114179,64.1637186 81.3114179,64.5085073 81.5417612,64.9682256 C81.8872777,65.1980846 82.1176217,65.5428733 82.3479658,66.0025916 L82.2327934,65.887662 C82.6934814,66.4623097 83.0389971,67.0369575 83.3845136,67.4966758 C83.6148569,67.8414645 83.7300293,68.3011827 83.8452009,68.6459714 C84.536233,70.3699147 85.4576092,72.3237173 86.1486406,74.0476606 C86.263813,74.5073789 86.6093286,74.9670973 86.7245003,75.4268153 L86.7245003,75.3118859 C87.0700167,76.3462519 87.3003608,77.1507586 87.7610488,78.1851246 C92.3679274,90.4825872 95.3623992,103.124838 96.9748067,115.996949 L102.618234,108.871316 C104.921674,106.113007 106.994769,103.584557 108.952692,101.285966 L115.863011,93.5856852 C112.062337,84.7361092 106.879597,76.0014633 100.545138,67.4966758 C99.8541061,66.3473802 98.9327307,65.3130142 98.1265269,64.2786482 C80.1596977,41.0628774 69.2183598,22.2144299 65.3025124,7.61837604 C65.1873405,7.50344651 65.1873405,7.50344651 65.1873405,7.38851693 L65.1873405,7.15865782 C64.9569965,6.69893958 64.8418245,6.12429179 64.8418245,5.31978489 C64.6114806,4.28541886 64.4963086,3.82570063 64.3811366,3.71077107 C64.3811366,3.71077107 64.2659646,3.48091195 64.2659646,3.3659824 Z" id="Shape" stroke="#FFFFFF" stroke-width="2.5" fill="url(#linearGradient-3)" fill-rule="nonzero"></path>
                    <path d="M61.6119878,57.8691981 C61.8418501,57.6390983 61.9567813,57.2939488 62.0717124,57.0638491 C62.1866435,57.0638491 62.0717124,56.8337494 61.9567813,56.6036496 C61.726919,56.2585001 61.3821256,56.1434502 60.8074698,56.2585001 L60.9224009,56.2585001 L60.8074698,56.2585001 C59.6581584,56.4885998 58.0491225,57.1788989 55.980362,58.3293975 C55.7504998,58.5594972 55.4057063,58.7895969 55.1758441,58.9046468 C54.6011884,59.3648462 54.0265327,59.7099957 53.4518769,60.0551453 C53.3369458,60.1701952 53.2220147,60.285245 52.9921524,60.4002949 C52.9921524,60.6303946 52.8772212,60.7454444 52.8772212,61.090594 C52.9921524,61.4357436 53.2220147,61.7808931 53.1070835,62.2410926 C52.9921524,62.701292 52.8772212,63.0464415 52.4174967,63.3915911 C52.3025655,63.5066409 52.1876344,63.5066409 52.0727033,63.6216908 C51.842841,63.9668404 51.7279098,64.31199 51.2681853,64.7721894 C50.8084608,65.6925882 50.3487362,66.0377378 50.0039428,65.9226879 C50.0039428,66.0377378 50.0039428,66.2678375 50.0039428,66.3828874 C48.6247691,70.4096323 47.8202512,73.5159784 47.70532,75.5868758 C47.3605266,77.4276735 46.6709398,81.4544184 45.7514906,87.4370109 C44.6021793,93.4196034 41.958763,99.7473454 37.8212421,106.650337 C33.6837211,113.438278 31.5000294,117.004824 31.2701671,117.580073 L31.3850983,117.695123 C31.5000294,117.695123 31.6149606,117.580073 31.7298917,117.580073 C32.6493408,117.119874 33.1090654,117.004824 33.3389276,117.349973 C33.4538588,117.580073 33.4538588,117.695123 33.4538588,117.580073 L33.6837211,117.695123 C33.7986522,118.730572 33.4538588,119.88107 32.764272,121.261668 L28.7416821,128.970009 C25.7534725,136.103099 25.7534725,141.165294 28.7416821,144.041539 L42.0736942,127.70446 C42.1886254,127.474361 42.3035565,127.359311 42.4184876,127.359311 C41.3841074,122.872366 45.8664218,116.429574 55.5206374,107.800835 C57.0147423,122.412167 58.508847,132.421504 59.7730896,137.598748 C61.8418501,145.307088 63.2210238,152.325129 64.3703352,158.652871 L97.5854343,117.465023 C95.9763983,104.579439 92.9881887,91.9239553 88.3909432,79.6136208 C87.9312186,78.5781721 87.7013564,77.772823 87.3565629,76.7373743 L87.3565629,76.8524242 C87.2416318,76.3922248 86.8968384,75.9320253 86.7819072,75.471826 C86.0923204,73.7460781 85.1728713,71.7902305 84.4832845,70.0644827 C84.3683533,69.7193331 84.2534221,69.2591338 84.0235599,68.9139842 C83.6787664,68.4537848 83.3339731,67.8785355 82.8742485,67.3032862 L82.9891796,67.4183361 C82.7593174,66.9581366 82.5294551,66.612987 82.1846617,66.3828874 C81.9547994,65.9226879 81.9547994,65.5775383 81.9547994,65.117339 C81.9547994,64.8872392 82.0697305,64.7721894 82.0697305,64.6571395 C81.9547994,64.1969401 81.610006,63.8517905 81.4950749,63.5066409 C81.2652125,63.2765413 81.0353503,63.0464415 80.9204192,62.9313917 C80.2308323,62.0109928 79.4263143,61.3206937 78.7367275,60.8604943 C75.863449,59.8250456 72.3005837,61.090594 67.8182693,64.6571395 C67.1286825,65.2323888 66.4390956,65.8076381 65.6345777,66.4979372 C64.9449909,67.0731865 64.1404729,67.4183361 63.2210238,67.4183361 C62.1866435,67.3032862 61.4970566,66.9581366 60.8074698,66.3828874 C60.2328141,65.6925882 59.7730896,64.7721894 59.7730896,63.9668404 C59.7730896,62.0109928 60.3477453,60.0551453 61.6119878,57.8691981 Z" id="Shape" stroke="#F5A623" stroke-width="3" fill="#FFFFFF" fill-rule="nonzero"></path>
                    <path d="M47.6106936,151.440326 C47.1632948,148.805037 46.4921965,146.169749 45.932948,143.305305 L44.8144509,138.263884 C43.0248555,140.440861 39.2219653,144.680238 33.4057803,151.096592 C35.7546243,148.69046 35.5309249,149.148771 32.3991329,152.700681 L32.3991329,152.815259 L32.5109827,152.700681 C35.7546243,156.596325 34.7479769,162.668945 29.8265896,171.147699 C34.7479769,170.001922 38.5508671,169.0853 41.2352601,168.512411 L41.3471098,168.397833 C41.7945087,168.397833 42.1300578,168.283255 42.4656069,168.168678 L42.5774566,168.168678 L45.0381503,167.595789 L45.2618497,167.595789 C45.2618497,167.481211 45.2618497,167.481211 45.3736994,167.481211 C46.8277457,167.137478 48.1699422,166.793745 49.6239884,166.564589 L47.6106936,151.440326 Z" id="Shape" fill="#FFFFFF" fill-rule="nonzero"></path>
                    <path d="M30.3486661,155.369426 L20.7654152,163.998004 C17.1861288,167.104293 13.4913815,169.865438 9.79663417,172.396487 C8.98840824,172.971726 8.29564312,173.431917 7.602878,173.77706 C8.06472141,175.157632 8.64202564,176.538205 9.10386905,177.918777 C9.10386905,177.918777 8.98840824,177.918777 8.87294735,177.918777 C8.64202564,178.033825 8.41110393,178.263921 8.18018223,178.494016 C6.79465199,180.219732 5.5245826,181.8304 4.60089578,183.556115 C1.36799189,188.503167 -0.0175383575,193.680314 0.213383349,199.087556 C0.213383349,200.238033 0.444305056,201.38851 0.675226763,202.538987 C0.790687619,203.689464 1.13707018,204.839941 1.36799189,205.990419 C2.29167871,208.981659 3.56174809,211.857852 5.40912175,214.96414 L24.6910842,291.700962 C24.5756234,291.700962 24.3447017,291.700962 24.2292408,291.700962 C23.8828583,291.585915 23.7673974,291.700962 23.6519366,291.700962 C23.4210149,291.81601 25.2683885,296.878109 26.3075362,296.648014 C27.3466839,296.532967 28.1549098,296.302871 28.6167533,296.072775 C29.0785967,295.727632 29.4249793,295.497537 29.655901,295.152394 C29.8868227,294.692203 29.8868227,294.34706 29.7713618,293.771822 L9.79663417,213.583567 C9.79663417,213.46852 9.68117336,213.238424 9.45025165,213.008329 C7.71833881,210.132136 6.44826943,207.486039 5.75550431,204.839941 C5.2936609,203.229274 4.94727834,201.733653 4.83181748,200.238033 C5.87096516,200.353081 7.602878,198.857461 10.1430168,195.290982 C12.6831555,191.724503 15.3387551,189.308501 18.2252765,188.158024 C21.1117978,187.007546 23.7673974,187.007546 26.0766145,188.042976 C28.5012924,189.078405 31.6187354,189.653644 35.3134828,189.653644 C38.8927692,189.653644 42.241134,188.963358 45.1276553,187.467737 C46.3977247,186.662403 48.1296375,185.857069 50.3233937,184.82164 L48.5914809,183.671163 C48.5914809,183.556115 48.7069418,183.32602 48.7069418,183.210972 C48.5914809,182.865829 48.7069418,182.635733 48.9378635,182.405638 L47.4368724,181.370209 C47.0904898,180.679922 47.0904898,180.104684 47.4368724,179.644493 C47.4368724,179.529445 47.4368724,179.414398 47.5523332,179.29935 C47.5523332,179.069254 47.7832549,178.954207 47.8987158,178.724111 C47.8987158,178.494016 48.0141766,178.263921 48.1296375,178.033825 C48.3605592,177.573634 48.3605592,177.458587 48.47602,177.343539 C48.47602,177.228491 48.5914809,176.883348 48.7069418,176.653253 C49.8615503,173.77706 50.2079329,170.670772 49.6306286,167.679531 C48.1296375,167.794579 46.7441073,168.139722 45.2431162,168.484865 C45.1661423,168.484865 45.0891684,168.523214 45.0121944,168.599913 L42.3565949,169.175151 C41.8947514,169.290199 41.5483688,169.405247 41.0865254,169.405247 C38.2000041,170.095533 34.2743351,171.015915 29.1940576,172.166392 C34.2743351,163.652861 35.3134828,157.555333 31.965118,153.643711 C31.3878137,154.218949 30.9259703,154.794188 30.3486661,155.369426 Z" id="Shape" stroke="#FFFFFF" stroke-width="2" fill="#FFCC00" fill-rule="nonzero"></path>
                    <path d="M90.527871,156.514676 C90.6391124,155.36379 90.9728364,154.097816 91.1953191,152.831841 C92.1964913,146.732145 93.4201463,140.517361 94.6438013,134.532753 C93.4201463,135.913816 92.3077327,137.525057 90.9728364,139.136297 L71.1718744,164.570878 C77.1789078,164.110524 83.1859413,163.995435 89.304216,164.225613 C89.5266988,161.808752 89.9716642,159.276803 90.527871,156.514676 Z" id="Shape" fill="#FFFFFF" fill-rule="nonzero"></path>
                    <path d="M89.7728921,164.316706 C83.5504485,164.079685 77.4411401,164.198195 71.3318318,164.672239 L57.5293203,182.567375 C57.755591,182.448864 57.9818617,182.448864 58.3212677,182.330354 C58.3212677,182.211843 58.434403,182.211843 58.6606737,182.211843 C60.5839745,181.263756 62.8466813,180.43418 65.4487941,179.486094 C72.4631851,176.878855 80.043253,175.693747 88.1889974,176.049279 C88.4152681,172.849487 88.9809448,168.938629 89.7728921,164.316706 Z" id="Shape" fill="#FFCC00" fill-rule="nonzero"></path>
                    <path d="M120.664042,107.006026 C115.347223,127.852219 100.841004,171.088978 108.425963,167.567761 C123.434473,160.599304 121.889054,102.205609 120.664042,107.006026 Z" id="Shape" fill="#FFCC00" fill-rule="nonzero"></path>
                    <path d="M106.28535,217.085631 L111.596785,201.631197 C80.3044903,196.0298 49.4349197,196.0298 22.3140743,207.812971 C22.1876116,207.812971 21.9346861,207.812971 21.9346861,207.812971 L25.2227179,220.652039 C31.4193933,218.274434 37.8689943,216.37235 44.3185952,214.945787 C64.4261746,210.190576 85.0396051,213.281463 106.28535,217.085631 Z" id="Shape" stroke="#FFFFFF" stroke-width="2" fill="url(#linearGradient-4)" fill-rule="nonzero"></path>
                    <path d="M91.4647397,274.874153 L98.3459766,246.737095 L104.256541,222.571784 C83.1876913,218.992594 62.7458904,215.875234 42.8057286,220.493545 C36.4098277,221.879038 30.0139268,223.726362 23.8688455,226.035517 L40.0467125,288.729084 C48.6999903,280.762499 89.5835923,266.21482 91.4647397,274.874153 Z" id="Shape" stroke="#FFFFFF" stroke-width="2" fill="url(#linearGradient-5)" fill-rule="nonzero"></path>
                </g>
            </g>
        </g>
    </g>
</svg>