<?xml version="1.0" encoding="UTF-8"?>
<svg width="1440px" height="511px" viewBox="0 0 1440 511" version="1.1" xmlns="http://www.w3.org/2000/svg" xmlns:xlink="http://www.w3.org/1999/xlink">
    <!-- Generator: Sketch 51.2 (57519) - http://www.bohemiancoding.com/sketch -->
    <title>portfolio-component-bg2</title>
    <desc>Created with Sketch.</desc>
    <defs>
        <linearGradient x1="50%" y1="3.75265922%" x2="50%" y2="30.4472618%" id="linearGradient-1">
            <stop stop-color="#FFF6CA" offset="0%"></stop>
            <stop stop-color="#FFFDF4" offset="100%"></stop>
        </linearGradient>
        <linearGradient x1="50%" y1="4.07211684%" x2="50%" y2="54.844057%" id="linearGradient-2">
            <stop stop-color="#FFF6CA" offset="0%"></stop>
            <stop stop-color="#FFFDF4" offset="100%"></stop>
        </linearGradient>
    </defs>
    <g id="MF-Branding---Homepage-(High-Res)" stroke="none" stroke-width="1" fill="none" fill-rule="evenodd">
        <g id="Desktop-HD" transform="translate(0.000000, -2598.000000)" fill-rule="nonzero">
            <g id="portfolio-component-bg2" transform="translate(0.000000, 2598.000000)">
                <g id="background-shadow" transform="translate(722.500000, 255.500000) scale(-1, 1) translate(-722.500000, -255.500000) ">
                    <path d="M0,422.671989 L1444.54813,422.671989 L1444.54813,487.815652 C1413.84505,490.138765 1376.28759,480.279544 1331.87575,458.23799 C1304.14465,451.739413 1250.56851,454.109311 1232.81551,450.242328 C1216.40536,447.617783 1230.86422,450.474352 1223.29565,451.90266 C1219.63152,452.59414 1184.85813,452.59414 1186.85951,451.90266 C1192.91998,449.808767 1195.2626,446.861916 1160.29694,451.90266 C1162.36037,450.004023 1156.87363,447.617783 1126.9971,447.617783 C1123.65624,442.817235 1115.72005,442.817235 1096.70157,441.53906 C1089.6899,450.816972 1064.43208,451.90266 1017.02094,450.242328 C999.24973,450.816972 814.148129,440.695354 842.232771,447.617783 C781.169391,453.626278 644.180582,473.219804 558.55497,458.768695 C549.008106,457.157463 576.520401,447.547137 531.63717,458.768695 C496.125096,459.732151 510.822154,451.773039 499.360087,453.746735 C487.898021,455.720431 496.125096,461.463886 481.127602,463.610829 C466.130109,465.757772 486.334329,460.666299 457.555561,459.732151 C373.60289,472.3032 409.998758,475.199348 383.519472,481.450117 C383.519472,487.956223 344.836152,499.309544 317.038281,497.35214 C289.240409,495.394736 309.301602,495.394736 315.238694,492.546674 C304.891881,493.904138 263.019226,483.714674 243.980595,492.01267 C213.172588,505.440354 148.314953,514.548267 119.530812,509.09648 C112.457624,507.756801 134.101099,506.320093 117.433973,505.224404 C108.131538,504.612867 94.6038379,501.601784 80.2303093,499.519221 C66.1744782,497.482689 70.1838654,504.292666 54.1131644,505.440354 C50.6905324,505.684781 59.8731324,500.986448 54.1131644,500.820547 C51.1620765,500.735548 39.7605693,502.833285 39.0580613,502.833285 C38.3555532,502.833285 43.2644768,495.273703 34.5149425,494.946496 C31.8368611,494.846344 22.875036,497.881846 15.503793,499.684077 C11.9854728,500.544289 6.81754184,500.923112 0,500.820547 L0,422.671989 Z" id="Bottom-Section-Block" fill="#F7EEC2" transform="translate(722.274066, 466.687190) scale(-1, 1) translate(-722.274066, -466.687190) "></path>
                    <path d="M0,0.363577769 L1444.54813,0.363577769 L1444.54813,65.5072403 C1413.84505,67.8303535 1376.28759,57.9711331 1331.87575,35.9295789 C1304.14465,29.4310022 1250.56851,31.8008994 1232.81551,27.9339173 C1216.40536,25.3093721 1230.86422,28.1659404 1223.29565,29.594249 C1219.63152,30.285729 1184.85813,30.285729 1186.85951,29.594249 C1192.91998,27.5003553 1195.2626,24.553505 1160.29694,29.594249 C1162.36037,27.6956118 1156.87363,25.3093721 1126.9971,25.3093721 C1123.65624,20.5088233 1115.72005,20.5088233 1096.70157,19.2306491 C1089.6899,28.508561 1064.43208,29.594249 1017.02094,27.9339173 C999.24973,28.508561 814.148129,18.3869425 842.232771,25.3093721 C781.169391,31.3178664 644.180582,50.9113932 558.55497,36.4602838 C549.008106,34.8490513 576.520401,25.2387258 531.63717,36.4602838 C496.125096,37.4237398 510.822154,29.4646281 499.360087,31.4383241 C487.898021,33.4120201 496.125096,39.1554753 481.127602,41.3024179 C466.130109,43.4493605 486.334329,38.3578882 457.555561,37.4237398 C373.60289,49.9947888 409.998758,52.8909371 383.519472,59.1417053 C383.519472,65.6478115 344.836152,77.0011331 317.038281,75.0437292 C289.240409,73.0863252 309.301602,73.0863252 315.238694,70.2382626 C304.891881,71.5957268 263.019226,61.4062623 243.980595,69.7042586 C213.172588,83.131943 148.314953,92.2398555 119.530812,86.7880687 C112.457624,85.4483896 134.101099,84.0116813 117.433973,82.9159931 C108.131538,82.3044558 94.6038379,79.2933727 80.2303093,77.2108097 C66.1744782,75.1742774 70.1838654,81.9842543 54.1131644,83.131943 C50.6905324,83.3763702 59.8731324,78.6780371 54.1131644,78.5121354 C51.1620765,78.4271366 39.7605693,80.5248735 39.0580613,80.5248735 C38.3555532,80.5248735 43.2644768,72.9652915 34.5149425,72.6380853 C31.8368611,72.5379331 22.875036,75.5734351 15.503793,77.3756662 C11.9854728,78.2358774 6.81754184,78.6147005 0,78.5121354 L0,0.363577769 Z" id="Top-Section-Block" fill="#F6EBB7" transform="translate(722.274066, 44.378779) scale(1, -1) translate(-722.274066, -44.378779) "></path>
                    <rect id="Rectangle" fill="url(#linearGradient-1)" x="0" y="85.2803738" width="1445" height="347.261682"></rect>
                </g>
                <g id="background" transform="translate(722.500000, 257.887850) scale(-1, 1) translate(-722.500000, -257.887850) translate(0.000000, 7.504673)">
                    <path d="M0,412.438344 L1444.54813,412.438344 L1444.54813,477.582007 C1413.84505,479.90512 1376.28759,470.045899 1331.87575,448.004345 C1304.14465,441.505769 1250.56851,443.875666 1232.81551,440.008684 C1216.40536,437.384138 1230.86422,440.240707 1223.29565,441.669015 C1219.63152,442.360495 1184.85813,442.360495 1186.85951,441.669015 C1192.91998,439.575122 1195.2626,436.628271 1160.29694,441.669015 C1162.36037,439.770378 1156.87363,437.384138 1126.9971,437.384138 C1123.65624,432.58359 1115.72005,432.58359 1096.70157,431.305415 C1089.6899,440.583327 1064.43208,441.669015 1017.02094,440.008684 C999.24973,440.583327 814.148129,430.461709 842.232771,437.384138 C781.169391,443.392633 644.180582,462.98616 558.55497,448.53505 C549.008106,446.923818 576.520401,437.313492 531.63717,448.53505 C496.125096,449.498506 510.822154,441.539394 499.360087,443.51309 C487.898021,445.486786 496.125096,451.230242 481.127602,453.377184 C466.130109,455.524127 486.334329,450.432655 457.555561,449.498506 C373.60289,462.069555 409.998758,464.965703 383.519472,471.216472 C383.519472,477.722578 344.836152,489.075899 317.038281,487.118496 C289.240409,485.161092 309.301602,485.161092 315.238694,482.313029 C304.891881,483.670493 263.019226,473.481029 243.980595,481.779025 C213.172588,495.206709 148.314953,504.314622 119.530812,498.862835 C112.457624,497.523156 134.101099,496.086448 117.433973,494.990759 C108.131538,494.379222 94.6038379,491.368139 80.2303093,489.285576 C66.1744782,487.249044 70.1838654,494.059021 54.1131644,495.206709 C50.6905324,495.451137 59.8731324,490.752803 54.1131644,490.586902 C51.1620765,490.501903 39.7605693,492.59964 39.0580613,492.59964 C38.3555532,492.59964 43.2644768,485.040058 34.5149425,484.712852 C31.8368611,484.612699 22.875036,487.648201 15.503793,489.450433 C11.9854728,490.310644 6.81754184,490.689467 0,490.586902 L0,412.438344 Z" id="Bottom-Section-Block" fill="#FFFDF4" transform="translate(722.274066, 456.453546) scale(-1, 1) translate(-722.274066, -456.453546) "></path>
                    <path d="M0,0.363577769 L1444.54813,0.363577769 L1444.54813,65.5072403 C1413.84505,67.8303535 1376.28759,57.9711331 1331.87575,35.9295789 C1304.14465,29.4310022 1250.56851,31.8008994 1232.81551,27.9339173 C1216.40536,25.3093721 1230.86422,28.1659404 1223.29565,29.594249 C1219.63152,30.285729 1184.85813,30.285729 1186.85951,29.594249 C1192.91998,27.5003553 1195.2626,24.553505 1160.29694,29.594249 C1162.36037,27.6956118 1156.87363,25.3093721 1126.9971,25.3093721 C1123.65624,20.5088233 1115.72005,20.5088233 1096.70157,19.2306491 C1089.6899,28.508561 1064.43208,29.594249 1017.02094,27.9339173 C999.24973,28.508561 814.148129,18.3869425 842.232771,25.3093721 C781.169391,31.3178664 644.180582,50.9113932 558.55497,36.4602838 C549.008106,34.8490513 576.520401,25.2387258 531.63717,36.4602838 C496.125096,37.4237398 510.822154,29.4646281 499.360087,31.4383241 C487.898021,33.4120201 496.125096,39.1554753 481.127602,41.3024179 C466.130109,43.4493605 486.334329,38.3578882 457.555561,37.4237398 C373.60289,49.9947888 409.998758,52.8909371 383.519472,59.1417053 C383.519472,65.6478115 344.836152,77.0011331 317.038281,75.0437292 C289.240409,73.0863252 309.301602,73.0863252 315.238694,70.2382626 C304.891881,71.5957268 263.019226,61.4062623 243.980595,69.7042586 C213.172588,83.131943 148.314953,92.2398555 119.530812,86.7880687 C112.457624,85.4483896 134.101099,84.0116813 117.433973,82.9159931 C108.131538,82.3044558 94.6038379,79.2933727 80.2303093,77.2108097 C66.1744782,75.1742774 70.1838654,81.9842543 54.1131644,83.131943 C50.6905324,83.3763702 59.8731324,78.6780371 54.1131644,78.5121354 C51.1620765,78.4271366 39.7605693,80.5248735 39.0580613,80.5248735 C38.3555532,80.5248735 43.2644768,72.9652915 34.5149425,72.6380853 C31.8368611,72.5379331 22.875036,75.5734351 15.503793,77.3756662 C11.9854728,78.2358774 6.81754184,78.6147005 0,78.5121354 L0,0.363577769 Z" id="Top-Section-Block" fill="#FFF6CA" transform="translate(722.274066, 44.378779) scale(1, -1) translate(-722.274066, -44.378779) "></path>
                    <rect id="Rectangle" fill="url(#linearGradient-2)" x="0" y="77.7757009" width="1445" height="347.261682"></rect>
                </g>
            </g>
        </g>
    </g>
</svg>