<?xml version="1.0" encoding="UTF-8"?>
<svg width="1440px" height="861px" viewBox="0 0 1440 861" version="1.1" xmlns="http://www.w3.org/2000/svg" xmlns:xlink="http://www.w3.org/1999/xlink">
    <!-- Generator: Sketch 51.2 (57519) - http://www.bohemiancoding.com/sketch -->
    <title>portfolio-component-bg3</title>
    <desc>Created with Sketch.</desc>
    <defs>
        <linearGradient x1="50%" y1="0%" x2="50%" y2="100%" id="linearGradient-1">
            <stop stop-color="#0776B7" offset="0%"></stop>
            <stop stop-color="#03366C" offset="100%"></stop>
        </linearGradient>
        <linearGradient x1="50.0167756%" y1="1.31464048%" x2="50%" y2="90.237312%" id="linearGradient-2">
            <stop stop-color="#5089B2" offset="0%"></stop>
            <stop stop-color="#628CB6" offset="46.3742195%"></stop>
            <stop stop-color="#034181" offset="100%"></stop>
        </linearGradient>
    </defs>
    <g id="MF-Branding---Homepage-(High-Res)" stroke="none" stroke-width="1" fill="none" fill-rule="evenodd">
        <g id="Desktop-HD" transform="translate(0.000000, -3806.000000)" fill-rule="nonzero">
            <g id="portfolio-component-bg3" transform="translate(0.000000, 3806.000000)">
                <g id="background-shadow" transform="translate(722.500000, 387.500000) scale(-1, -1) translate(-722.500000, -387.500000) ">
                    <path d="M0,645.532915 L1444.54813,645.532915 L1444.54813,741.017462 C1413.84505,744.422573 1376.28759,729.971387 1331.87575,697.663903 C1304.14465,688.138592 1250.56851,691.612277 1232.81551,685.944235 C1216.40536,682.097299 1230.86422,686.284324 1223.29565,688.377872 C1219.63152,689.391411 1184.85813,689.391411 1186.85951,688.377872 C1192.91998,685.30874 1195.2626,680.989384 1160.29694,688.377872 C1162.36037,685.594938 1156.87363,682.097299 1126.9971,682.097299 C1123.65624,675.060878 1115.72005,675.060878 1096.70157,673.18739 C1089.6899,686.786521 1064.43208,688.377872 1017.02094,685.944235 C999.24973,686.786521 814.148129,671.950724 842.232771,682.097299 C781.169391,690.90427 644.180582,719.623549 558.55497,698.441786 C549.008106,696.080116 576.520401,681.993749 531.63717,698.441786 C496.125096,699.853975 510.822154,688.18788 499.360087,691.080831 C487.898021,693.973783 496.125096,702.392272 481.127602,705.53916 C466.130109,708.686049 486.334329,701.223206 457.555561,699.853975 C373.60289,718.280033 409.998758,722.525072 383.519472,731.687157 C383.519472,741.223505 344.836152,757.864675 317.038281,754.995603 C289.240409,752.126532 309.301602,752.126532 315.238694,747.951974 C304.891881,749.941682 263.019226,735.006439 243.980595,747.169256 C213.172588,766.85093 148.314953,780.200884 119.530812,772.209909 C112.457624,770.24627 134.101099,768.14041 117.433973,766.534401 C108.131538,765.638038 94.6038379,761.224533 80.2303093,758.172009 C66.1744782,755.186955 70.1838654,765.168701 54.1131644,766.85093 C50.6905324,767.2092 59.8731324,760.322602 54.1131644,760.079431 C51.1620765,759.954844 39.7605693,763.029609 39.0580613,763.029609 C38.3555532,763.029609 43.2644768,751.949126 34.5149425,751.469522 C31.8368611,751.322724 22.875036,755.772021 15.503793,758.413648 C11.9854728,759.674505 6.81754184,760.229766 0,760.079431 L0,645.532915 Z" id="Bottom-Section-Block" fill="#03366C" transform="translate(722.274066, 710.048348) scale(-1, 1) translate(-722.274066, -710.048348) "></path>
                    <path d="M0,0.532915361 L1444.54813,0.532915361 L1444.54813,96.0174618 C1413.84505,99.422573 1376.28759,84.9713868 1331.87575,52.6639033 C1304.14465,43.1385923 1250.56851,46.6122771 1232.81551,40.9442349 C1216.40536,37.0972988 1230.86422,41.2843236 1223.29565,43.3778719 C1219.63152,44.391411 1184.85813,44.391411 1186.85951,43.3778719 C1192.91998,40.30874 1195.2626,35.9893841 1160.29694,43.3778719 C1162.36037,40.5949378 1156.87363,37.0972988 1126.9971,37.0972988 C1123.65624,30.060878 1115.72005,30.060878 1096.70157,28.1873898 C1089.6899,41.7865209 1064.43208,43.3778719 1017.02094,40.9442349 C999.24973,41.7865209 814.148129,26.9507239 842.232771,37.0972988 C781.169391,45.90427 644.180582,74.6235489 558.55497,53.4417859 C549.008106,51.0801163 576.520401,36.9937488 531.63717,53.4417859 C496.125096,54.8539748 510.822154,43.1878796 499.360087,46.0808312 C487.898021,48.9737828 496.125096,57.392272 481.127602,60.5391605 C466.130109,63.6860489 486.334329,56.223206 457.555561,54.8539748 C373.60289,73.2800328 409.998758,77.5250722 383.519472,86.6871571 C383.519472,96.2235045 344.836152,112.864675 317.038281,109.995603 C289.240409,107.126532 309.301602,107.126532 315.238694,102.951974 C304.891881,104.941682 263.019226,90.0064392 243.980595,102.169256 C213.172588,121.85093 148.314953,135.200884 119.530812,127.209909 C112.457624,125.24627 134.101099,123.14041 117.433973,121.534401 C108.131538,120.638038 94.6038379,116.224533 80.2303093,113.172009 C66.1744782,110.186955 70.1838654,120.168701 54.1131644,121.85093 C50.6905324,122.2092 59.8731324,115.322602 54.1131644,115.079431 C51.1620765,114.954844 39.7605693,118.029609 39.0580613,118.029609 C38.3555532,118.029609 43.2644768,106.949126 34.5149425,106.469522 C31.8368611,106.322724 22.875036,110.772021 15.503793,113.413648 C11.9854728,114.674505 6.81754184,115.229766 0,115.079431 L0,0.532915361 Z" id="Top-Section-Block" fill="#0776B7" transform="translate(722.274066, 65.048348) scale(1, -1) translate(-722.274066, -65.048348) "></path>
                    <rect id="Rectangle" fill="url(#linearGradient-1)" x="0" y="29" width="1445" height="540"></rect>
                </g>
                <g id="background" transform="translate(722.500000, 438.500000) scale(-1, -1) translate(-722.500000, -438.500000) translate(0.000000, 16.000000)">
                    <path d="M0,715.532915 L1444.54813,715.532915 L1444.54813,811.017462 C1413.84505,814.422573 1376.28759,799.971387 1331.87575,767.663903 C1304.14465,758.138592 1250.56851,761.612277 1232.81551,755.944235 C1216.40536,752.097299 1230.86422,756.284324 1223.29565,758.377872 C1219.63152,759.391411 1184.85813,759.391411 1186.85951,758.377872 C1192.91998,755.30874 1195.2626,750.989384 1160.29694,758.377872 C1162.36037,755.594938 1156.87363,752.097299 1126.9971,752.097299 C1123.65624,745.060878 1115.72005,745.060878 1096.70157,743.18739 C1089.6899,756.786521 1064.43208,758.377872 1017.02094,755.944235 C999.24973,756.786521 814.148129,741.950724 842.232771,752.097299 C781.169391,760.90427 644.180582,789.623549 558.55497,768.441786 C549.008106,766.080116 576.520401,751.993749 531.63717,768.441786 C496.125096,769.853975 510.822154,758.18788 499.360087,761.080831 C487.898021,763.973783 496.125096,772.392272 481.127602,775.53916 C466.130109,778.686049 486.334329,771.223206 457.555561,769.853975 C373.60289,788.280033 409.998758,792.525072 383.519472,801.687157 C383.519472,811.223505 344.836152,827.864675 317.038281,824.995603 C289.240409,822.126532 309.301602,822.126532 315.238694,817.951974 C304.891881,819.941682 263.019226,805.006439 243.980595,817.169256 C213.172588,836.85093 148.314953,850.200884 119.530812,842.209909 C112.457624,840.24627 134.101099,838.14041 117.433973,836.534401 C108.131538,835.638038 94.6038379,831.224533 80.2303093,828.172009 C66.1744782,825.186955 70.1838654,835.168701 54.1131644,836.85093 C50.6905324,837.2092 59.8731324,830.322602 54.1131644,830.079431 C51.1620765,829.954844 39.7605693,833.029609 39.0580613,833.029609 C38.3555532,833.029609 43.2644768,821.949126 34.5149425,821.469522 C31.8368611,821.322724 22.875036,825.772021 15.503793,828.413648 C11.9854728,829.674505 6.81754184,830.229766 0,830.079431 L0,715.532915 Z" id="Bottom-Section-Block" fill="#034181" transform="translate(722.274066, 780.048348) scale(-1, 1) translate(-722.274066, -780.048348) "></path>
                    <path d="M0,0.532915361 L1444.54813,0.532915361 L1444.54813,96.0174618 C1413.84505,99.422573 1376.28759,84.9713868 1331.87575,52.6639033 C1304.14465,43.1385923 1250.56851,46.6122771 1232.81551,40.9442349 C1216.40536,37.0972988 1230.86422,41.2843236 1223.29565,43.3778719 C1219.63152,44.391411 1184.85813,44.391411 1186.85951,43.3778719 C1192.91998,40.30874 1195.2626,35.9893841 1160.29694,43.3778719 C1162.36037,40.5949378 1156.87363,37.0972988 1126.9971,37.0972988 C1123.65624,30.060878 1115.72005,30.060878 1096.70157,28.1873898 C1089.6899,41.7865209 1064.43208,43.3778719 1017.02094,40.9442349 C999.24973,41.7865209 814.148129,26.9507239 842.232771,37.0972988 C781.169391,45.90427 644.180582,74.6235489 558.55497,53.4417859 C549.008106,51.0801163 576.520401,36.9937488 531.63717,53.4417859 C496.125096,54.8539748 510.822154,43.1878796 499.360087,46.0808312 C487.898021,48.9737828 496.125096,57.392272 481.127602,60.5391605 C466.130109,63.6860489 486.334329,56.223206 457.555561,54.8539748 C373.60289,73.2800328 409.998758,77.5250722 383.519472,86.6871571 C383.519472,96.2235045 344.836152,112.864675 317.038281,109.995603 C289.240409,107.126532 309.301602,107.126532 315.238694,102.951974 C304.891881,104.941682 263.019226,90.0064392 243.980595,102.169256 C213.172588,121.85093 148.314953,135.200884 119.530812,127.209909 C112.457624,125.24627 134.101099,123.14041 117.433973,121.534401 C108.131538,120.638038 94.6038379,116.224533 80.2303093,113.172009 C66.1744782,110.186955 70.1838654,120.168701 54.1131644,121.85093 C50.6905324,122.2092 59.8731324,115.322602 54.1131644,115.079431 C51.1620765,114.954844 39.7605693,118.029609 39.0580613,118.029609 C38.3555532,118.029609 43.2644768,106.949126 34.5149425,106.469522 C31.8368611,106.322724 22.875036,110.772021 15.503793,113.413648 C11.9854728,114.674505 6.81754184,115.229766 0,115.079431 L0,0.532915361 Z" id="Top-Section-Block" fill="#5089B2" transform="translate(722.274066, 65.048348) scale(1, -1) translate(-722.274066, -65.048348) "></path>
                    <rect id="Rectangle" fill="url(#linearGradient-2)" x="0" y="127" width="1445" height="603"></rect>
                </g>
            </g>
        </g>
    </g>
</svg>