<?xml version="1.0" encoding="UTF-8"?>
<svg width="1440px" height="118px" viewBox="0 0 1440 118" version="1.1" xmlns="http://www.w3.org/2000/svg" xmlns:xlink="http://www.w3.org/1999/xlink">
    <!-- Generator: Sketch 52.2 (67145) - http://www.bohemiancoding.com/sketch -->
    <title>section-2-top-border</title>
    <desc>Created with Sketch.</desc>
    <g id="MF-Branding---Homepage-(High-Res)-Mobile" stroke="none" stroke-width="1" fill="none" fill-rule="evenodd">
        <g id="Desktop-HD" transform="translate(0.000000, -3342.000000)" fill-rule="nonzero">
            <g id="Content-Block-2" transform="translate(-3.000000, 3342.000000)">
                <g id="section-2-top-border" transform="translate(724.000000, 59.000000) scale(-1, 1) translate(-724.000000, -59.000000) ">
                    <path d="M5,117.909305 L1448,107.909305 L1444.54813,73.830072 C1413.84505,77.2351832 1376.28759,62.783997 1331.87575,30.4765135 C1304.14465,20.9512025 1250.56851,24.4248873 1232.81551,18.7568451 C1216.40536,14.909909 1230.86422,19.0969338 1223.29565,21.1904821 C1219.63152,22.2040212 1184.85813,22.2040212 1186.85951,21.1904821 C1192.91998,18.1213502 1195.2626,13.8019943 1160.29694,21.1904821 C1162.36037,18.407548 1156.87363,14.909909 1126.9971,14.909909 C1123.65624,7.87348823 1115.72005,7.87348823 1096.70157,6 C1089.6899,19.5991311 1064.43208,21.1904821 1017.02094,18.7568451 C999.24973,19.5991311 814.148129,4.76333412 842.232771,14.909909 C781.169391,23.7168802 644.180582,52.4361591 558.55497,31.2543961 C549.008106,28.8927266 576.520401,14.806359 531.63717,31.2543961 C496.125096,32.666585 510.822154,21.0004898 499.360087,23.8934414 C487.898021,26.786393 496.125096,35.2048822 481.127602,38.3517707 C466.130109,41.4986591 486.334329,34.0358162 457.555561,32.666585 C373.60289,51.0926431 409.998758,55.3376825 383.519472,64.4997673 C383.519472,74.0361147 344.836152,90.6772848 317.038281,87.8082133 C289.240409,84.9391417 309.301602,84.9391417 315.238694,80.7645841 C304.891881,82.754292 263.019226,67.8190495 243.980595,79.981866 C213.172588,99.6635404 148.314953,113.013494 119.530812,105.022519 C112.457624,103.05888 134.101099,100.95302 117.433973,99.347011 C108.131538,98.4506482 94.6038379,94.0371428 80.2303093,90.9846189 C66.1744782,87.9995648 70.1838654,97.9813117 54.1131644,99.6635404 C50.6905324,100.02181 59.8731324,93.1352125 54.1131644,92.8920416 C51.1620765,92.7674543 39.7605693,95.8422193 39.0580613,95.8422193 C38.3555532,95.8422193 43.2644768,84.7617362 34.5149425,84.2821325 C31.8368611,84.135334 22.875036,88.5846316 15.503793,91.2262579 C11.9854728,92.4871154 8.15087518,93.0423766 4,92.8920416 L5,117.909305 Z" id="border" fill="#F6EBB7" transform="translate(726.000000, 61.954653) scale(1, -1) translate(-726.000000, -61.954653) "></path>
                    <path d="M2.65501956,108.909305 L1445,104.37639 L1444.54813,67.830072 C1413.84505,71.2351832 1376.28759,56.783997 1331.87575,24.4765135 C1304.14465,14.9512025 1250.56851,18.4248873 1232.81551,12.7568451 C1216.40536,8.90990897 1230.86422,13.0969338 1223.29565,15.1904821 C1219.63152,16.2040212 1184.85813,16.2040212 1186.85951,15.1904821 C1192.91998,12.1213502 1195.2626,7.80199429 1160.29694,15.1904821 C1162.36037,12.407548 1156.87363,8.90990897 1126.9971,8.90990897 C1123.65624,1.87348823 1115.72005,1.87348823 1096.70157,4.54747351e-13 C1089.6899,13.5991311 1064.43208,15.1904821 1017.02094,12.7568451 C999.24973,13.5991311 814.148129,-1.23666588 842.232771,8.90990897 C781.169391,17.7168802 644.180582,46.4361591 558.55497,25.2543961 C549.008106,22.8927266 576.520401,8.80635898 531.63717,25.2543961 C496.125096,26.666585 510.822154,15.0004898 499.360087,17.8934414 C487.898021,20.786393 496.125096,29.2048822 481.127602,32.3517707 C466.130109,35.4986591 486.334329,28.0358162 457.555561,26.666585 C373.60289,45.0926431 409.998758,49.3376825 383.519472,58.4997673 C383.519472,68.0361147 344.836152,84.6772848 317.038281,81.8082133 C289.240409,78.9391417 309.301602,78.9391417 315.238694,74.7645841 C304.891881,76.754292 263.019226,61.8190495 243.980595,73.981866 C213.172588,93.6635404 148.314953,107.013494 119.530812,99.0225191 C112.457624,97.0588798 134.101099,94.9530199 117.433973,93.347011 C108.131538,92.4506482 94.6038379,88.0371428 80.2303093,84.9846189 C66.1744782,81.9995648 70.1838654,91.9813117 54.1131644,93.6635404 C50.6905324,94.0218104 59.8731324,87.1352125 54.1131644,86.8920416 C51.1620765,86.7674543 39.7605693,89.8422193 39.0580613,89.8422193 C38.3555532,89.8422193 43.2644768,78.7617362 34.5149425,78.2821325 C31.8368611,78.135334 22.875036,82.5846316 15.503793,85.2262579 C11.9854728,86.4871154 6.81754184,87.0423766 0,86.8920416 L2.65501956,108.909305 Z" id="background" fill="#FFFFFF" transform="translate(722.500000, 54.454653) scale(1, -1) translate(-722.500000, -54.454653) "></path>
                </g>
            </g>
        </g>
    </g>
</svg>