<?xml version="1.0" encoding="UTF-8"?>
<svg width="1440px" height="117px" viewBox="0 0 1440 117" version="1.1" xmlns="http://www.w3.org/2000/svg" xmlns:xlink="http://www.w3.org/1999/xlink">
    <!-- Generator: Sketch 52.2 (67145) - http://www.bohemiancoding.com/sketch -->
    <title>section-1-bottom-border</title>
    <desc>Created with Sketch.</desc>
    <g id="MF-Branding---Homepage-(High-Res)-Mobile" stroke="none" stroke-width="1" fill="none" fill-rule="evenodd">
        <g id="Desktop-HD" transform="translate(0.000000, -2626.000000)" fill-rule="nonzero">
            <g id="Content-Block-1-New" transform="translate(0.000000, 1275.000000)">
                <g id="section-1-bottom-border" transform="translate(722.500000, 1409.500000) scale(-1, -1) translate(-722.500000, -1409.500000) translate(0.000000, 1351.000000)">
                    <path d="M2.65501956,116.905087 L1445,116.905087 L1444.54813,77.9849591 C1413.84505,81.5484475 1376.28759,66.4251132 1331.87575,32.614956 C1304.14465,22.6466073 1250.56851,26.2818588 1232.81551,20.3501868 C1216.40536,16.3243233 1230.86422,20.7060935 1223.29565,22.8970162 C1219.63152,23.9576966 1184.85813,23.9576966 1186.85951,22.8970162 C1192.91998,19.685134 1195.2626,15.1648777 1160.29694,22.8970162 C1162.36037,19.9846433 1156.87363,16.3243233 1126.9971,16.3243233 C1123.65624,8.96062722 1115.72005,8.96062722 1096.70157,7 C1089.6899,21.2316488 1064.43208,22.8970162 1017.02094,20.3501868 C999.24973,21.2316488 814.148129,5.70581478 842.232771,16.3243233 C781.169391,25.5409211 644.180582,55.5959805 558.55497,33.4290191 C549.008106,30.9575045 576.520401,16.2159571 531.63717,33.4290191 C496.125096,34.9068913 510.822154,22.698187 499.360087,25.7256945 C487.898021,28.753202 496.125096,37.5632488 481.127602,40.8565042 C466.130109,44.1497596 486.334329,36.3398077 457.555561,34.9068913 C373.60289,54.1899753 409.998758,58.6324584 383.519472,68.2206868 C383.519472,78.2005852 344.836152,95.6157632 317.038281,92.6132464 C289.240409,89.6107297 309.301602,89.6107297 315.238694,85.2420067 C304.891881,87.324259 263.019226,71.6943541 243.980595,84.4228831 C213.172588,105.019984 148.314953,118.990866 119.530812,110.628218 C112.457624,108.573246 134.101099,106.369439 117.433973,104.688732 C108.131538,103.750678 94.6038379,99.1318936 80.2303093,95.9373919 C66.1744782,92.813498 70.1838654,103.259512 54.1131644,105.019984 C50.6905324,105.394918 59.8731324,98.1880131 54.1131644,97.9335319 C51.1620765,97.8031498 39.7605693,101.020927 39.0580613,101.020927 C38.3555532,101.020927 43.2644768,89.4250727 34.5149425,88.9231619 C31.8368611,88.7695356 22.875036,93.4257772 15.503793,96.1902699 C11.9854728,97.5097719 6.81754184,98.0908593 0,97.9335319 L2.65501956,116.905087 Z" id="border" fill="#FFEEAB" transform="translate(722.500000, 61.952544) scale(1, -1) translate(-722.500000, -61.952544) "></path>
                    <path d="M5,111.672529 L1445,111.672529 L1444.54813,70.9849591 C1413.84505,74.5484475 1376.28759,59.4251132 1331.87575,25.614956 C1304.14465,15.6466073 1250.56851,19.2818588 1232.81551,13.3501868 C1216.40536,9.32432334 1230.86422,13.7060935 1223.29565,15.8970162 C1219.63152,16.9576966 1184.85813,16.9576966 1186.85951,15.8970162 C1192.91998,12.685134 1195.2626,8.16487775 1160.29694,15.8970162 C1162.36037,12.9846433 1156.87363,9.32432334 1126.9971,9.32432334 C1123.65624,1.96062722 1115.72005,1.96062722 1096.70157,-4.54747351e-13 C1089.6899,14.2316488 1064.43208,15.8970162 1017.02094,13.3501868 C999.24973,14.2316488 814.148129,-1.29418522 842.232771,9.32432334 C781.169391,18.5409211 644.180582,48.5959805 558.55497,26.4290191 C549.008106,23.9575045 576.520401,9.21595708 531.63717,26.4290191 C496.125096,27.9068913 510.822154,15.698187 499.360087,18.7256945 C487.898021,21.753202 496.125096,30.5632488 481.127602,33.8565042 C466.130109,37.1497596 486.334329,29.3398077 457.555561,27.9068913 C373.60289,47.1899753 409.998758,51.6324584 383.519472,61.2206868 C383.519472,71.2005852 344.836152,88.6157632 317.038281,85.6132464 C289.240409,82.6107297 309.301602,82.6107297 315.238694,78.2420067 C304.891881,80.324259 263.019226,64.6943541 243.980595,77.4228831 C213.172588,98.0199841 148.314953,111.990866 119.530812,103.628218 C112.457624,101.573246 134.101099,99.3694394 117.433973,97.6887325 C108.131538,96.7506783 94.6038379,92.1318936 80.2303093,88.9373919 C66.1744782,85.813498 70.1838654,96.2595122 54.1131644,98.0199841 C50.6905324,98.3949178 59.8731324,91.1880131 54.1131644,90.9335319 C51.1620765,90.8031498 39.7605693,94.0209272 39.0580613,94.0209272 C38.3555532,94.0209272 43.2644768,82.4250727 34.5149425,81.9231619 C31.8368611,81.7695356 22.875036,86.4257772 15.503793,89.1902699 C11.9854728,90.5097719 8.48420851,91.0908593 5,90.9335319 L5,111.672529 Z" id="background" fill="#FFFFFF" transform="translate(725.000000, 55.836264) scale(1, -1) translate(-725.000000, -55.836264) "></path>
                </g>
            </g>
        </g>
    </g>
</svg>