<?xml version="1.0" encoding="UTF-8" standalone="no"?>
<svg width="489px" height="391px" viewBox="0 0 489 391" version="1.1" xmlns="http://www.w3.org/2000/svg" xmlns:xlink="http://www.w3.org/1999/xlink">
    <!-- Generator: Sketch 48.1 (47250) - http://www.bohemiancoding.com/sketch -->
    <title>web-development-icon</title>
    <desc>Created with Sketch.</desc>
    <defs>
        <filter x="-13.3%" y="-18.8%" width="132.0%" height="142.1%" filterUnits="objectBoundingBox" id="filter-1">
            <feOffset dx="11" dy="7" in="SourceAlpha" result="shadowOffsetOuter1"></feOffset>
            <feGaussianBlur stdDeviation="20" in="shadowOffsetOuter1" result="shadowBlurOuter1"></feGaussianBlur>
            <feColorMatrix values="0 0 0 0 0.0705882353   0 0 0 0 0.0549019608   0 0 0 0 0.243137255  0 0 0 0.5 0" type="matrix" in="shadowBlurOuter1" result="shadowMatrixOuter1"></feColorMatrix>
            <feMerge>
                <feMergeNode in="shadowMatrixOuter1"></feMergeNode>
                <feMergeNode in="SourceGraphic"></feMergeNode>
            </feMerge>
        </filter>
        <linearGradient x1="50%" y1="50%" x2="50%" y2="6.94556452%" id="linearGradient-2">
            <stop stop-color="#FFFFFF" offset="0%"></stop>
            <stop stop-color="#41B5CA" offset="100%"></stop>
        </linearGradient>
        <linearGradient x1="50%" y1="50%" x2="50%" y2="0%" id="linearGradient-3">
            <stop stop-color="#FFFFFF" offset="0%"></stop>
            <stop stop-color="#FAD961" offset="100%"></stop>
        </linearGradient>
    </defs>
    <g id="MF-Branding-Homepage(High-Res)" stroke="none" stroke-width="1" fill="none" fill-rule="evenodd">
        <g transform="translate(-551.000000, -2020.000000)" fill-rule="nonzero" id="Content-Block-2">
            <g transform="translate(380.000000, 1865.000000)">
                <g id="Content" transform="translate(200.000000, 174.000000)">
                    <g id="web-development-icon" filter="url(#filter-1)" transform="translate(0.000000, 14.000000)">
                        <g id="computer-icon" transform="translate(79.000000, 0.000000)">
                            <path d="M38.7096774,0 C17.3322581,0 0,17.3503125 0,38.75 L0,213.125 C0,234.524687 17.3322581,251.875 38.7096774,251.875 L116.129032,251.875 L116.129032,290.625 L96.7741935,290.625 C91.4225806,290.625 87.0967742,294.965 87.0967742,300.3125 C87.0967742,305.669687 91.4225806,310 96.7741935,310 L212.903226,310 C218.254839,310 222.580645,305.669687 222.580645,300.3125 C222.580645,294.965 218.254839,290.625 212.903226,290.625 L193.548387,290.625 L193.548387,251.875 L261.290323,251.875 C282.667742,251.875 300,234.524687 300,213.125 L300,38.75 C300,17.3503125 282.667742,0 261.290323,0 L38.7096774,0 Z" id="computer-background" fill="url(#linearGradient-2)"></path>
                            <path d="M19,174 L19,38.375 C19,27.68 27.6613333,19 38.3333333,19 L260.666667,19 C271.338667,19 280,27.68 280,38.375 L280,174 L19,174 Z M260.666667,233 L38.3333333,233 C27.6613333,233 19,224.264 19,213.5 L19,194 L280,194 L280,213.5 C280,224.264 271.338667,233 260.666667,233 Z M135,252 L174,252 L174,291 L135,291 L135,252 Z M38.7096774,0 C17.3322581,0 0,17.3503125 0,38.75 L0,213.125 C0,234.524687 17.3322581,251.875 38.7096774,251.875 L116.129032,251.875 L116.129032,290.625 L96.7741935,290.625 C91.4225806,290.625 87.0967742,294.965 87.0967742,300.3125 C87.0967742,305.669687 91.4225806,310 96.7741935,310 L212.903226,310 C218.254839,310 222.580645,305.669687 222.580645,300.3125 C222.580645,294.965 218.254839,290.625 212.903226,290.625 L193.548387,290.625 L193.548387,251.875 L261.290323,251.875 C282.667742,251.875 300,234.524687 300,213.125 L300,38.75 C300,17.3503125 282.667742,0 261.290323,0 L38.7096774,0 Z" id="computer-outline" fill="#034181"></path>
                            <path d="M211.959572,100.068209 L190.197236,82.4759885 C188.766029,81.0811067 186.444859,81.0811067 185.017285,82.4759885 C183.586078,83.8708704 183.586078,86.1302883 185.017285,87.5288026 L203.873617,102.774425 L185.017285,118.02368 C183.586078,119.414929 183.586078,121.67798 185.017285,123.072861 C186.444859,124.471376 188.766029,124.471376 190.197236,123.072861 L211.959572,105.480641 C212.722398,104.735978 213.045691,103.747936 212.994836,102.774425 C213.045691,101.800914 212.722398,100.80924 211.959572,100.068209 Z M131.982715,118.020047 L113.126383,102.774425 L131.982715,87.5288026 C133.413922,86.1302883 133.413922,83.8672378 131.982715,82.4759885 C130.555141,81.0774742 128.233971,81.0774742 126.802764,82.4759885 L105.040428,100.068209 C104.277602,100.80924 103.954309,101.800914 104.005164,102.774425 C103.954309,103.747936 104.277602,104.735978 105.040428,105.480641 L126.802764,123.072861 C128.233971,124.471376 130.555141,124.471376 131.982715,123.072861 C133.413922,121.67798 133.413922,119.414929 131.982715,118.020047 Z M183.782233,54.9960902 C182.042263,54.0116814 179.822803,54.5965147 178.820232,56.2965269 L133.413922,143.792669 C132.407718,145.496313 132.825457,148.100819 134.743419,148.656592 C137.086385,149.335871 138.702849,149.0598 139.70542,147.356156 L185.11173,59.8563815 C186.114301,58.1527368 185.51857,55.980499 183.782233,54.9960902 Z" id="Fill-99" fill="#034181"></path>
                        </g>
                        <g id="mobile-phone-icon" transform="translate(334.000000, 172.000000)">
                            <path d="M13.0434783,0 C5.84021739,0 0,7.77965625 0,17.375 L0,121.625 C0,131.220344 5.84021739,139 13.0434783,139 L61.9565217,139 C69.1597826,139 75,131.220344 75,121.625 L75,17.375 C75,7.77965625 69.1597826,0 61.9565217,0 L13.0434783,0 Z" id="tablet-background" fill="url(#linearGradient-3)"></path>
                            <path d="M37.5,126.363636 C40.26,126.363636 42.5,123.384115 42.5,119.712919 C42.5,116.041722 40.26,113.062201 37.5,113.062201 C34.74,113.062201 32.5,116.041722 32.5,119.712919 C32.5,123.384115 34.74,126.363636 37.5,126.363636 Z M68.5,21.9473684 L6.5,21.9473684 L6.5,17.5135566 C6.5,12.6186284 9.42378947,8.64593301 13.0263158,8.64593301 L61.9736842,8.64593301 C65.5762105,8.64593301 68.5,12.6186284 68.5,17.5135566 L68.5,21.9473684 Z M6.5,30.5933014 L68.5,30.5933014 L68.5,100.425837 L6.5,100.425837 L6.5,30.5933014 Z M68.5,121.57512 C68.5,126.421099 65.5762105,130.354067 61.9736842,130.354067 L13.0263158,130.354067 C9.42378947,130.354067 6.5,126.421099 6.5,121.57512 L6.5,108.406699 L68.5,108.406699 L68.5,121.57512 Z M61.9565217,0 L13.0434783,0 C5.84021739,0 0,7.77965625 0,17.375 L0,121.625 C0,131.220344 5.84021739,139 13.0434783,139 L61.9565217,139 C69.1597826,139 75,131.220344 75,121.625 L75,17.375 C75,7.77965625 69.1597826,0 61.9565217,0 Z" id="tablet-border" fill="#034181"></path>
                        </g>
                        <g id="tablet-icon" transform="translate(0.000000, 102.000000)">
                            <path d="M26.0869565,0 C11.6804348,0 0,11.6974687 0,26.125 L0,182.875 C0,197.302531 11.6804348,209 26.0869565,209 L123.913043,209 C138.319565,209 150,197.302531 150,182.875 L150,26.125 C150,11.6974687 138.319565,0 123.913043,0 L26.0869565,0 Z" id="tablet-background" fill="url(#linearGradient-3)"></path>
                            <path d="M75,190 C80.52,190 85,185.52 85,180 C85,174.48 80.52,170 75,170 C69.48,170 65,174.48 65,180 C65,185.52 69.48,190 75,190 Z M137,33 L13,33 L13,26.3333333 C13,18.9733333 18.8475789,13 26.0526316,13 L123.947368,13 C131.152421,13 137,18.9733333 137,26.3333333 L137,33 Z M13,46 L137,46 L137,151 L13,151 L13,46 Z M137,182.8 C137,190.0864 131.152421,196 123.947368,196 L26.0526316,196 C18.8475789,196 13,190.0864 13,182.8 L13,163 L137,163 L137,182.8 Z M123.913043,0 L26.0869565,0 C11.6804348,0 0,11.6974687 0,26.125 L0,182.875 C0,197.302531 11.6804348,209 26.0869565,209 L123.913043,209 C138.319565,209 150,197.302531 150,182.875 L150,26.125 C150,11.6974687 138.319565,0 123.913043,0 Z" id="tablet-border" fill="#034181"></path>
                        </g>
                    </g>
                </g>
            </g>
        </g>
    </g>
</svg>