<?xml version="1.0" encoding="utf-8"?>
<!-- Generator: Adobe Illustrator 17.0.0, SVG Export Plug-In . SVG Version: 6.00 Build 0)  -->
<!DOCTYPE svg PUBLIC "-//W3C//DTD SVG 1.1//EN" "http://www.w3.org/Graphics/SVG/1.1/DTD/svg11.dtd">
<svg version="1.1" id="Layer_1" xmlns="http://www.w3.org/2000/svg" xmlns:xlink="http://www.w3.org/1999/xlink" x="0px" y="0px"
	 width="612.451px" height="534.727px" viewBox="0.5 792.5 612.451 534.727" enable-background="new 0.5 792.5 612.451 534.727"
	 xml:space="preserve">
<path d="M426.59,1327.227c-2.301,0-6.902,0-9.203-2.301L60.771,1120.16c-4.602-2.301-6.902-6.902-9.203-11.504L0.951,883.182
	c-2.301-9.203,4.602-18.406,11.504-20.707l223.173-69.023c4.601-2.301,9.203,0,13.805,2.301l354.316,204.767
	c9.203,4.602,11.504,16.105,6.902,23.008l-170.256,294.496c-2.301,4.602-6.902,6.902-11.504,6.902
	C428.891,1327.227,428.891,1327.227,426.59,1327.227z M86.079,1092.551l335.91,193.263l149.549-262.286L237.929,830.265
	l-200.165,59.82L86.079,1092.551z"/>
<path d="M194.214,1044.235c-11.504,0-25.308-2.301-36.812-9.203c-18.406-9.203-29.91-25.308-34.511-43.714
	s-2.301-39.113,6.902-57.519c9.203-16.105,25.308-27.609,46.015-34.511c18.406-4.602,36.812-2.301,55.218,9.203l0,0
	c16.105,9.203,29.91,25.308,34.511,43.714c4.602,18.406,2.301,39.113-6.902,55.218
	C244.831,1032.731,219.523,1044.235,194.214,1044.235z M194.214,931.498c-2.301,0-6.902,0-9.203,2.301
	c-9.203,2.301-18.406,9.203-23.008,18.406c-6.902,9.203-9.203,18.406-6.902,29.91c2.301,9.203,9.203,18.406,18.406,23.008
	c18.406,11.504,43.714,4.602,52.917-13.805c4.602-9.203,6.902-20.707,4.602-29.91c-2.301-9.203-9.203-18.406-18.406-23.008l0,0
	C208.019,933.799,201.117,931.498,194.214,931.498z"/>
</svg>
