<?xml version="1.0" encoding="utf-8"?>
<!-- Generator: Adobe Illustrator 17.0.0, SVG Export Plug-In . SVG Version: 6.00 Build 0)  -->
<!DOCTYPE svg PUBLIC "-//W3C//DTD SVG 1.1//EN" "http://www.w3.org/Graphics/SVG/1.1/DTD/svg11.dtd">
<svg version="1.1" id="Layer_1" xmlns="http://www.w3.org/2000/svg" xmlns:xlink="http://www.w3.org/1999/xlink" x="0px" y="0px"
	 width="614.336px" height="612px" viewBox="0.5 792.5 614.336 612" enable-background="new 0.5 792.5 614.336 612"
	 xml:space="preserve">
<path d="M596.149,871.92h-79.42h-81.756v-60.733c0-11.679-9.343-18.687-18.687-18.687H196.714c-9.344,0-16.351,7.008-16.351,16.351
	v63.069H98.607h-79.42c-11.679,0-18.687,9.344-18.687,18.687s7.008,16.351,16.351,16.351H79.92v478.855
	c0,11.679,9.344,18.687,18.687,18.687h418.122c9.344,0,16.351-7.008,18.687-16.351V906.958h60.733
	c9.344,0,18.687-4.672,18.687-16.351S605.492,871.92,596.149,871.92z M215.401,827.538h184.534v44.382H215.401V827.538z
	 M498.042,1369.462H114.958V906.958h81.756h219.573h81.756V1369.462z"/>
<path d="M196.714,981.706c-11.679,0-18.687,9.344-18.687,18.687v275.634c0,11.679,9.344,18.687,18.687,18.687
	s18.687-7.008,18.687-16.351v-277.969C215.401,988.714,208.393,981.706,196.714,981.706z"/>
<path d="M306.5,981.706c-11.679,0-18.687,9.344-18.687,18.687v275.634c0,11.679,9.344,18.687,18.687,18.687
	s18.687-7.008,18.687-16.351v-277.969C325.187,988.714,318.179,981.706,306.5,981.706z"/>
<path d="M397.599,1000.393v275.634c0,11.679,9.344,18.687,18.687,18.687s18.687-7.008,18.687-16.351v-277.969
	c0-11.679-7.008-18.687-18.687-18.687C404.607,981.706,397.599,991.05,397.599,1000.393z"/>
</svg>
