<?xml version="1.0" encoding="UTF-8"?>
<svg width="32px" height="27px" viewBox="0 0 32 27" version="1.1" xmlns="http://www.w3.org/2000/svg" xmlns:xlink="http://www.w3.org/1999/xlink">
    <!-- Generator: Sketch 49 (51002) - http://www.bohemiancoding.com/sketch -->
    <title>Twitter</title>
    <desc>Created with Sketch.</desc>
    <defs></defs>
    <g id="Page-1" stroke="none" stroke-width="1" fill="none" fill-rule="evenodd">
        <g id="Footer" transform="translate(-1130.000000, -325.000000)" fill="#404040">
            <g id="social-icons" transform="translate(1080.000000, 323.000000)">
                <path d="M82,5.19631636 C80.8242061,5.73846154 79.5582556,6.10509209 78.2303222,6.26890574 C79.5864295,5.42643554 80.6269883,4.09057421 81.1172155,2.4992416 C79.8475084,3.27930661 78.4444444,3.8468039 76.945589,4.15102925 C75.7510125,2.82686891 74.0436697,2 72.1541351,2 C68.530962,2 65.5914774,5.05200433 65.5914774,8.81581798 C65.5914774,9.35016251 65.6478253,9.86890574 65.7605212,10.3681473 C60.3041615,10.0834236 55.4676293,7.37269772 52.2276222,3.24420368 C51.6622645,4.25438787 51.3392029,5.42643554 51.3392029,6.67453954 C51.3392029,9.03813651 52.4980924,11.1248104 54.2599049,12.3475623 C53.1855374,12.3144095 52.1712743,12.0043337 51.2847332,11.4972914 L51.2847332,11.5811484 C51.2847332,14.8847237 53.5480425,17.6403034 56.5532664,18.2643554 C56.0029348,18.4242687 55.4225509,18.5042254 54.8233844,18.5042254 C54.4007748,18.5042254 53.9875565,18.4632719 53.5874861,18.3833153 C54.423314,21.0901408 56.8462758,23.0617551 59.7200211,23.1144095 C57.4736162,24.943662 54.6411927,26.0338028 51.566473,26.0338028 C51.0368023,26.0338028 50.5127663,26.0026002 50,25.940195 C52.9056759,27.8708559 56.3579269,29 60.0637436,29 C72.1409873,29 78.7430886,18.6153846 78.7430886,9.60758397 C78.7430886,9.31115926 78.7374538,9.01473456 78.7261842,8.72416035 C80.0090392,7.76273023 81.1228503,6.56338028 82,5.19631636" id="Twitter"></path>
            </g>
        </g>
    </g>
</svg>