<?xml version="1.0" encoding="utf-8"?>
<!-- Generator: Adobe Illustrator 17.0.0, SVG Export Plug-In . SVG Version: 6.00 Build 0)  -->
<!DOCTYPE svg PUBLIC "-//W3C//DTD SVG 1.1//EN" "http://www.w3.org/Graphics/SVG/1.1/DTD/svg11.dtd">
<svg version="1.1" id="Layer_1" xmlns="http://www.w3.org/2000/svg" xmlns:xlink="http://www.w3.org/1999/xlink" x="0px" y="0px"
	 width="612px" height="476.739px" viewBox="0.5 792.5 612 476.739" enable-background="new 0.5 792.5 612 476.739"
	 xml:space="preserve">
<g>
	<path d="M612.5,1118.457V941.065h-2.217v-82.044c0-35.478-28.826-66.522-66.522-66.522H67.022
		C31.543,792.5,0.5,821.326,0.5,859.022v343.696c0,35.478,28.826,66.522,66.522,66.522h478.957
		c35.478,0,66.522-31.043,64.304-68.739v-82.043H612.5z M577.022,1087.413h-153c-31.043,0-55.435-24.391-55.435-55.435
		s24.391-55.435,55.435-55.435h153V1087.413z M577.022,1165.022h-6.652v24.391h6.652v13.304c0,17.739-15.522,33.261-33.261,33.261
		H67.022c-17.739,0-33.261-15.522-33.261-35.478v-11.087h8.87v-24.391h-8.87V894.5h8.87v-24.391h-8.87v-11.087
		c0-17.739,15.522-33.261,33.261-33.261h476.739c17.739,0,33.261,15.522,33.261,33.261v11.087h-6.652V894.5h6.652v46.565h-153
		c-48.783,0-88.696,39.913-88.696,88.696s39.913,88.696,88.696,88.696h153V1165.022z"/>
	<rect x="146.848" y="870.109" width="35.478" height="24.391"/>
	<rect x="217.804" y="870.109" width="35.478" height="24.391"/>
	<rect x="288.761" y="870.109" width="35.478" height="24.391"/>
	<rect x="428.456" y="870.109" width="35.478" height="24.391"/>
	<rect x="78.109" y="870.109" width="33.261" height="24.391"/>
	<rect x="359.717" y="870.109" width="35.478" height="24.391"/>
	<rect x="499.413" y="870.109" width="35.478" height="24.391"/>
	<rect x="359.717" y="1167.239" width="35.478" height="24.391"/>
	<rect x="288.761" y="1167.239" width="35.478" height="24.391"/>
	<rect x="217.804" y="1167.239" width="35.478" height="24.391"/>
	<rect x="499.413" y="1167.239" width="35.478" height="24.391"/>
	<rect x="428.456" y="1167.239" width="35.478" height="24.391"/>
	<rect x="146.848" y="1167.239" width="35.478" height="24.391"/>
	<rect x="78.109" y="1167.239" width="33.261" height="24.391"/>
	<rect x="412.935" y="1018.674" width="28.826" height="24.391"/>
</g>
</svg>
